S3/S3_L/S3_L_jikken/S3_L_Fluctuations/ゆらぎ/一週目波形データ/22k-2/A0001CH1.CSV

Memory Length,4000,
Trigger Level,-8.00000e-03,
Source,CH1,
Probe,1.0X,
Vertical Units,V,
Vertical Scale,1.00000e-01,
Vertical Position,-4.00000e-03,
Horizontal Units,S,
Horizontal Scale,5.00000e-03,
Horizontal Position,0.0000000e+00,
Horizontal Mode,Main,
Sampling Period,2.00000e-05,
Firmware,V1.08,
Time, ,
Mode,Fast,
Waveform Data,
0,
0,
-13,
-7,
11,
8,
2,
-9,
-6,
1,
3,
-2,
6,
12,
18,
23,
20,
17,
12,
-6,
-9,
-6,
-3,
-8,
-9,
-3,
-12,
-11,
-15,
-26,
-22,
-16,
-6,
-3,
3,
1,
-2,
-16,
-19,
-16,
-8,
-11,
2,
13,
16,
16,
15,
18,
29,
30,
31,
17,
10,
-10,
-31,
-36,
-36,
-26,
-14,
-4,
-6,
-4,
-2,
0,
-6,
-7,
4,
5,
11,
14,
17,
22,
32,
16,
6,
8,
10,
22,
30,
22,
10,
-8,
-24,
-23,
-15,
-6,
0,
0,
3,
1,
17,
21,
29,
26,
24,
26,
14,
19,
24,
24,
6,
4,
-2,
-1,
3,
4,
6,
1,
-11,
-16,
-15,
-12,
-11,
-4,
2,
5,
-2,
-2,
1,
0,
-2,
7,
14,
13,
14,
19,
18,
12,
4,
-3,
3,
4,
-1,
-3,
-16,
-16,
-17,
-15,
-27,
-35,
-26,
-22,
-18,
-14,
-1,
4,
6,
13,
16,
15,
12,
12,
20,
17,
26,
31,
21,
4,
4,
9,
6,
8,
7,
11,
26,
28,
26,
14,
10,
18,
23,
32,
22,
7,
0,
-4,
-12,
-9,
-12,
-16,
-14,
-15,
-20,
-16,
-7,
5,
9,
9,
8,
5,
0,
-6,
-3,
-4,
0,
15,
22,
20,
16,
10,
16,
14,
2,
2,
2,
2,
-1,
-3,
-12,
-20,
-36,
-44,
-31,
-14,
-8,
-6,
-12,
-1,
2,
4,
11,
4,
-1,
-2,
-6,
-9,
-8,
2,
3,
-4,
-14,
-26,
-22,
-15,
-13,
-8,
-12,
-12,
-16,
-18,
-12,
-3,
12,
23,
41,
45,
36,
32,
33,
33,
26,
13,
9,
4,
12,
28,
23,
19,
6,
-6,
-3,
4,
4,
6,
12,
5,
-1,
-8,
-6,
-4,
-12,
-19,
-15,
-14,
-18,
-16,
-16,
0,
21,
30,
19,
12,
3,
-6,
-17,
-19,
-17,
-19,
-23,
-25,
-21,
-14,
-6,
-10,
-14,
-18,
-17,
-14,
-4,
1,
-2,
-3,
-4,
-11,
-9,
-2,
0,
6,
9,
13,
12,
23,
27,
27,
21,
36,
36,
45,
41,
36,
34,
19,
6,
-4,
-8,
-17,
-26,
-28,
-27,
-30,
-27,
-18,
-12,
-15,
-16,
-10,
-19,
-18,
-16,
-6,
1,
9,
17,
18,
20,
16,
11,
-2,
-25,
-38,
-37,
-38,
-28,
-11,
-8,
-4,
13,
13,
24,
30,
30,
34,
14,
8,
-13,
-21,
-10,
-4,
1,
1,
0,
17,
10,
3,
-8,
-10,
-10,
-4,
0,
6,
6,
3,
1,
-10,
-16,
-21,
-6,
-8,
-6,
-4,
0,
15,
15,
14,
8,
-2,
-12,
-10,
-2,
4,
0,
4,
0,
-10,
-14,
-16,
-12,
-3,
6,
6,
5,
6,
4,
6,
4,
-4,
-10,
-10,
-8,
-12,
-11,
-5,
0,
8,
4,
1,
10,
14,
10,
8,
-14,
-20,
-32,
-17,
-8,
3,
11,
14,
20,
27,
33,
18,
4,
-10,
-17,
-18,
-6,
-6,
-7,
-12,
-12,
-13,
-14,
-10,
5,
7,
7,
14,
18,
17,
15,
18,
10,
2,
-6,
-4,
-2,
-4,
-5,
-8,
-15,
-14,
-20,
-26,
-31,
-20,
-22,
-21,
-16,
-28,
-32,
-21,
-11,
-8,
2,
8,
17,
13,
2,
-9,
-4,
0,
-16,
-16,
-19,
-16,
-12,
-14,
-7,
-6,
-7,
-14,
-18,
-18,
-12,
-9,
-5,
-4,
-6,
-16,
-21,
-7,
7,
25,
19,
21,
26,
20,
16,
18,
1,
-10,
-14,
-24,
-22,
0,
1,
6,
26,
27,
26,
25,
20,
11,
-6,
-6,
-5,
-4,
2,
-2,
-12,
-15,
-24,
-20,
-25,
-22,
-16,
-22,
-22,
-25,
-24,
-29,
-26,
-11,
0,
13,
12,
11,
2,
0,
6,
7,
12,
10,
2,
2,
-4,
-5,
-17,
-23,
-27,
-24,
-11,
-4,
7,
21,
22,
34,
37,
34,
30,
14,
12,
17,
8,
2,
-4,
-8,
-30,
-32,
-32,
-22,
-14,
-2,
-6,
-6,
-2,
7,
4,
-2,
2,
-8,
-9,
-19,
-31,
-34,
-27,
-11,
-7,
-4,
5,
10,
11,
-5,
-5,
2,
9,
6,
5,
-6,
-27,
-26,
-20,
-13,
6,
13,
18,
30,
33,
31,
22,
15,
7,
-4,
-12,
-12,
-16,
-20,
-28,
-34,
-46,
-44,
-22,
-20,
-10,
1,
0,
0,
2,
3,
4,
4,
14,
19,
15,
12,
16,
18,
10,
0,
-1,
-16,
-19,
-14,
-12,
5,
11,
4,
-5,
-16,
-20,
-22,
-29,
-22,
-8,
7,
0,
0,
-3,
-25,
-27,
-29,
-33,
-30,
-17,
-1,
6,
13,
20,
19,
17,
10,
-10,
-8,
-10,
-14,
-32,
-43,
-34,
-25,
-22,
-14,
22,
32,
32,
28,
24,
24,
22,
19,
7,
11,
12,
10,
7,
-3,
-5,
-8,
1,
17,
21,
23,
15,
2,
-2,
-3,
-10,
-17,
-23,
-21,
-12,
-13,
-14,
-18,
-16,
-6,
4,
8,
22,
20,
21,
18,
6,
0,
-12,
-17,
6,
12,
13,
10,
16,
18,
17,
6,
-3,
-16,
-24,
-39,
-42,
-40,
-40,
-31,
-29,
-20,
-7,
3,
6,
9,
11,
15,
13,
3,
11,
13,
6,
1,
2,
2,
13,
16,
10,
10,
10,
8,
8,
9,
4,
1,
0,
-8,
-6,
-7,
-12,
-18,
-19,
-25,
-24,
-18,
-16,
-20,
-30,
-19,
-7,
12,
12,
2,
4,
2,
-9,
-12,
-11,
-15,
-13,
9,
18,
19,
10,
4,
-5,
-4,
5,
16,
0,
-13,
-24,
-24,
-10,
7,
10,
15,
6,
4,
-1,
-4,
-1,
10,
12,
5,
4,
10,
12,
11,
7,
4,
2,
12,
17,
24,
29,
14,
-6,
-3,
-2,
-1,
-2,
-1,
-4,
-8,
-9,
-1,
12,
7,
3,
-1,
-9,
-19,
-19,
-14,
-10,
-18,
-25,
-30,
-24,
-12,
-11,
2,
13,
27,
34,
39,
48,
36,
25,
25,
28,
27,
21,
22,
25,
27,
24,
21,
6,
-1,
-3,
3,
8,
4,
0,
1,
1,
0,
-9,
-23,
-28,
-45,
-47,
-32,
-25,
-18,
-14,
-28,
-24,
-13,
-1,
12,
10,
-8,
-4,
0,
3,
8,
7,
6,
14,
13,
11,
17,
23,
14,
-3,
-6,
-6,
-6,
0,
13,
20,
12,
11,
14,
9,
17,
20,
26,
31,
26,
22,
15,
10,
4,
-17,
-22,
-26,
-26,
-22,
-8,
-1,
4,
2,
2,
-6,
-10,
-12,
-13,
-5,
2,
3,
0,
-12,
-13,
-12,
-5,
-10,
3,
1,
11,
4,
3,
8,
7,
9,
10,
12,
17,
17,
25,
16,
11,
18,
15,
14,
9,
-2,
-6,
-9,
-5,
9,
21,
29,
28,
18,
13,
-6,
-24,
-14,
-12,
-12,
-7,
19,
28,
31,
33,
36,
30,
25,
-1,
1,
8,
6,
4,
8,
1,
-17,
-24,
-33,
-38,
-27,
-23,
-13,
-4,
6,
1,
-6,
-23,
-28,
-24,
-6,
1,
8,
8,
7,
9,
20,
34,
38,
46,
48,
34,
8,
-7,
-18,
-24,
-21,
-11,
10,
14,
23,
29,
18,
19,
21,
22,
21,
8,
-1,
5,
9,
8,
5,
4,
8,
8,
2,
-1,
3,
3,
1,
-10,
-13,
-12,
-24,
-32,
-37,
-31,
-29,
-32,
-17,
-1,
4,
0,
-2,
-1,
0,
3,
-9,
-10,
3,
11,
20,
23,
20,
16,
17,
21,
17,
14,
9,
5,
-4,
-9,
-14,
-22,
-11,
-6,
-1,
3,
9,
14,
13,
10,
10,
15,
20,
8,
10,
10,
7,
7,
10,
7,
9,
-7,
-10,
-11,
-12,
-17,
-28,
-26,
-19,
-9,
-10,
-14,
-2,
6,
7,
2,
-6,
-8,
-6,
2,
7,
18,
26,
12,
1,
7,
5,
6,
7,
11,
12,
22,
20,
20,
24,
24,
14,
15,
12,
20,
24,
16,
10,
5,
10,
7,
8,
18,
14,
8,
1,
0,
-2,
-11,
-9,
-6,
-10,
-6,
-6,
-7,
-11,
-8,
6,
17,
8,
-3,
0,
10,
5,
-12,
-10,
-12,
-14,
-11,
-10,
-7,
3,
9,
2,
-6,
-10,
-3,
3,
-4,
-8,
-7,
-10,
-13,
-15,
-21,
-24,
-16,
-2,
-4,
3,
4,
6,
7,
-2,
-5,
-4,
4,
-3,
-8,
0,
4,
-2,
-4,
-6,
-4,
-5,
5,
14,
12,
16,
22,
25,
26,
25,
7,
-9,
-10,
-7,
-14,
-7,
2,
3,
10,
7,
1,
5,
8,
4,
6,
8,
12,
25,
25,
34,
36,
33,
27,
15,
5,
2,
-16,
-25,
-33,
-38,
-42,
-48,
-43,
-29,
-23,
-24,
-21,
-4,
-2,
2,
17,
19,
26,
28,
28,
23,
7,
7,
0,
-2,
5,
9,
16,
6,
1,
-19,
-26,
-22,
-16,
-3,
-3,
-4,
-7,
-17,
-22,
-14,
-10,
-8,
-1,
7,
0,
-5,
-6,
-11,
-12,
-7,
6,
10,
7,
3,
-13,
-14,
-7,
-2,
9,
16,
26,
31,
25,
35,
33,
40,
29,
22,
23,
26,
25,
24,
10,
4,
-2,
-4,
-5,
-8,
-16,
-17,
-22,
-33,
-37,
-34,
-38,
-26,
-6,
12,
27,
29,
20,
15,
14,
14,
8,
-6,
-10,
-6,
-7,
-8,
-2,
5,
12,
4,
-6,
-10,
-12,
-11,
-8,
-10,
-14,
-30,
-37,
-44,
-46,
-41,
-34,
-18,
-1,
-11,
-11,
4,
8,
14,
17,
14,
5,
4,
1,
2,
18,
13,
15,
9,
2,
-2,
-4,
-6,
-1,
-2,
-12,
-12,
-8,
-2,
2,
9,
12,
12,
12,
1,
-4,
-8,
-7,
-14,
-20,
-18,
-14,
0,
2,
-2,
-5,
-3,
2,
3,
6,
3,
0,
0,
6,
11,
22,
11,
11,
16,
14,
0,
-9,
-24,
-29,
-14,
-7,
-3,
5,
-5,
-6,
-9,
-11,
-4,
0,
-3,
-3,
-8,
-14,
-7,
-6,
-7,
-8,
-14,
-11,
-11,
-12,
-8,
-2,
6,
23,
30,
31,
24,
6,
-10,
-13,
-12,
-19,
-17,
-18,
-17,
-13,
-12,
-13,
-21,
-18,
-8,
0,
9,
8,
11,
16,
16,
21,
7,
6,
4,
-2,
-11,
-5,
1,
-10,
-14,
-10,
0,
7,
3,
-4,
-6,
-10,
-19,
-18,
-16,
-12,
-16,
-21,
-6,
6,
23,
24,
15,
12,
10,
14,
20,
11,
24,
8,
3,
-10,
-13,
-18,
-34,
-40,
-37,
-32,
-23,
-10,
-4,
11,
11,
6,
2,
-12,
-24,
-36,
-47,
-38,
-36,
-34,
-27,
-28,
-22,
-18,
-18,
-18,
-6,
-5,
2,
4,
0,
-7,
-5,
-6,
3,
12,
18,
32,
20,
14,
8,
-2,
-8,
-11,
-4,
-3,
-3,
2,
-2,
-6,
-7,
-6,
-7,
-16,
-19,
-16,
-19,
0,
15,
24,
27,
24,
16,
3,
-4,
-13,
-29,
-20,
-10,
2,
13,
8,
6,
-2,
-22,
-28,
-14,
2,
7,
8,
10,
21,
20,
14,
7,
-6,
4,
10,
11,
6,
-6,
-10,
2,
3,
4,
9,
8,
10,
10,
8,
1,
-14,
-14,
-5,
3,
4,
5,
-15,
-27,
-18,
-11,
-8,
-14,
-28,
-28,
-21,
-13,
-4,
-6,
-13,
-17,
-12,
-4,
-6,
-2,
-2,
3,
1,
-5,
0,
5,
7,
7,
-12,
-18,
-27,
-27,
-20,
-18,
-22,
-30,
-18,
-12,
8,
14,
10,
3,
-4,
-14,
-10,
-6,
0,
6,
15,
12,
12,
-2,
-18,
-17,
-12,
-13,
-16,
-22,
-26,
-22,
-5,
8,
13,
15,
16,
15,
17,
17,
12,
8,
6,
12,
17,
16,
28,
28,
19,
15,
12,
-1,
-4,
-8,
-4,
0,
4,
6,
4,
0,
8,
9,
9,
10,
12,
8,
-2,
-4,
-11,
-14,
-14,
-27,
-21,
-19,
-15,
-12,
-22,
-18,
-18,
-20,
-8,
-4,
-6,
-8,
-4,
7,
8,
4,
0,
-2,
0,
6,
-3,
9,
10,
4,
0,
-3,
-1,
0,
3,
13,
11,
7,
-5,
-4,
-6,
-15,
-22,
-18,
-14,
-13,
-12,
-6,
-2,
5,
13,
24,
32,
26,
6,
-15,
-16,
-8,
2,
-7,
-12,
0,
4,
3,
-1,
1,
2,
10,
11,
3,
0,
0,
-6,
-1,
6,
10,
16,
10,
3,
-2,
-5,
0,
9,
17,
24,
23,
29,
24,
10,
7,
12,
9,
2,
5,
5,
-1,
-7,
-22,
-33,
-43,
-44,
-39,
-32,
-24,
-9,
-7,
2,
0,
-5,
-14,
-25,
-29,
-22,
-6,
-10,
0,
2,
9,
12,
6,
8,
5,
21,
33,
37,
35,
11,
0,
0,
-2,
2,
-10,
-17,
-10,
1,
8,
7,
14,
14,
2,
-1,
-8,
-5,
-6,
2,
5,
21,
40,
26,
15,
-6,
-6,
-4,
-12,
-10,
-8,
-4,
-6,
2,
10,
8,
4,
2,
10,
5,
2,
7,
11,
13,
10,
-1,
-12,
-14,
-14,
-12,
-11,
-3,
2,
8,
8,
17,
10,
15,
17,
14,
12,
6,
11,
16,
7,
-21,
-33,
-34,
-30,
-24,
-21,
-16,
-2,
8,
4,
-4,
0,
-3,
4,
9,
5,
6,
-4,
-4,
4,
-11,
-10,
-7,
14,
20,
31,
45,
38,
25,
18,
11,
3,
-7,
-4,
-4,
-9,
-16,
-12,
-14,
-25,
-14,
-12,
-12,
-12,
-7,
-3,
-2,
3,
12,
17,
19,
20,
15,
14,
16,
6,
2,
-3,
6,
13,
19,
28,
20,
13,
10,
3,
-22,
-24,
-20,
-13,
-1,
9,
8,
5,
-5,
8,
12,
18,
18,
11,
10,
8,
5,
0,
-9,
-12,
-2,
5,
8,
0,
5,
2,
2,
2,
3,
-6,
-12,
-14,
-12,
-14,
-22,
-18,
-18,
-9,
0,
-2,
-2,
-6,
6,
1,
-2,
6,
4,
10,
23,
26,
22,
11,
8,
16,
22,
30,
30,
23,
8,
6,
8,
28,
32,
27,
29,
30,
20,
11,
-2,
-7,
-21,
-22,
-22,
-25,
-20,
-7,
-1,
13,
21,
24,
24,
22,
15,
10,
8,
-8,
-16,
-12,
-16,
-18,
-23,
-26,
-19,
-13,
-8,
-4,
0,
-3,
13,
18,
18,
21,
20,
21,
19,
14,
9,
1,
-9,
-2,
-8,
-7,
-11,
-12,
3,
12,
24,
23,
18,
24,
28,
37,
35,
26,
29,
32,
32,
16,
6,
2,
-7,
-2,
3,
8,
8,
10,
10,
10,
0,
-22,
-28,
-20,
-26,
-31,
-36,
-38,
-26,
-20,
-9,
-11,
-22,
-27,
-24,
-15,
-6,
3,
-4,
12,
44,
54,
61,
65,
67,
54,
30,
16,
3,
-1,
-8,
-26,
-25,
-22,
-16,
-6,
-7,
-9,
-12,
-4,
4,
10,
13,
12,
14,
21,
19,
12,
10,
11,
20,
23,
17,
8,
4,
-5,
-8,
-5,
5,
25,
25,
30,
26,
22,
22,
20,
8,
8,
5,
-3,
-14,
-28,
-25,
-28,
-38,
-40,
-28,
-23,
-18,
-12,
-8,
1,
2,
-5,
-15,
-16,
-10,
-2,
-1,
-3,
-10,
-6,
-3,
0,
-2,
-4,
-2,
-13,
-12,
-2,
-4,
-19,
-15,
-20,
-18,
-19,
-16,
4,
12,
18,
37,
39,
21,
12,
12,
6,
-4,
-1,
-5,
-6,
-1,
26,
48,
42,
42,
36,
26,
19,
18,
17,
8,
0,
-9,
-15,
-16,
-11,
-15,
-16,
-10,
-8,
-2,
8,
5,
-8,
-10,
-4,
-5,
-7,
-7,
-3,
0,
-3,
4,
3,
1,
-2,
-5,
-9,
-7,
-2,
-1,
-12,
-17,
-9,
-12,
-3,
-1,
3,
6,
3,
6,
8,
2,
1,
-8,
7,
2,
-1,
-13,
-15,
-11,
-12,
-10,
-9,
4,
2,
-1,
11,
16,
10,
8,
-1,
-2,
7,
4,
5,
10,
15,
16,
14,
14,
12,
11,
8,
6,
1,
-7,
-8,
4,
-2,
-2,
-7,
-12,
-14,
-10,
-4,
-1,
5,
10,
10,
12,
10,
8,
22,
20,
14,
1,
-8,
-24,
-30,
-30,
-31,
-39,
-40,
-34,
-33,
-20,
-3,
5,
6,
17,
20,
15,
8,
-1,
-8,
-9,
-3,
4,
-2,
2,
6,
4,
2,
9,
18,
29,
22,
18,
27,
26,
22,
14,
-1,
-19,
-17,
-14,
-17,
-7,
4,
11,
4,
2,
-6,
-11,
-21,
-33,
-37,
-40,
-39,
-40,
-21,
-7,
-6,
-2,
8,
15,
23,
7,
-5,
-9,
-7,
-12,
-14,
-12,
-3,
2,
4,
4,
1,
6,
10,
20,
18,
18,
14,
7,
-1,
0,
-2,
-9,
-16,
-13,
-17,
-9,
5,
2,
2,
-2,
-5,
-2,
-4,
0,
-2,
7,
12,
24,
17,
12,
0,
-7,
-4,
-11,
-21,
-19,
-9,
-7,
11,
13,
-1,
-14,
-32,
-38,
-41,
-37,
-28,
-12,
10,
23,
24,
20,
11,
-5,
-16,
-16,
-10,
-4,
0,
-4,
-5,
-5,
-14,
-13,
-9,
-2,
-6,
0,
7,
8,
17,
20,
8,
-6,
-12,
-14,
-15,
-16,
-12,
-11,
-11,
-9,
-6,
9,
15,
16,
20,
18,
-1,
-10,
-4,
-2,
-2,
11,
10,
9,
12,
15,
8,
-24,
-34,
-30,
-28,
-16,
-13,
-5,
-1,
-10,
-5,
-20,
-18,
-15,
-11,
0,
-9,
-6,
2,
9,
9,
10,
15,
18,
13,
4,
-1,
-8,
-8,
-3,
-8,
-13,
-10,
-7,
-9,
-3,
3,
-4,
-14,
-23,
-25,
-24,
-24,
-27,
-28,
-13,
1,
9,
24,
31,
31,
27,
22,
18,
14,
10,
1,
-5,
-17,
-24,
-19,
-18,
-8,
-8,
-10,
-9,
-10,
-4,
4,
2,
2,
4,
3,
-4,
-7,
-20,
-15,
-20,
-15,
-13,
-14,
-18,
-26,
-21,
-9,
-6,
2,
5,
13,
17,
15,
10,
14,
10,
8,
3,
5,
6,
9,
5,
-5,
-10,
-5,
-13,
-14,
-14,
-8,
-10,
-19,
-24,
-30,
-33,
-23,
-18,
-13,
-7,
-10,
-12,
-8,
-2,
-2,
6,
6,
9,
-2,
2,
0,
4,
7,
3,
7,
16,
11,
2,
3,
2,
0,
-5,
-15,
-8,
-6,
4,
8,
5,
-5,
-7,
-3,
4,
9,
9,
0,
-10,
-26,
-30,
-26,
-18,
-16,
-13,
-6,
-5,
-2,
-4,
-5,
-5,
-8,
-2,
1,
8,
12,
12,
5,
2,
-6,
10,
16,
6,
-2,
-8,
-4,
-1,
0,
4,
-2,
6,
14,
17,
21,
22,
17,
3,
6,
16,
16,
10,
4,
-6,
-12,
-17,
-23,
-13,
-9,
-2,
-4,
-8,
-14,
-21,
-12,
-8,
-9,
-10,
-10,
-15,
-6,
6,
6,
7,
12,
17,
12,
10,
16,
16,
26,
25,
6,
-8,
-31,
-29,
-27,
-26,
-22,
-17,
-18,
-18,
-16,
-9,
-9,
-6,
6,
14,
18,
30,
23,
24,
33,
37,
38,
22,
8,
-5,
2,
10,
10,
6,
6,
6,
-1,
-6,
-6,
-9,
-18,
-26,
-18,
-21,
-28,
-30,
-32,
-25,
-14,
-12,
-14,
-19,
-20,
-27,
-23,
-14,
2,
6,
18,
34,
38,
24,
16,
4,
-6,
-12,
-8,
1,
8,
8,
11,
11,
4,
-8,
-9,
-10,
-18,
-23,
-15,
-6,
6,
16,
32,
34,
31,
24,
18,
9,
-10,
-15,
-8,
-12,
-20,
-19,
-4,
-3,
-9,
-15,
-14,
-8,
-4,
-3,
2,
12,
11,
5,
-10,
-12,
-6,
-4,
-4,
5,
14,
16,
21,
22,
24,
22,
29,
30,
16,
-10,
-22,
-25,
-36,
-31,
-9,
1,
5,
8,
11,
18,
21,
24,
22,
16,
13,
2,
-8,
-13,
-12,
-13,
-7,
-8,
-8,
-2,
-3,
1,
9,
18,
26,
35,
26,
23,
4,
-8,
-7,
7,
17,
18,
21,
19,
17,
6,
8,
1,
0,
-6,
-13,
-19,
-25,
-28,
-20,
-16,
-2,
0,
2,
2,
2,
-10,
-13,
-21,
-25,
-27,
-21,
-19,
-13,
-2,
-7,
-1,
7,
7,
9,
14,
14,
14,
6,
3,
2,
9,
13,
14,
11,
9,
4,
7,
9,
11,
10,
5,
6,
4,
-17,
-25,
-33,
-34,
-20,
-11,
6,
11,
12,
11,
4,
-2,
0,
2,
7,
-6,
-18,
-9,
2,
8,
18,
40,
45,
47,
37,
12,
3,
2,
2,
-1,
-4,
-4,
-17,
-20,
-10,
-2,
7,
7,
2,
7,
9,
4,
2,
2,
15,
8,
2,
6,
7,
-4,
-7,
-3,
5,
4,
4,
-2,
9,
14,
15,
12,
10,
15,
16,
2,
-12,
-5,
-2,
-2,
-7,
-10,
-7,
-6,
7,
15,
3,
10,
8,
15,
14,
11,
2,
-2,
-6,
-8,
-6,
-5,
-4,
-5,
2,
9,
14,
13,
15,
26,
33,
34,
25,
18,
16,
14,
12,
12,
8,
3,
6,
4,
10,
10,
19,
28,
26,
16,
8,
7,
6,
7,
14,
3,
4,
10,
9,
-13,
-16,
-9,
-10,
-13,
-12,
2,
1,
-3,
-19,
-19,
-22,
-25,
-22,
-21,
-12,
1,
0,
-6,
-3,
11,
13,
3,
-3,
2,
6,
29,
45,
36,
27,
9,
-4,
-4,
1,
2,
6,
2,
-2,
-10,
-11,
-10,
-12,
-15,
-9,
-10,
-9,
-7,
-3,
-4,
8,
21,
23,
20,
19,
17,
9,
7,
6,
9,
12,
10,
5,
2,
2,
0,
2,
-2,
-3,
-13,
-18,
-26,
-30,
-30,
-25,
-23,
-13,
-4,
-3,
-9,
-18,
-21,
-15,
-10,
-9,
-7,
2,
8,
14,
14,
11,
15,
15,
22,
20,
7,
4,
9,
9,
4,
-1,
7,
18,
18,
18,
13,
-2,
-13,
-13,
-12,
-15,
-17,
-13,
-6,
0,
8,
14,
17,
33,
31,
29,
28,
22,
12,
5,
1,
2,
3,
-8,
-6,
-5,
-3,
11,
18,
17,
14,
9,
8,
-1,
-7,
1,
-4,
-9,
-20,
-9,
2,
5,
10,
4,
0,
-1,
6,
3,
0,
-10,
-16,
-15,
-23,
-9,
1,
1,
6,
4,
6,
4,
22,
26,
33,
37,
41,
27,
19,
20,
24,
14,
10,
7,
7,
5,
1,
-3,
-6,
-12,
-20,
-14,
-12,
-6,
1,
11,
7,
4,
7,
-8,
-20,
-26,
-16,
-2,
0,
0,
-5,
-2,
-12,
-14,
-21,
-22,
-11,
15,
24,
35,
33,
32,
18,
7,
-1,
-16,
-22,
-30,
-29,
-30,
-22,
-8,
-1,
0,
6,
5,
8,
9,
16,
18,
18,
0,
-10,
-28,
-28,
-18,
0,
4,
10,
12,
15,
10,
0,
-10,
-15,
-26,
-25,
-25,
-32,
-44,
-48,
-42,
-24,
-6,
1,
18,
16,
17,
16,
15,
16,
22,
21,
23,
18,
18,
20,
12,
16,
10,
2,
-4,
-4,
-4,
-6,
-10,
-8,
-2,
4,
2,
0,
0,
2,
-1,
-14,
-21,
-19,
-14,
2,
6,
12,
11,
8,
10,
16,
0,
-5,
-13,
-16,
-23,
-30,
-19,
-7,
-10,
7,
6,
10,
16,
12,
12,
4,
-10,
-4,
14,
10,
4,
-2,
-17,
-14,
-19,
-15,
-16,
-22,
-20,
-12,
-4,
8,
6,
9,
12,
2,
0,
14,
23,
17,
12,
5,
-1,
-1,
1,
-2,
2,
5,
7,
1,
-6,
-12,
-14,
-8,
-3,
7,
4,
0,
-1,
4,
-7,
0,
7,
6,
-1,
-10,
-17,
-22,
-10,
-14,
-16,
-15,
2,
-9,
-14,
3,
7,
14,
17,
16,
10,
-6,
-13,
-16,
-20,
-19,
-12,
0,
0,
2,
1,
-2,
-1,
-5,
-8,
-1,
-4,
3,
3,
2,
-7,
-9,
-12,
-9,
-6,
-9,
-17,
-20,
-13,
-5,
-4,
4,
3,
10,
14,
6,
6,
2,
-4,
-4,
2,
2,
16,
12,
2,
-3,
-8,
2,
9,
14,
10,
-11,
-12,
-16,
-13,
-6,
-12,
-6,
7,
13,
13,
3,
-3,
-6,
-6,
-2,
-9,
-2,
10,
8,
-1,
-3,
-21,
-21,
-8,
-1,
1,
3,
7,
17,
18,
12,
2,
4,
-11,
-12,
-15,
-12,
-2,
-10,
-13,
-22,
-22,
-17,
-10,
-14,
-13,
-5,
-8,
-24,
-21,
-16,
-8,
8,
5,
-14,
-22,
-36,
-30,
-24,
-8,
10,
10,
6,
-13,
-16,
-15,
-13,
-12,
0,
-7,
-9,
-8,
-6,
11,
16,
3,
-7,
-16,
-12,
0,
2,
6,
-5,
1,
-6,
-12,
-13,
-5,
-4,
-4,
0,
-1,
-1,
0,
-11,
-8,
-6,
-3,
0,
-7,
-7,
-13,
-18,
-18,
-18,
-14,
-13,
-9,
-10,
-12,
-8,
-7,
-3,
5,
12,
13,
12,
5,
8,
7,
5,
-6,
-14,
-12,
-6,
-4,
-7,
-11,
-2,
3,
7,
16,
21,
24,
29,
18,
12,
1,
-5,
-4,
2,
2,
5,
16,
20,
21,
14,
-2,
1,
3,
5,
6,
7,
-2,
-6,
1,
2,
-7,
-14,
-18,
-23,
-23,
-39,
-38,
-40,
-37,
-29,
-24,
-18,
0,
17,
11,
2,
-4,
-9,
-14,
-20,
-27,
-30,
-24,
-17,
-9,
-12,
-12,
2,
-1,
-2,
-7,
-13,
-18,
-28,
-24,
-16,
2,
3,
4,
8,
7,
8,
9,
2,
-3,
-4,
-9,
-7,
-7,
4,
11,
11,
8,
10,
14,
13,
16,
11,
11,
14,
5,
-1,
-1,
-10,
-12,
4,
4,
6,
17,
15,
8,
5,
4,
-8,
-15,
-16,
-15,
-16,
-17,
-25,
-26,
-33,
-24,
-14,
0,
11,
14,
2,
-5,
-5,
0,
-2,
-6,
-8,
-8,
-10,
-16,
-14,
-2,
0,
4,
7,
6,
18,
34,
33,
26,
26,
22,
15,
11,
7,
-5,
-7,
-6,
-20,
-20,
-18,
-15,
-3,
7,
17,
14,
14,
21,
20,
18,
13,
10,
5,
5,
0,
-5,
-12,
-8,
-6,
-5,
4,
1,
2,
4,
8,
4,
7,
20,
16,
7,
-1,
-4,
-12,
-20,
-29,
-34,
-36,
-30,
-29,
-25,
-12,
-6,
6,
8,
16,
16,
3,
3,
12,
24,
29,
26,
18,
16,
16,
12,
-9,
-20,
-18,
-14,
-4,
-4,
-4,
-6,
-14,
-13,
-4,
0,
1,
5,
10,
13,
16,
17,
16,
18,
22,
24,
20,
23,
18,
15,
17,
10,
2,
-5,
-15,
-24,
-38,
-42,
-43,
-42,
-36,
-21,
1,
10,
19,
31,
36,
34,
34,
29,
20,
10,
8,
7,
16,
7,
1,
-1,
-4,
-2,
2,
-4,
-3,
-10,
-17,
-10,
-10,
-2,
2,
12,
6,
-2,
-5,
-6,
-5,
9,
16,
10,
3,
1,
-17,
-29,
-24,
-11,
-12,
-4,
5,
7,
4,
-2,
-5,
-9,
-6,
2,
4,
8,
13,
4,
3,
4,
6,
4,
4,
4,
4,
-1,
-13,
-8,
5,
3,
7,
5,
1,
-6,
0,
2,
8,
11,
13,
15,
16,
17,
20,
17,
11,
6,
3,
-1,
-5,
-5,
-12,
-13,
-20,
-18,
-19,
-16,
-12,
-2,
7,
12,
17,
20,
18,
19,
24,
24,
24,
12,
-10,
-12,
-15,
-12,
-17,
-13,
-21,
-20,
-16,
-8,
-2,
10,
18,
22,
14,
1,
-3,
-3,
-9,
