S3/S3_L/S3_L_jikken/S3_L_Fluctuations/ゆらぎ/一週目波形データ/220k-2/A0008CH1.CSV

Memory Length,4000,
Trigger Level,-1.00000e-01,
Source,CH1,
Probe,1.0X,
Vertical Units,V,
Vertical Scale,5.00000e-01,
Vertical Position,1.20000e-01,
Horizontal Units,S,
Horizontal Scale,1.00000e-02,
Horizontal Position,0.0000000e+00,
Horizontal Mode,Main,
Sampling Period,4.00000e-05,
Firmware,V1.08,
Time, ,
Mode,Fast,
Waveform Data,
-17,
-17,
3,
3,
1,
11,
3,
-2,
-4,
-8,
-5,
-6,
-9,
-12,
-1,
-4,
-3,
3,
0,
-1,
-1,
-6,
-14,
-9,
-1,
0,
5,
6,
1,
-3,
-5,
-13,
-22,
-9,
12,
10,
3,
1,
6,
2,
-11,
-10,
-9,
-1,
-3,
-8,
-12,
-17,
-11,
-5,
-13,
-8,
4,
0,
-2,
-1,
4,
5,
0,
1,
-13,
-9,
-6,
-5,
-9,
-14,
-10,
-6,
-14,
-7,
-2,
5,
11,
9,
17,
3,
3,
-7,
-6,
-6,
-13,
1,
12,
5,
13,
-3,
-17,
-16,
-11,
-8,
-12,
-1,
-5,
-3,
5,
6,
3,
-15,
-19,
-13,
0,
9,
13,
10,
1,
-10,
-8,
-6,
-15,
-5,
-11,
-17,
-7,
9,
9,
7,
5,
-9,
-13,
-13,
-15,
-15,
-13,
0,
0,
-9,
-3,
6,
5,
-3,
-10,
-11,
-14,
-11,
-7,
-11,
1,
-3,
-1,
4,
1,
-7,
3,
15,
15,
3,
-14,
-29,
-19,
-17,
-4,
13,
17,
3,
-5,
-3,
1,
5,
3,
6,
-5,
-26,
-29,
-9,
-1,
3,
4,
11,
14,
13,
16,
7,
2,
-7,
-6,
-14,
-13,
-13,
-5,
-6,
-7,
-1,
9,
14,
3,
-5,
-6,
3,
11,
10,
-7,
-8,
-7,
-21,
-23,
-21,
-14,
6,
7,
11,
-2,
-7,
0,
5,
8,
10,
3,
-9,
-17,
-10,
-17,
-11,
-7,
1,
1,
1,
-3,
4,
-3,
-9,
-1,
14,
13,
9,
3,
-9,
-18,
-9,
-10,
-1,
9,
10,
-1,
4,
8,
3,
-4,
-7,
-9,
-5,
-10,
-20,
-23,
-17,
-14,
-19,
-10,
-5,
7,
13,
12,
11,
4,
-1,
-5,
-2,
-5,
-8,
-1,
0,
-2,
-1,
0,
3,
8,
-13,
-4,
-2,
-12,
-2,
-3,
-1,
3,
4,
-6,
-11,
-9,
-7,
1,
-1,
-7,
-11,
-10,
-12,
3,
9,
0,
-10,
-12,
-10,
-6,
1,
-15,
-15,
-15,
-17,
13,
6,
7,
9,
7,
4,
-1,
6,
9,
0,
1,
2,
3,
4,
-9,
-15,
-10,
-8,
1,
-5,
7,
6,
-4,
-2,
-1,
3,
-1,
-9,
-17,
-15,
-13,
-9,
-2,
-7,
-10,
-8,
1,
10,
14,
-1,
-7,
-16,
4,
11,
6,
-7,
-15,
-25,
-27,
-12,
-8,
-9,
-9,
-6,
-1,
7,
14,
17,
17,
15,
25,
17,
0,
-1,
-16,
-18,
-18,
-12,
-7,
-7,
5,
8,
-3,
5,
3,
-1,
-2,
-10,
-13,
-6,
-1,
4,
8,
7,
-4,
-1,
-2,
-12,
-18,
-17,
-17,
-10,
-3,
-1,
9,
15,
-4,
-2,
-2,
-2,
-5,
-13,
-13,
-9,
-3,
-1,
8,
1,
-4,
0,
-7,
-5,
-6,
-2,
-13,
-13,
10,
2,
5,
11,
8,
-9,
-16,
-15,
-8,
-2,
-6,
-10,
-4,
11,
23,
14,
-3,
-7,
3,
-1,
-12,
-14,
-8,
-3,
-3,
1,
-5,
-13,
-16,
-4,
-1,
-11,
-16,
-15,
0,
9,
-1,
7,
-1,
11,
-1,
-7,
-14,
-17,
-22,
-6,
3,
12,
13,
20,
15,
11,
10,
0,
-9,
-5,
-10,
-6,
-14,
-4,
-10,
-21,
-32,
-21,
-8,
-1,
-7,
-6,
2,
21,
14,
9,
7,
5,
-6,
-19,
-30,
-17,
-11,
0,
12,
8,
1,
-3,
4,
-7,
-12,
-2,
2,
9,
2,
-3,
-5,
-5,
-11,
-6,
-5,
6,
2,
7,
18,
1,
-2,
-7,
-5,
-13,
-16,
-13,
-5,
7,
7,
0,
-2,
-1,
-1,
-10,
-16,
-11,
-7,
5,
9,
1,
-1,
-13,
-19,
-15,
-11,
-2,
-6,
-5,
-7,
-5,
-1,
3,
15,
11,
1,
3,
-6,
-7,
-20,
-20,
-7,
-3,
13,
18,
13,
1,
-8,
-1,
-13,
-13,
-24,
-28,
-17,
-8,
-4,
1,
-1,
-5,
-13,
-2,
9,
0,
-3,
-5,
-3,
9,
4,
-17,
-21,
-21,
-7,
1,
9,
19,
9,
-5,
-1,
9,
5,
0,
-3,
-10,
-15,
-6,
-2,
-19,
-17,
-23,
-5,
-6,
-1,
11,
7,
-5,
5,
11,
11,
21,
13,
3,
-15,
-13,
-7,
-7,
-8,
-1,
-7,
-13,
-12,
9,
13,
0,
-2,
-5,
-6,
-10,
-7,
-8,
-5,
7,
14,
0,
-3,
-21,
-24,
-22,
-7,
-10,
-13,
-9,
3,
4,
11,
8,
5,
-1,
-3,
-6,
-17,
-20,
-15,
-19,
-19,
-2,
3,
13,
23,
19,
12,
8,
6,
-4,
-9,
-9,
-19,
-10,
-9,
9,
14,
11,
4,
-7,
-13,
-16,
-6,
-3,
-6,
-3,
-7,
-6,
-12,
-11,
-10,
-13,
-10,
-10,
-8,
-13,
-13,
-10,
-5,
13,
10,
8,
-3,
-5,
-2,
4,
12,
12,
2,
-4,
-5,
-10,
-6,
3,
3,
3,
-6,
-9,
-9,
-17,
-24,
-21,
-7,
-1,
5,
15,
19,
-1,
3,
5,
9,
3,
-9,
-12,
-12,
-9,
2,
0,
-1,
-4,
-3,
-7,
-15,
-12,
7,
-2,
-1,
-10,
-5,
-7,
2,
5,
21,
14,
-7,
-5,
-32,
-30,
-17,
-2,
-1,
5,
11,
7,
-5,
-3,
-4,
-4,
-1,
4,
9,
4,
3,
11,
-5,
-11,
-9,
-11,
-8,
-11,
-4,
-9,
-5,
1,
-7,
-10,
-10,
-9,
-3,
-2,
5,
-6,
-7,
2,
-2,
5,
-6,
-10,
-9,
-5,
10,
4,
17,
16,
4,
6,
-1,
-3,
-1,
-5,
-4,
-14,
-17,
-11,
-13,
-8,
-3,
-5,
-2,
-5,
-3,
-13,
-14,
-8,
-8,
1,
2,
-11,
-10,
1,
-5,
-2,
-3,
-4,
5,
-1,
-7,
-7,
4,
11,
8,
3,
0,
0,
1,
3,
5,
10,
14,
1,
-5,
-11,
-13,
-17,
-22,
-17,
-8,
-1,
2,
-11,
-16,
-16,
1,
4,
-3,
-1,
5,
14,
18,
8,
5,
-6,
-16,
-15,
-9,
0,
9,
8,
13,
1,
-2,
5,
0,
3,
-3,
1,
6,
-3,
-7,
-14,
-8,
8,
7,
11,
2,
-10,
-17,
-21,
-23,
-20,
-6,
-3,
1,
7,
0,
-3,
-3,
-1,
13,
-7,
-9,
-17,
-9,
-7,
-13,
-12,
-8,
-1,
-1,
6,
9,
14,
-7,
-13,
-11,
-9,
-8,
2,
10,
5,
-3,
0,
0,
3,
1,
-9,
6,
-1,
-6,
-17,
-17,
4,
8,
19,
0,
1,
-2,
-9,
-11,
-8,
3,
7,
4,
-3,
-5,
-5,
-8,
-14,
-10,
0,
1,
3,
-7,
-10,
-1,
3,
4,
10,
9,
3,
-1,
5,
-10,
-25,
-19,
-6,
-2,
-1,
-7,
-13,
-1,
14,
4,
-13,
-12,
9,
15,
12,
7,
-13,
-4,
-3,
0,
11,
-2,
-11,
-11,
-9,
-3,
-10,
-8,
-12,
-31,
-17,
3,
15,
9,
8,
1,
-4,
9,
4,
4,
3,
-13,
-16,
-9,
-5,
-7,
-17,
-18,
-4,
11,
14,
5,
5,
6,
3,
10,
10,
6,
12,
-7,
-13,
-21,
-10,
-5,
-9,
-5,
-6,
-1,
2,
5,
-3,
-5,
-8,
-18,
-23,
-8,
-12,
-5,
0,
-4,
7,
5,
8,
10,
-1,
-10,
-7,
-2,
6,
16,
12,
-10,
-8,
-12,
-16,
-8,
0,
-1,
7,
8,
2,
-12,
-9,
0,
-1,
-4,
-14,
-5,
7,
5,
-6,
-12,
-27,
-19,
-19,
-10,
-5,
-2,
2,
1,
10,
16,
17,
-7,
-16,
-11,
-8,
4,
0,
-3,
2,
-1,
-3,
3,
5,
3,
-2,
-3,
-4,
1,
1,
-7,
-9,
-6,
-17,
-17,
-3,
12,
-3,
-12,
-28,
-23,
-10,
5,
5,
9,
22,
17,
-4,
-9,
-9,
-7,
0,
-3,
-2,
11,
5,
-3,
-3,
1,
-4,
-9,
-13,
-8,
-3,
-9,
-11,
-15,
-17,
-14,
6,
9,
1,
-11,
-6,
-7,
-3,
-3,
-8,
-1,
2,
-2,
0,
-1,
3,
9,
-12,
-6,
6,
-6,
-10,
-8,
-14,
-4,
12,
17,
8,
4,
1,
-3,
-9,
-7,
-2,
-5,
1,
3,
-3,
-5,
-7,
-9,
-8,
-2,
3,
-7,
-5,
0,
-5,
-7,
7,
-1,
-11,
-11,
-3,
-7,
-10,
-11,
-11,
-1,
5,
9,
5,
-9,
-13,
-11,
-6,
-5,
-3,
5,
1,
-5,
-23,
-23,
-13,
-3,
3,
2,
-7,
0,
12,
4,
-5,
-2,
3,
1,
-1,
-5,
-13,
-9,
-8,
-11,
-3,
-15,
-6,
-13,
-3,
2,
8,
13,
18,
-7,
-7,
-11,
-11,
-10,
-7,
7,
-9,
3,
-1,
1,
-8,
-7,
-3,
-5,
-2,
-1,
-1,
13,
4,
0,
1,
-4,
0,
-19,
-26,
-19,
-5,
7,
2,
1,
14,
1,
3,
-2,
4,
8,
-1,
-15,
-10,
-21,
-22,
-17,
-7,
-9,
-5,
-6,
-9,
9,
5,
11,
3,
9,
6,
-7,
-5,
-4,
-5,
-7,
-7,
6,
-5,
-15,
-18,
-11,
2,
5,
9,
1,
3,
1,
-4,
-1,
7,
7,
6,
-5,
-17,
-6,
-3,
9,
8,
1,
0,
-9,
-13,
-11,
-16,
-2,
-2,
-5,
-5,
-5,
-6,
-3,
-5,
-3,
6,
10,
-5,
-12,
-13,
-8,
-7,
-1,
-7,
14,
23,
-3,
-7,
-6,
1,
-1,
-3,
-7,
2,
-6,
-11,
-5,
11,
3,
-5,
-9,
-17,
-14,
7,
7,
1,
1,
-9,
1,
7,
-5,
-12,
-4,
-11,
-11,
-16,
-9,
6,
12,
19,
12,
12,
-5,
-22,
-20,
-20,
-13,
-7,
-9,
-7,
-3,
11,
-2,
9,
20,
-1,
0,
-2,
-12,
-6,
-4,
-1,
-4,
-9,
-1,
-2,
5,
-8,
-10,
-15,
-17,
1,
26,
27,
23,
20,
-9,
-27,
-40,
-41,
-15,
-4,
1,
8,
4,
-11,
-15,
-10,
-17,
-4,
0,
7,
3,
-11,
1,
4,
3,
5,
-6,
7,
12,
3,
-4,
-14,
-6,
-15,
-9,
-4,
4,
12,
-2,
3,
13,
6,
-1,
-5,
3,
10,
11,
-1,
-7,
-2,
-9,
-21,
-8,
-5,
0,
-11,
-7,
-12,
-19,
-15,
-16,
-16,
6,
2,
-7,
-2,
-1,
3,
8,
4,
-3,
-1,
7,
5,
9,
3,
-7,
-8,
-5,
-9,
-4,
1,
-9,
-12,
-3,
1,
3,
4,
-19,
-23,
-13,
-6,
-13,
-2,
3,
4,
1,
1,
-1,
7,
0,
-8,
-2,
-4,
3,
3,
0,
9,
0,
-13,
-8,
-5,
1,
-5,
-3,
-1,
1,
-1,
-8,
-9,
-10,
-3,
-6,
-5,
0,
15,
7,
8,
-5,
2,
2,
0,
-5,
-5,
-10,
-14,
-16,
-22,
-8,
11,
16,
6,
-3,
3,
9,
-6,
-15,
-11,
-11,
-1,
0,
-3,
1,
-1,
-6,
-10,
-12,
-10,
-7,
-7,
-17,
4,
7,
1,
-9,
-4,
1,
13,
9,
14,
4,
-9,
-23,
-22,
-15,
-6,
3,
19,
17,
11,
-6,
3,
2,
1,
-7,
-7,
0,
1,
1,
0,
-1,
-1,
-6,
-10,
-4,
3,
-10,
2,
-1,
-7,
-5,
-8,
-5,
1,
6,
-5,
-4,
-4,
0,
-3,
-3,
-7,
-6,
-5,
-4,
-3,
13,
2,
-10,
-9,
-12,
-8,
-5,
-9,
-12,
-7,
-9,
-7,
1,
11,
11,
9,
15,
4,
-1,
-5,
-4,
-8,
-15,
-15,
-1,
9,
14,
6,
7,
-9,
-13,
-10,
-5,
-3,
3,
6,
5,
1,
-5,
-8,
-17,
-6,
-1,
-23,
-26,
-10,
-4,
2,
9,
9,
11,
17,
11,
7,
-5,
-1,
5,
10,
6,
-5,
-14,
-16,
-5,
-15,
-20,
-23,
-19,
-15,
-2,
14,
14,
-2,
-5,
1,
7,
6,
9,
5,
2,
-9,
-9,
-14,
-17,
-22,
-27,
-18,
-7,
-4,
-8,
-6,
6,
12,
4,
-5,
-8,
0,
-1,
-9,
0,
2,
-2,
2,
-5,
-4,
-4,
12,
9,
8,
8,
-3,
-11,
-8,
-13,
-12,
-15,
-12,
11,
19,
1,
-2,
-1,
-7,
-4,
0,
-2,
-7,
-5,
-11,
-13,
-10,
-3,
-6,
-14,
-8,
1,
9,
-5,
-8,
2,
-7,
-15,
-6,
-9,
1,
-3,
4,
-1,
-5,
-13,
-3,
5,
13,
11,
14,
12,
-2,
-1,
-15,
-15,
-9,
-14,
-1,
0,
3,
1,
-4,
6,
8,
1,
-6,
-5,
-13,
-17,
-2,
6,
5,
3,
3,
-3,
-13,
-6,
0,
-1,
-5,
-12,
-12,
8,
8,
7,
7,
1,
-5,
-2,
-5,
-9,
-3,
-12,
-13,
-7,
-7,
-5,
-7,
-9,
-4,
-5,
-1,
-1,
6,
13,
7,
4,
10,
6,
-13,
-19,
-24,
-23,
-20,
-15,
-11,
-9,
5,
13,
17,
21,
9,
-5,
-12,
-7,
-6,
7,
10,
7,
-3,
1,
-8,
-1,
2,
-8,
-9,
-8,
-9,
-13,
-1,
0,
3,
-1,
-1,
5,
4,
5,
4,
3,
2,
-9,
-18,
-25,
-26,
-5,
-5,
2,
0,
-1,
4,
11,
-3,
11,
9,
8,
-12,
-12,
-10,
-9,
-2,
-3,
-6,
-3,
-12,
-23,
-25,
-16,
9,
12,
17,
19,
3,
10,
3,
-8,
-14,
-12,
7,
14,
15,
14,
8,
-5,
-22,
-21,
-15,
-21,
-21,
-12,
5,
-5,
-7,
4,
5,
1,
-11,
-13,
-11,
-9,
0,
2,
0,
9,
6,
3,
-1,
-1,
-2,
-13,
-10,
-6,
0,
16,
15,
11,
9,
-1,
-6,
-17,
-16,
-20,
-16,
-7,
-12,
-10,
0,
3,
19,
13,
2,
-10,
-4,
-1,
-14,
-11,
-4,
7,
6,
9,
-2,
-10,
-13,
-13,
-8,
-21,
-23,
-22,
5,
10,
8,
14,
19,
17,
15,
20,
6,
-9,
-11,
-15,
-10,
-7,
0,
-9,
-6,
6,
16,
12,
-8,
-11,
-10,
-9,
-8,
-7,
-15,
0,
2,
-6,
10,
2,
-8,
-10,
-10,
5,
-12,
-7,
-1,
-7,
-1,
2,
2,
13,
20,
23,
14,
10,
-18,
-25,
-21,
-14,
3,
-6,
-9,
-7,
-19,
-20,
-19,
10,
13,
2,
0,
2,
-4,
-5,
-3,
2,
-7,
-4,
10,
-2,
-6,
-13,
-7,
-3,
-9,
-8,
-7,
-3,
-6,
-6,
-1,
-4,
1,
-3,
-14,
-11,
-7,
-6,
-5,
-8,
-2,
1,
5,
14,
18,
9,
-13,
-13,
2,
-1,
4,
5,
-1,
-9,
-11,
-11,
-8,
-3,
0,
-12,
-11,
-3,
-5,
1,
1,
6,
2,
3,
-2,
-2,
-11,
-7,
-12,
-1,
6,
15,
9,
-15,
-6,
-6,
-13,
-7,
-3,
-1,
-15,
-1,
3,
-1,
5,
-9,
-7,
-10,
-13,
-4,
8,
9,
-2,
3,
-3,
-11,
-7,
-5,
1,
0,
-2,
-5,
-5,
-7,
-3,
-5,
-8,
-10,
-4,
10,
19,
6,
7,
-10,
-9,
-10,
-6,
-5,
-11,
-25,
-14,
-3,
2,
-9,
-12,
-12,
-1,
-1,
-1,
-3,
-12,
-4,
13,
8,
-4,
10,
1,
-3,
3,
3,
-2,
-9,
-16,
-9,
3,
3,
5,
1,
-1,
3,
-10,
-9,
-4,
-2,
2,
-2,
-4,
-2,
-8,
-19,
-18,
-15,
-5,
-3,
-2,
-6,
12,
10,
7,
9,
7,
-1,
-12,
-5,
-5,
-12,
4,
-3,
-7,
-9,
-9,
1,
-7,
1,
3,
-5,
3,
7,
3,
-7,
-17,
-7,
-1,
1,
1,
3,
10,
21,
18,
15,
7,
-5,
-31,
-32,
-29,
-27,
-16,
-5,
-13,
-18,
-6,
-3,
-2,
-19,
-1,
3,
-4,
-6,
-4,
20,
15,
1,
2,
-3,
-9,
-10,
-9,
-5,
3,
15,
5,
3,
-7,
-9,
-10,
0,
7,
7,
-1,
-7,
-5,
-4,
-5,
-16,
-10,
-15,
-21,
-1,
8,
13,
7,
-4,
-5,
-2,
3,
3,
4,
5,
0,
10,
9,
6,
-9,
-12,
-15,
-2,
1,
-9,
-11,
1,
11,
13,
15,
1,
-17,
-22,
-15,
-17,
-21,
-20,
-2,
11,
16,
16,
18,
13,
3,
2,
-4,
-9,
-6,
-4,
-9,
-8,
5,
-3,
-6,
-5,
-15,
-13,
-22,
-21,
-11,
0,
4,
-2,
1,
5,
-3,
1,
5,
9,
21,
19,
17,
9,
7,
7,
-6,
-10,
-17,
-7,
-5,
-18,
-19,
-17,
-19,
-5,
-1,
9,
0,
4,
9,
12,
19,
5,
5,
7,
-11,
-17,
-3,
7,
7,
-4,
-8,
-17,
-9,
-7,
-10,
11,
2,
7,
0,
-2,
-12,
-18,
-13,
-9,
-10,
-3,
0,
9,
0,
-8,
-7,
-4,
-7,
-13,
-13,
-15,
-13,
-6,
-5,
-12,
-1,
-10,
-21,
-13,
-10,
8,
8,
2,
-6,
-8,
-13,
-7,
-3,
10,
13,
6,
1,
1,
-4,
-16,
-19,
-15,
2,
15,
17,
16,
19,
13,
-3,
-9,
-17,
-19,
-23,
-22,
-17,
-4,
7,
5,
-3,
-6,
8,
5,
-1,
-7,
-20,
-17,
-15,
2,
0,
-2,
4,
14,
8,
-8,
0,
4,
7,
9,
-6,
-21,
-24,
-30,
-17,
2,
23,
23,
-1,
-7,
-12,
-11,
-5,
-2,
1,
-8,
-5,
10,
15,
6,
6,
-4,
-15,
-18,
-12,
-7,
-4,
-2,
-6,
-13,
-7,
-3,
7,
7,
3,
-2,
9,
4,
-9,
-5,
-9,
-18,
-11,
0,
4,
7,
-13,
-13,
-28,
-15,
-18,
-13,
-3,
0,
-1,
3,
10,
25,
26,
17,
12,
-12,
-13,
-12,
-21,
-23,
-21,
5,
7,
0,
5,
2,
0,
0,
13,
5,
-6,
-10,
-16,
-6,
-9,
-15,
-6,
-13,
-16,
-4,
-3,
3,
12,
-1,
-16,
-21,
-19,
-17,
-5,
14,
11,
6,
5,
5,
-8,
-5,
2,
3,
5,
2,
-1,
5,
-13,
-21,
-20,
-7,
6,
15,
19,
11,
-3,
5,
-5,
-3,
-5,
-17,
-19,
-23,
-8,
2,
5,
-2,
2,
2,
-7,
-5,
-5,
-11,
-1,
5,
-1,
3,
2,
0,
1,
-1,
5,
-6,
-8,
-4,
-9,
-9,
6,
12,
12,
5,
7,
-2,
-6,
-13,
-10,
-3,
-2,
-13,
-9,
-11,
-11,
-16,
-14,
-10,
4,
8,
14,
9,
9,
-3,
-13,
-6,
3,
2,
-14,
-6,
5,
10,
16,
9,
-8,
-11,
-19,
-22,
-22,
-13,
-7,
3,
-3,
-3,
11,
6,
-16,
-7,
6,
7,
-2,
0,
-2,
2,
4,
0,
-14,
-19,
-21,
-16,
-19,
-17,
-12,
-3,
9,
6,
1,
10,
3,
8,
4,
4,
3,
-9,
-3,
-6,
-9,
-3,
-7,
5,
2,
5,
0,
8,
14,
7,
3,
-5,
-24,
-23,
-18,
-17,
-17,
-10,
9,
14,
2,
-1,
10,
7,
-9,
-8,
-16,
-20,
-5,
-12,
-17,
-20,
-9,
8,
17,
3,
1,
-1,
-8,
-1,
7,
2,
-9,
-12,
-29,
-23,
-17,
-7,
-1,
4,
7,
8,
7,
9,
-4,
2,
3,
4,
15,
14,
10,
-2,
-6,
-7,
-6,
-16,
-21,
-25,
-14,
-6,
-3,
-4,
-5,
2,
3,
0,
-1,
2,
13,
12,
13,
10,
9,
3,
0,
1,
-11,
-21,
-16,
-19,
-24,
-27,
-25,
6,
13,
5,
-1,
-10,
-9,
-9,
-11,
-7,
7,
21,
11,
4,
0,
3,
15,
-6,
-10,
-8,
1,
1,
4,
-8,
-7,
-4,
-13,
-21,
-18,
-10,
-3,
0,
-1,
12,
10,
11,
0,
-1,
-1,
-12,
-8,
-8,
-8,
-6,
-9,
-13,
6,
5,
-8,
-2,
5,
12,
15,
-4,
0,
2,
-3,
-18,
-18,
-21,
-20,
-13,
-5,
8,
3,
5,
18,
18,
16,
6,
-20,
-19,
-15,
-7,
-3,
-5,
-7,
-18,
-15,
-2,
-4,
-9,
-9,
-4,
15,
19,
14,
11,
11,
-8,
-16,
-11,
-12,
-21,
-12,
-9,
1,
10,
10,
13,
16,
16,
7,
-1,
-3,
-7,
-23,
-28,
-7,
7,
3,
1,
3,
1,
-3,
-12,
-1,
-5,
-10,
-8,
-11,
-7,
0,
13,
14,
5,
3,
-6,
-14,
-22,
-18,
-14,
1,
9,
7,
-2,
-5,
-13,
-3,
-1,
-8,
-4,
9,
13,
4,
-11,
-4,
-1,
8,
14,
10,
10,
-4,
-11,
1,
3,
10,
0,
-3,
-5,
-15,
-13,
-6,
-4,
-23,
-21,
-17,
-19,
-16,
-7,
-3,
5,
10,
0,
-1,
-1,
1,
1,
-3,
-5,
-16,
-7,
-5,
8,
-1,
-7,
-16,
-9,
6,
19,
25,
29,
20,
3,
2,
-4,
-9,
-9,
-15,
-15,
-29,
-8,
-9,
-1,
-2,
-1,
7,
1,
1,
-5,
-14,
-4,
-7,
-7,
-13,
-11,
-14,
-21,
-3,
3,
-5,
13,
21,
19,
15,
17,
13,
-3,
-11,
-9,
-14,
-9,
0,
7,
-10,
-13,
-5,
-7,
-5,
-7,
-2,
-5,
-10,
-15,
-17,
0,
4,
14,
15,
1,
-3,
-2,
-3,
-3,
-10,
-17,
-13,
-10,
1,
18,
13,
1,
-11,
-10,
-6,
-3,
-7,
-13,
-17,
-9,
-5,
-5,
0,
3,
-3,
-7,
-8,
-4,
5,
8,
-5,
-4,
-1,
-6,
-5,
-4,
-1,
2,
5,
-1,
-1,
3,
5,
6,
3,
-3,
-2,
-3,
-3,
-8,
-11,
-4,
-8,
-7,
-3,
-11,
-6,
1,
3,
1,
-3,
-3,
-5,
-18,
-17,
-8,
6,
5,
-3,
0,
-14,
-11,
-7,
-9,
-8,
-8,
-13,
-19,
-7,
2,
3,
-5,
3,
7,
6,
0,
-3,
-9,
3,
1,
12,
6,
1,
0,
-10,
-8,
-8,
-1,
3,
-4,
-8,
-9,
-9,
-3,
-9,
-1,
-3,
5,
7,
4,
-2,
-2,
1,
0,
3,
-5,
-18,
-19,
-15,
-10,
-2,
4,
4,
4,
4,
-1,
5,
1,
11,
11,
-11,
-26,
-21,
-10,
-2,
-12,
-7,
-5,
-5,
-4,
5,
13,
4,
9,
8,
7,
0,
-7,
-7,
1,
15,
15,
-2,
-8,
-15,
-17,
-18,
-18,
-2,
1,
9,
13,
0,
-7,
-9,
-7,
1,
-8,
-15,
-9,
-2,
-1,
-9,
-10,
-5,
7,
12,
3,
-4,
1,
-1,
-3,
4,
5,
12,
-1,
-6,
-3,
-9,
-13,
-8,
-5,
-4,
1,
2,
-3,
-10,
-3,
-5,
-9,
8,
0,
-21,
-23,
-17,
-19,
-17,
-9,
1,
2,
8,
8,
10,
9,
7,
3,
-8,
-12,
-3,
3,
1,
-5,
-7,
-3,
-2,
7,
1,
-4,
-5,
-7,
-7,
-11,
-9,
-5,
-7,
-7,
-3,
6,
9,
4,
3,
3,
0,
-1,
-5,
-18,
-11,
-5,
-7,
-8,
-2,
0,
-5,
3,
20,
11,
9,
21,
13,
-9,
-15,
-14,
-9,
-19,
-25,
-29,
-20,
-11,
2,
-1,
-3,
8,
3,
0,
-13,
-16,
-10,
5,
9,
4,
-11,
-12,
-7,
-1,
-4,
-16,
-9,
15,
22,
9,
-5,
-11,
-7,
-9,
-7,
-9,
-14,
-3,
-1,
-9,
-3,
11,
5,
5,
-3,
-5,
-13,
-11,
-7,
-4,
-8,
-10,
-3,
5,
7,
13,
14,
3,
9,
1,
-7,
-6,
-13,
-4,
-6,
-7,
-6,
-1,
9,
8,
-1,
-7,
-13,
-4,
-3,
0,
-1,
-7,
-5,
-5,
-3,
-6,
-5,
-1,
-5,
-7,
-5,
-6,
-5,
-4,
-12,
-4,
-2,
-7,
-1,
1,
7,
11,
9,
5,
14,
10,
-6,
-11,
-12,
-11,
-2,
-3,
1,
-9,
-14,
-6,
-1,
8,
2,
-3,
-7,
-9,
-8,
-8,
-7,
-6,
-19,
-22,
-6,
3,
11,
7,
-1,
-12,
-8,
-9,
-9,
-19,
-17,
-8,
-4,
-2,
5,
5,
-2,
-5,
-8,
-7,
5,
5,
-1,
1,
-2,
-3,
-3,
9,
13,
10,
3,
-4,
5,
-3,
-6,
-7,
-11,
-1,
6,
11,
3,
-7,
-4,
-15,
-4,
-3,
-6,
-3,
-3,
-9,
-5,
-5,
1,
1,
2,
-5,
-9,
-10,
-13,
-14,
-7,
-9,
-6,
-6,
-5,
7,
3,
9,
5,
8,
4,
-11,
-28,
-25,
-13,
-4,
-1,
-4,
-12,
-8,
-9,
0,
-1,
-3,
3,
1,
-9,
10,
3,
-6,
-6,
-10,
10,
19,
17,
7,
3,
0,
-13,
-15,
-14,
-17,
-15,
-2,
0,
1,
1,
-1,
-3,
3,
15,
10,
8,
-3,
-2,
0,
-3,
-11,
-20,
-22,
-23,
-14,
-7,
-3,
4,
3,
6,
9,
8,
0,
3,
-2,
1,
1,
2,
-1,
-3,
4,
16,
9,
-2,
-9,
-16,
-25,
-25,
-7,
-1,
4,
-6,
-20,
-22,
-15,
3,
7,
6,
21,
17,
12,
-4,
-4,
-5,
-11,
-3,
2,
0,
-1,
-10,
-7,
-9,
-4,
-10,
-5,
-5,
0,
1,
-9,
-17,
-6,
-4,
-9,
-5,
3,
11,
13,
9,
2,
-1,
-13,
-16,
-9,
-15,
-13,
-7,
-11,
-6,
3,
-9,
-11,
-7,
-5,
-9,
7,
18,
12,
16,
20,
29,
32,
17,
1,
-15,
-13,
-14,
-17,
-1,
1,
0,
-18,
-19,
-13,
-13,
-24,
-28,
-15,
11,
11,
1,
5,
-4,
-11,
-13,
-6,
5,
1,
3,
8,
-6,
-7,
-18,
-10,
-1,
2,
3,
-1,
-6,
-5,
0,
4,
0,
-4,
-14,
-21,
-15,
-10,
-17,
-15,
3,
11,
8,
14,
16,
5,
1,
-8,
-10,
-7,
-9,
-3,
-2,
2,
9,
8,
7,
1,
3,
-5,
-4,
-7,
-14,
-13,
-12,
-12,
-13,
-2,
-3,
-4,
-8,
-11,
-7,
-2,
-5,
-7,
7,
8,
8,
13,
15,
4,
-5,
-11,
-13,
-13,
-3,
1,
4,
9,
16,
13,
-5,
-7,
-13,
-29,
-24,
-15,
-5,
-5,
8,
-3,
-7,
-6,
-6,
-15,
-13,
-7,
2,
2,
8,
11,
1,
-4,
-4,
-4,
8,
7,
4,
6,
6,
-5,
-17,
-18,
-24,
-23,
-5,
-3,
1,
11,
5,
4,
2,
0,
-7,
-8,
-5,
-1,
4,
5,
-15,
-15,
-25,
-9,
1,
8,
14,
11,
16,
15,
1,
-7,
-8,
1,
3,
-3,
-7,
-8,
0,
-1,
0,
12,
3,
-5,
-7,
-15,
-11,
-12,
-4,
-2,
-9,
-8,
-5,
-12,
-16,
-12,
-15,
-13,
-1,
5,
6,
-1,
-5,
3,
3,
3,
12,
11,
10,
0,
13,
13,
-2,
0,
-3,
-5,
-2,
-7,
-11,
-5,
3,
-1,
7,
5,
-9,
-20,
-12,
-5,
-6,
-3,
-4,
1,
7,
2,
-15,
-13,
-16,
-17,
-11,
-8,
9,
10,
4,
5,
1,
-3,
-1,
-6,
7,
1,
-13,
-3,
-1,
2,
0,
9,
7,
-3,
-7,
-9,
-13,
-10,
-9,
-10,
-9,
0,
-3,
-2,
-7,
-6,
-8,
0,
-6,
-9,
2,
3,
2,
-1,
-8,
-23,
-19,
-3,
10,
11,
4,
-1,
-6,
-4,
3,
3,
5,
9,
5,
1,
-1,
-5,
-11,
-9,
-8,
-11,
-1,
-2,
10,
6,
8,
-5,
-13,
-17,
-19,
-17,
-6,
1,
9,
9,
9,
14,
15,
-1,
-11,
-9,
-7,
6,
-13,
-20,
-18,
-15,
-19,
-2,
4,
21,
11,
0,
-11,
-17,
-11,
-5,
3,
-5,
-10,
-14,
-5,
5,
4,
-17,
-16,
-13,
-8,
-7,
13,
12,
7,
15,
-2,
-13,
-13,
-17,
-7,
-9,
-1,
-5,
-7,
1,
10,
11,
9,
9,
9,
