S3/S3_L/S3_L_jikken/S3_L_Fluctuations/ゆらぎ/一週目波形データ/56k-1/A0001CH1.CSV

Memory Length,4000,
Trigger Level,-9.60000e-02,
Source,CH1,
Probe,1.0X,
Vertical Units,V,
Vertical Scale,2.00000e-01,
Vertical Position,4.00000e-02,
Horizontal Units,S,
Horizontal Scale,1.00000e-02,
Horizontal Position,0.0000000e+00,
Horizontal Mode,Main,
Sampling Period,4.00000e-05,
Firmware,V1.08,
Time, ,
Mode,Fast,
Waveform Data,
-11,
-11,
-19,
-24,
-27,
-30,
-23,
-8,
-2,
-5,
-8,
-13,
-13,
-18,
-7,
-7,
-8,
2,
0,
-12,
-14,
-4,
-7,
-14,
-10,
-3,
11,
26,
27,
11,
-1,
1,
-9,
-16,
-5,
0,
-5,
2,
7,
8,
-3,
5,
-5,
-10,
-4,
-13,
-19,
-19,
-17,
-7,
-5,
-12,
0,
12,
16,
7,
-3,
-7,
-8,
-21,
-38,
-13,
-1,
5,
-1,
-9,
-3,
9,
4,
-1,
-10,
-18,
-45,
-35,
-22,
-7,
-4,
-12,
-7,
-10,
27,
27,
24,
-1,
1,
-3,
-22,
-19,
-1,
19,
9,
-4,
2,
5,
9,
11,
16,
12,
4,
-7,
-4,
-5,
-11,
-9,
-8,
-9,
-7,
-6,
-9,
-8,
5,
15,
9,
3,
-5,
-17,
2,
-5,
-15,
-12,
-9,
-4,
2,
11,
8,
7,
-4,
-8,
-11,
-7,
-9,
-6,
5,
20,
7,
-8,
-6,
-5,
-10,
-9,
2,
33,
26,
16,
13,
-4,
-9,
4,
3,
12,
1,
-22,
-29,
-29,
-19,
-9,
-5,
3,
-4,
2,
12,
12,
4,
-6,
-8,
-2,
-7,
-11,
-11,
1,
11,
5,
13,
15,
8,
8,
5,
-7,
-13,
-15,
-11,
5,
10,
18,
2,
-1,
1,
10,
3,
-8,
-6,
16,
29,
22,
10,
20,
3,
-6,
8,
8,
-3,
0,
11,
8,
-8,
-5,
-2,
2,
7,
8,
-5,
-7,
-9,
-8,
-3,
-9,
-17,
-4,
15,
28,
10,
1,
4,
5,
8,
4,
-5,
-1,
-3,
-2,
-1,
-11,
-5,
0,
15,
12,
5,
2,
8,
7,
-3,
1,
-1,
-12,
2,
3,
-9,
-7,
0,
-1,
10,
13,
12,
2,
12,
23,
13,
13,
25,
-2,
-1,
1,
1,
-5,
15,
16,
3,
4,
11,
3,
9,
-15,
-8,
3,
3,
-5,
2,
6,
-3,
4,
9,
13,
3,
-13,
-14,
-15,
-13,
-2,
3,
-2,
1,
15,
15,
13,
16,
5,
-10,
-18,
-6,
10,
21,
18,
5,
-1,
6,
-17,
0,
-3,
-5,
-11,
15,
22,
14,
4,
-20,
-4,
4,
-4,
-9,
-9,
4,
15,
24,
29,
33,
27,
23,
8,
-29,
-15,
-9,
-1,
-3,
1,
-5,
-11,
-6,
-3,
-13,
-11,
-4,
0,
1,
14,
17,
12,
11,
-3,
-2,
-5,
-1,
7,
3,
10,
17,
17,
9,
-27,
-23,
-25,
-18,
0,
9,
5,
6,
5,
-3,
3,
-5,
-14,
-25,
-32,
-14,
3,
15,
19,
5,
4,
2,
-3,
-1,
6,
9,
1,
-2,
-1,
3,
7,
9,
1,
5,
11,
12,
11,
-5,
-14,
-17,
-17,
-10,
0,
4,
6,
-1,
-14,
-13,
-25,
-15,
11,
17,
21,
24,
4,
4,
5,
-21,
-16,
-16,
-17,
-13,
3,
17,
12,
-1,
-18,
-8,
-18,
-9,
-1,
2,
-7,
-14,
-3,
-17,
-4,
9,
11,
7,
-19,
-21,
-13,
-4,
-2,
-9,
-21,
-3,
9,
12,
6,
13,
5,
4,
8,
8,
0,
-3,
-13,
-23,
-20,
-27,
-19,
-9,
-13,
-12,
5,
24,
27,
22,
17,
5,
12,
4,
-2,
-23,
-27,
-31,
-29,
-10,
0,
-7,
-5,
13,
26,
11,
-11,
-11,
-4,
-9,
-2,
-3,
-5,
-9,
-10,
2,
5,
19,
9,
0,
-14,
-22,
-21,
-3,
-5,
-10,
-15,
-9,
3,
9,
-7,
-6,
-2,
3,
-4,
-19,
-30,
-25,
-30,
-29,
-23,
-26,
-32,
-19,
0,
7,
13,
11,
18,
11,
11,
17,
19,
4,
-3,
-5,
-2,
6,
-2,
0,
-11,
-22,
-14,
-17,
-11,
-13,
7,
6,
-7,
-1,
-3,
-6,
-6,
-9,
3,
-12,
-14,
-8,
6,
0,
-3,
-5,
-10,
-13,
-7,
-14,
-10,
-5,
6,
1,
-13,
-16,
-15,
-9,
-7,
-10,
-12,
-14,
-17,
-13,
-1,
2,
-9,
-6,
-9,
-21,
-11,
3,
3,
0,
-6,
11,
10,
14,
5,
4,
0,
-13,
7,
25,
14,
10,
-17,
-9,
-2,
-4,
-5,
3,
-13,
-26,
-13,
-4,
3,
-3,
-8,
-5,
-13,
-6,
7,
14,
6,
-1,
-5,
1,
-6,
-4,
-11,
-18,
-2,
4,
7,
9,
9,
-1,
-5,
-2,
-1,
-13,
7,
21,
17,
21,
-1,
7,
13,
10,
-4,
-4,
-4,
-7,
-11,
-14,
-14,
-3,
10,
12,
4,
-4,
-13,
-15,
-3,
-10,
-25,
-27,
-16,
1,
7,
10,
2,
0,
1,
1,
19,
25,
15,
29,
14,
19,
17,
18,
1,
-12,
-9,
-3,
0,
-5,
-8,
-13,
-15,
-15,
-19,
3,
13,
9,
4,
-4,
-1,
4,
12,
8,
12,
23,
22,
13,
25,
18,
4,
8,
14,
5,
-17,
-20,
-10,
-16,
-16,
-17,
-24,
-18,
-11,
-15,
-11,
0,
16,
22,
5,
-4,
10,
17,
25,
16,
-3,
-21,
-16,
1,
-5,
-7,
-9,
-1,
11,
17,
22,
9,
0,
9,
4,
3,
10,
7,
4,
3,
3,
8,
13,
17,
19,
13,
6,
5,
11,
3,
14,
11,
5,
-12,
-8,
-5,
-2,
-4,
15,
13,
16,
23,
17,
0,
0,
6,
13,
-1,
13,
8,
3,
-3,
-9,
-8,
-9,
-17,
-16,
-15,
-3,
7,
-1,
-10,
-8,
-2,
2,
5,
-3,
7,
16,
23,
31,
37,
11,
8,
16,
-9,
-9,
-11,
-3,
-8,
-3,
-5,
-1,
-24,
-11,
-3,
6,
14,
27,
18,
22,
15,
-10,
-10,
-5,
19,
25,
27,
24,
19,
2,
-8,
-5,
1,
-1,
-15,
-8,
13,
9,
-1,
-13,
-15,
-25,
10,
6,
-18,
-17,
-7,
-4,
4,
4,
0,
-25,
-14,
-9,
-7,
-5,
-1,
-1,
9,
10,
15,
8,
7,
21,
24,
11,
-1,
-7,
4,
3,
-7,
-5,
-10,
-2,
-6,
-19,
-17,
-11,
-8,
-4,
4,
11,
9,
7,
0,
-5,
3,
-5,
2,
-12,
-10,
0,
2,
-14,
-18,
-1,
4,
1,
11,
17,
19,
3,
-3,
-18,
-8,
-4,
1,
1,
-9,
-13,
15,
7,
5,
-4,
7,
-3,
-3,
-1,
-13,
-22,
-9,
-11,
-21,
-26,
-5,
7,
16,
-1,
-18,
-27,
-21,
-7,
-6,
5,
7,
8,
11,
13,
19,
15,
10,
-5,
-13,
-17,
-6,
-5,
-23,
-24,
3,
7,
-5,
-12,
-21,
-16,
-6,
-1,
13,
23,
27,
23,
19,
7,
-14,
-23,
-27,
-25,
-14,
-6,
-3,
5,
-2,
-19,
-30,
-13,
-3,
-4,
-18,
9,
3,
8,
5,
16,
18,
14,
-1,
-9,
-7,
-10,
-7,
1,
-1,
-4,
-1,
8,
16,
3,
-21,
-30,
-20,
-17,
-21,
-14,
-3,
4,
20,
2,
-27,
-19,
-3,
-9,
-1,
-8,
-29,
-26,
-22,
-17,
-9,
-17,
-23,
0,
23,
23,
4,
8,
-1,
-6,
-1,
-9,
-2,
3,
9,
-8,
-11,
-13,
-9,
-5,
-9,
-10,
13,
17,
10,
-2,
-6,
-11,
-21,
-34,
-29,
-15,
-6,
-18,
-17,
-5,
-4,
-1,
9,
8,
8,
10,
-3,
-17,
-5,
0,
1,
-5,
-14,
7,
11,
3,
-15,
-32,
-9,
-6,
3,
5,
-6,
-16,
-13,
-21,
-3,
3,
3,
-7,
-12,
-7,
-8,
-9,
-3,
2,
11,
0,
-6,
4,
3,
7,
7,
9,
3,
-6,
-6,
0,
1,
5,
1,
13,
26,
22,
18,
-1,
-8,
-11,
-24,
-22,
-18,
-22,
-21,
-21,
-11,
3,
11,
6,
22,
17,
12,
-1,
-3,
-15,
-25,
-5,
-4,
0,
3,
-1,
-7,
-14,
-6,
-1,
8,
14,
15,
13,
7,
-2,
-20,
-20,
-13,
-5,
3,
-5,
-6,
7,
8,
4,
-1,
-5,
-3,
19,
11,
9,
11,
-6,
-8,
-9,
-13,
-7,
-14,
2,
-1,
-8,
3,
23,
25,
19,
27,
22,
3,
2,
3,
5,
-6,
-21,
-11,
-7,
-27,
-23,
-5,
19,
15,
19,
21,
7,
15,
-1,
-2,
6,
-5,
-8,
10,
2,
-5,
-10,
-8,
3,
-13,
-1,
-1,
-1,
15,
-1,
12,
15,
14,
7,
9,
9,
21,
17,
22,
21,
-11,
-34,
-9,
5,
0,
-8,
-11,
-12,
12,
13,
-4,
-14,
-4,
-3,
-4,
-11,
-24,
-20,
-18,
6,
4,
7,
15,
30,
20,
21,
23,
20,
4,
-3,
-3,
0,
-2,
-7,
-15,
7,
8,
11,
2,
-3,
14,
14,
10,
12,
6,
11,
21,
-11,
-7,
6,
12,
9,
2,
-4,
-7,
-7,
-3,
-3,
7,
11,
10,
4,
5,
5,
0,
-5,
-11,
-7,
2,
12,
26,
9,
4,
7,
5,
18,
14,
11,
5,
-9,
-19,
7,
25,
9,
1,
-1,
1,
-9,
-4,
-11,
-7,
-13,
-10,
-7,
-18,
-19,
-5,
13,
17,
5,
6,
6,
8,
11,
10,
10,
15,
23,
28,
24,
7,
-11,
2,
2,
-4,
-11,
-13,
-13,
-5,
-2,
1,
6,
18,
13,
-17,
-24,
-5,
15,
24,
6,
-2,
-9,
-12,
-10,
3,
6,
5,
1,
-1,
-12,
-8,
-13,
-14,
2,
29,
27,
21,
13,
14,
4,
-15,
-25,
-24,
-16,
-10,
7,
5,
9,
9,
11,
14,
23,
2,
-6,
-6,
-20,
-25,
-19,
-15,
-6,
3,
9,
21,
27,
7,
-4,
-2,
-8,
-5,
-6,
-7,
-7,
-5,
-19,
-14,
-8,
-5,
-6,
10,
15,
15,
2,
-7,
-13,
2,
-5,
2,
2,
-5,
5,
19,
20,
13,
5,
-8,
-21,
-32,
-28,
-18,
-21,
-26,
-24,
-25,
-16,
4,
3,
7,
13,
3,
1,
0,
-2,
-6,
-11,
-11,
-9,
-5,
8,
14,
-8,
-19,
-20,
-6,
2,
-9,
-8,
1,
0,
-3,
-14,
-9,
-3,
-9,
1,
0,
-2,
-4,
-6,
-6,
6,
0,
-10,
-5,
9,
11,
2,
2,
-10,
-14,
5,
12,
-12,
-3,
12,
-4,
-15,
-18,
-18,
-15,
-5,
2,
12,
3,
-10,
-14,
-5,
-5,
0,
4,
0,
2,
0,
-9,
-5,
1,
-10,
-9,
-16,
-17,
-20,
3,
1,
1,
0,
-6,
-9,
-7,
-5,
-3,
-7,
1,
-3,
-31,
-32,
-29,
-13,
-15,
-4,
12,
15,
10,
10,
8,
-3,
0,
1,
-5,
-13,
-28,
-26,
-13,
7,
3,
3,
3,
-1,
7,
4,
0,
12,
4,
-20,
-11,
4,
-5,
3,
-6,
-9,
-20,
-19,
-19,
-13,
3,
6,
14,
12,
13,
6,
6,
-1,
-13,
-12,
-27,
-31,
-16,
-7,
-15,
-9,
-10,
-16,
-16,
-5,
-11,
-15,
-16,
-28,
-9,
18,
22,
17,
3,
-11,
5,
24,
23,
14,
-4,
-8,
-12,
3,
8,
2,
11,
-4,
-21,
-24,
-22,
-12,
19,
21,
-9,
-3,
2,
-13,
4,
1,
-4,
-23,
-16,
-13,
-7,
-2,
5,
-5,
1,
5,
20,
17,
10,
-6,
-5,
-10,
5,
5,
-1,
-9,
-14,
-7,
-14,
-17,
-5,
-5,
8,
12,
10,
4,
11,
5,
2,
-5,
-9,
-3,
1,
14,
25,
20,
0,
14,
8,
-5,
-10,
-17,
-14,
-8,
-17,
-19,
-17,
-11,
-15,
-3,
1,
19,
19,
21,
18,
20,
15,
14,
14,
-10,
-15,
-13,
-11,
-17,
-11,
-5,
10,
15,
6,
-3,
3,
9,
-7,
-7,
-5,
7,
14,
14,
2,
11,
10,
11,
2,
-9,
7,
9,
7,
4,
15,
3,
-10,
-9,
-3,
-2,
12,
5,
3,
4,
6,
-5,
-9,
6,
5,
0,
-5,
-3,
-3,
-1,
-11,
-7,
-16,
-5,
9,
19,
17,
15,
3,
1,
-4,
3,
8,
-17,
6,
11,
9,
12,
10,
-3,
-1,
-3,
16,
25,
24,
13,
-13,
-18,
-9,
13,
3,
-4,
6,
5,
5,
-3,
0,
7,
8,
10,
7,
5,
12,
6,
13,
15,
20,
19,
11,
8,
-17,
-21,
1,
-4,
-14,
3,
11,
4,
0,
-3,
9,
11,
8,
24,
24,
24,
-4,
-9,
-14,
-24,
-21,
9,
12,
-3,
-6,
-14,
-2,
9,
20,
11,
4,
5,
1,
7,
1,
-5,
-11,
-4,
-3,
4,
-5,
-10,
-5,
5,
6,
10,
16,
23,
25,
21,
21,
22,
19,
17,
8,
4,
-1,
-11,
-2,
3,
-1,
-13,
-17,
-21,
-9,
6,
7,
11,
16,
13,
0,
-4,
-12,
-34,
-35,
-36,
-33,
-22,
6,
29,
27,
11,
2,
5,
2,
-19,
-26,
-8,
4,
22,
25,
13,
-3,
-1,
4,
-1,
-2,
13,
24,
7,
4,
3,
-2,
20,
12,
13,
0,
-22,
-21,
-24,
-18,
-7,
-11,
-7,
6,
6,
4,
4,
13,
15,
-13,
-22,
-1,
7,
7,
6,
17,
9,
15,
12,
13,
29,
4,
-17,
-21,
-23,
-17,
-3,
2,
8,
13,
9,
-23,
-28,
-17,
-7,
0,
-3,
0,
0,
1,
9,
2,
0,
0,
-3,
-12,
-7,
-5,
-1,
-9,
-3,
-11,
-29,
-37,
-23,
-13,
-8,
15,
34,
7,
-3,
8,
17,
8,
-5,
-12,
-23,
-17,
-14,
-12,
-6,
0,
-3,
2,
-3,
-3,
-7,
-12,
2,
25,
11,
-8,
-4,
20,
18,
-4,
-1,
-4,
-21,
-28,
-28,
-11,
-8,
-6,
-7,
3,
14,
19,
14,
13,
3,
-16,
-20,
-17,
-28,
-21,
2,
19,
17,
9,
-4,
1,
-9,
-16,
-15,
-9,
-7,
-3,
-10,
-24,
-23,
-11,
-7,
-10,
-16,
-5,
-3,
7,
29,
28,
14,
-7,
-24,
-16,
-7,
10,
3,
-15,
-17,
-14,
-25,
-13,
3,
26,
9,
-11,
-10,
2,
9,
-12,
-17,
-25,
-9,
-1,
0,
-3,
-22,
-29,
-30,
-9,
-4,
-7,
-7,
1,
0,
-1,
-14,
-15,
-3,
5,
1,
-3,
2,
6,
-1,
-5,
3,
1,
-6,
-3,
0,
0,
-9,
-16,
-30,
-18,
-2,
0,
-3,
-8,
-11,
-21,
-7,
9,
5,
2,
-15,
-9,
7,
22,
29,
13,
-3,
-10,
-12,
-16,
-8,
-2,
-4,
-9,
-7,
10,
9,
-21,
-12,
0,
17,
22,
9,
5,
-19,
-26,
-21,
0,
2,
-2,
0,
-17,
-4,
-2,
-4,
-3,
11,
-6,
-9,
-10,
-20,
-8,
3,
7,
0,
15,
15,
5,
0,
-14,
-17,
-3,
2,
-5,
-13,
-13,
-17,
-9,
13,
30,
17,
7,
-5,
-8,
-7,
15,
8,
2,
-6,
-2,
-3,
-7,
-11,
-8,
-24,
-36,
-31,
-13,
8,
18,
20,
15,
-1,
-8,
-5,
10,
27,
19,
19,
8,
-1,
1,
-4,
-11,
-12,
-5,
6,
11,
11,
1,
1,
8,
10,
19,
5,
5,
-9,
-11,
-1,
-17,
-10,
-9,
-2,
-7,
-12,
-4,
-4,
-5,
8,
17,
18,
15,
22,
32,
24,
31,
20,
18,
1,
-6,
-21,
-23,
-9,
-5,
-7,
5,
3,
-4,
0,
-1,
-17,
-1,
-3,
1,
-4,
7,
-10,
-4,
-1,
7,
0,
0,
-5,
-10,
-1,
20,
23,
20,
8,
-7,
1,
19,
5,
2,
-1,
-2,
-3,
3,
-3,
1,
-8,
-1,
-13,
-10,
-3,
2,
10,
2,
-2,
9,
15,
27,
20,
13,
19,
15,
7,
1,
1,
-8,
-9,
7,
7,
5,
5,
-5,
-16,
-12,
-2,
-13,
7,
18,
18,
10,
-21,
-21,
5,
11,
-1,
3,
1,
2,
-3,
-4,
-3,
12,
14,
17,
17,
9,
9,
18,
14,
9,
-13,
-17,
3,
7,
-1,
-15,
-16,
-19,
-17,
-10,
4,
8,
13,
13,
12,
23,
14,
6,
5,
5,
-1,
5,
13,
12,
7,
6,
3,
14,
25,
7,
2,
5,
-1,
-2,
-6,
-5,
-8,
-14,
-19,
-19,
-13,
10,
3,
-7,
-18,
-9,
-12,
-8,
-2,
7,
18,
9,
4,
9,
5,
3,
2,
23,
29,
27,
17,
-20,
-7,
-9,
-8,
8,
-3,
-15,
-21,
-32,
-20,
-10,
14,
19,
24,
24,
16,
15,
5,
-3,
4,
-15,
-25,
-15,
-7,
8,
26,
7,
3,
-3,
-6,
-11,
-19,
-17,
-18,
-18,
-9,
-15,
-8,
13,
14,
6,
1,
-1,
10,
13,
9,
11,
-2,
-7,
-15,
-22,
-21,
2,
1,
-8,
-16,
-22,
-14,
-13,
-21,
-9,
8,
22,
6,
2,
-14,
-13,
-5,
-10,
-23,
-17,
-14,
-17,
-13,
18,
9,
-10,
5,
14,
12,
9,
2,
1,
-12,
0,
-11,
-9,
-1,
-1,
-4,
-17,
-8,
4,
0,
-1,
6,
6,
5,
7,
-2,
-1,
11,
0,
-4,
-27,
-9,
0,
-6,
-2,
15,
9,
-14,
-23,
-13,
-20,
-30,
-21,
-5,
-5,
-2,
1,
-4,
-25,
-21,
-14,
-7,
3,
-4,
1,
12,
11,
3,
4,
2,
10,
11,
-6,
-12,
-19,
-13,
-7,
-14,
-8,
0,
-3,
-9,
-14,
-25,
-24,
-20,
-23,
-20,
-12,
-10,
-19,
-16,
-21,
-9,
-3,
3,
5,
8,
6,
1,
1,
13,
7,
6,
4,
7,
-7,
-12,
-6,
-5,
-7,
-13,
-6,
7,
-1,
-8,
-12,
-13,
-13,
-10,
-15,
-7,
12,
16,
13,
1,
-4,
11,
-9,
-19,
-5,
-13,
-1,
11,
-7,
-16,
-17,
-7,
-11,
-7,
-16,
-22,
-26,
-11,
16,
10,
6,
-2,
0,
-5,
-11,
-8,
-5,
-9,
-14,
-9,
-16,
2,
7,
3,
-2,
9,
0,
-12,
-15,
3,
0,
-2,
1,
0,
28,
25,
21,
14,
11,
-5,
-24,
-43,
-49,
-8,
0,
3,
-7,
-17,
-24,
-24,
-3,
5,
12,
3,
7,
-1,
-2,
6,
1,
6,
7,
4,
-9,
1,
3,
13,
1,
-3,
-11,
-2,
9,
7,
1,
-1,
6,
28,
32,
24,
7,
-5,
3,
8,
16,
-2,
7,
0,
-20,
-29,
-17,
-2,
1,
5,
-9,
-25,
-23,
-21,
-7,
-4,
-4,
3,
14,
11,
6,
-8,
-4,
5,
8,
9,
4,
2,
-12,
-14,
-13,
-7,
-17,
-22,
-17,
14,
28,
25,
19,
20,
19,
15,
11,
-6,
-2,
-17,
1,
6,
5,
5,
2,
3,
-2,
-5,
-9,
-2,
9,
14,
1,
10,
13,
3,
10,
8,
2,
11,
11,
2,
3,
-13,
-13,
-17,
-14,
-22,
-12,
-10,
-6,
4,
1,
5,
20,
27,
1,
11,
7,
-7,
-11,
-8,
-3,
0,
-5,
24,
16,
5,
-1,
-2,
9,
7,
10,
18,
22,
10,
-5,
1,
-1,
-12,
-4,
5,
1,
4,
5,
37,
16,
17,
17,
10,
-3,
3,
3,
-11,
-4,
3,
23,
15,
-5,
-14,
-20,
9,
19,
11,
3,
2,
10,
-2,
-1,
-7,
0,
2,
8,
3,
1,
-2,
-1,
-16,
-13,
-7,
-2,
-7,
-2,
12,
38,
32,
3,
-8,
-11,
-2,
3,
13,
15,
11,
11,
3,
11,
-1,
-21,
-29,
-19,
-18,
-3,
19,
25,
17,
24,
36,
10,
1,
14,
19,
15,
10,
9,
-17,
-1,
11,
10,
1,
11,
-1,
-7,
-25,
-12,
-4,
-13,
-15,
-15,
-10,
-12,
-5,
-2,
10,
9,
-3,
-4,
2,
-5,
-9,
-5,
-3,
9,
7,
12,
16,
-2,
21,
23,
10,
-7,
-11,
-13,
-12,
-9,
-2,
-15,
-11,
-5,
15,
30,
20,
19,
4,
10,
10,
11,
6,
-11,
-10,
-15,
-9,
-4,
-8,
4,
5,
9,
-7,
8,
9,
12,
5,
-16,
-25,
-32,
-33,
-22,
-12,
4,
2,
3,
25,
21,
26,
11,
12,
20,
28,
6,
-1,
-9,
-19,
-21,
-27,
-25,
-7,
-8,
0,
9,
3,
-5,
-4,
-16,
-20,
-14,
-1,
6,
-1,
-10,
-4,
-4,
-5,
-4,
4,
1,
-8,
-16,
-7,
-4,
-5,
-15,
-1,
-2,
-13,
-11,
3,
0,
-6,
12,
-6,
-13,
-17,
-7,
0,
-2,
3,
-3,
-7,
-7,
-4,
-9,
-13,
-19,
-23,
-21,
-11,
-1,
18,
12,
14,
9,
10,
13,
11,
-8,
-19,
-26,
-17,
-7,
-15,
-13,
-5,
-2,
14,
-3,
-7,
-10,
-11,
-1,
15,
15,
4,
-17,
-20,
-9,
3,
-3,
-12,
-5,
-10,
-5,
-16,
-17,
-12,
-5,
0,
-3,
-10,
-12,
1,
4,
-3,
-15,
-19,
-17,
-4,
1,
-1,
3,
-3,
-33,
-32,
-4,
13,
0,
2,
-3,
17,
19,
9,
-8,
-31,
-23,
-7,
-1,
-6,
-2,
-3,
-7,
-11,
-13,
-13,
0,
-3,
6,
5,
6,
2,
-8,
-13,
2,
-3,
-6,
-6,
0,
1,
1,
-7,
-6,
-10,
-7,
1,
8,
4,
-5,
-17,
-19,
-27,
-26,
-22,
-20,
-5,
-11,
-4,
6,
-7,
-1,
-7,
-7,
8,
6,
7,
6,
-9,
-20,
-9,
-9,
-13,
13,
12,
6,
3,
14,
18,
12,
3,
9,
7,
-2,
-7,
-7,
0,
10,
-5,
-11,
-16,
-21,
-32,
-36,
-39,
-17,
1,
13,
12,
7,
11,
20,
16,
10,
5,
6,
6,
4,
18,
15,
16,
6,
-9,
-13,
-1,
9,
-6,
-8,
-9,
-25,
-25,
-20,
-20,
-16,
16,
25,
18,
0,
10,
20,
6,
-9,
-11,
0,
-1,
-7,
-2,
-5,
4,
1,
-1,
-1,
-7,
-10,
-3,
-1,
0,
5,
0,
-3,
17,
19,
19,
17,
8,
-5,
-10,
-15,
-9,
-10,
0,
12,
3,
-1,
-13,
-23,
4,
12,
17,
13,
13,
12,
16,
11,
7,
3,
-1,
-10,
-8,
-13,
-8,
-7,
6,
11,
6,
11,
4,
-3,
8,
7,
3,
4,
1,
1,
-4,
-5,
-3,
-6,
-13,
-11,
-5,
1,
-8,
-12,
-7,
8,
16,
30,
26,
17,
18,
17,
15,
3,
-5,
-3,
-16,
-19,
-15,
-4,
5,
9,
12,
17,
-1,
-21,
-19,
-14,
-15,
5,
32,
21,
4,
-1,
-17,
-8,
13,
8,
6,
-9,
-5,
8,
23,
21,
14,
23,
20,
11,
19,
11,
2,
0,
23,
30,
18,
9,
-22,
-17,
-7,
-5,
0,
0,
14,
6,
11,
13,
-15,
-24,
-12,
-11,
-18,
-18,
-13,
1,
4,
16,
25,
29,
-3,
-2,
-2,
-1,
-5,
-4,
-7,
-2,
-3,
5,
7,
17,
20,
15,
13,
8,
-4,
-27,
-14,
17,
25,
13,
7,
8,
-1,
8,
12,
12,
2,
-1,
9,
2,
3,
0,
1,
7,
2,
-5,
-13,
-11,
0,
-4,
-26,
-29,
-3,
9,
18,
21,
4,
-5,
-8,
5,
11,
-16,
-14,
-19,
-28,
-17,
-4,
3,
11,
9,
10,
13,
13,
17,
23,
21,
4,
9,
8,
-15,
-13,
-19,
-7,
-4,
-1,
-4,
-7,
1,
-3,
8,
16,
3,
6,
4,
5,
7,
5,
5,
10,
8,
3,
1,
-3,
-15,
-20,
-34,
-17,
-15,
-15,
-12,
-19,
-17,
-7,
-8,
8,
19,
19,
9,
9,
11,
8,
9,
15,
11,
7,
5,
-5,
-6,
-10,
-21,
-15,
-15,
1,
-3,
-13,
-17,
-19,
-19,
-8,
-13,
-3,
-1,
8,
3,
-7,
-13,
0,
8,
10,
5,
-5,
-18,
-9,
-19,
-17,
1,
0,
1,
4,
0,
19,
12,
-3,
1,
2,
1,
-8,
-8,
-6,
-10,
-7,
-2,
-6,
-18,
-1,
16,
18,
7,
-16,
-10,
1,
2,
2,
0,
5,
-4,
-3,
-15,
-13,
-8,
-7,
-6,
5,
3,
1,
0,
0,
-8,
-13,
-17,
-11,
-25,
-23,
-3,
2,
-4,
-3,
6,
13,
21,
2,
-3,
-5,
-7,
-15,
8,
13,
-2,
-9,
-7,
-13,
-27,
-25,
-9,
-4,
2,
0,
5,
-17,
-24,
-15,
-7,
4,
0,
-6,
-12,
-9,
-5,
-8,
-7,
-1,
-7,
-12,
-21,
-20,
-7,
-14,
-9,
-4,
5,
3,
20,
25,
3,
-3,
-8,
-15,
-10,
-8,
-7,
-15,
-13,
-16,
-1,
5,
-11,
-11,
-13,
-11,
-19,
-7,
2,
9,
11,
1,
-8,
-9,
6,
10,
-7,
-28,
-39,
-19,
-2,
1,
-3,
-7,
-5,
-9,
-21,
-24,
1,
20,
5,
0,
6,
9,
1,
-6,
-3,
0,
-13,
-9,
-6,
-8,
-15,
-7,
-1,
-4,
29,
46,
24,
5,
8,
-16,
-34,
-43,
-37,
-23,
-18,
-15,
-2,
5,
17,
8,
2,
4,
5,
13,
1,
3,
-14,
-18,
-20,
-11,
-15,
2,
8,
7,
7,
18,
19,
16,
5,
-4,
6,
3,
-10,
-9,
-13,
-9,
-7,
-12,
-6,
-3,
-3,
5,
-3,
-9,
-8,
9,
14,
4,
9,
17,
11,
11,
15,
5,
-15,
-17,
-13,
-13,
-9,
-1,
2,
5,
18,
12,
10,
6,
5,
-5,
-13,
6,
9,
11,
25,
24,
16,
14,
15,
9,
6,
-5,
-13,
-15,
-13,
-17,
-19,
-13,
-17,
-14,
-7,
-4,
8,
12,
-5,
7,
15,
21,
6,
-2,
-1,
3,
18,
21,
-5,
-6,
-11,
-9,
-1,
-5,
-9,
-15,
-8,
3,
16,
13,
10,
12,
11,
17,
19,
20,
8,
2,
-4,
-7,
-20,
-11,
-7,
-6,
5,
8,
-5,
-20,
-13,
-4,
0,
5,
5,
1,
0,
2,
29,
31,
21,
23,
8,
7,
5,
-1,
0,
-6,
-8,
3,
3,
-2,
-15,
-5,
-8,
6,
10,
13,
31,
28,
27,
25,
17,
0,
-4,
-4,
-5,
-14,
-17,
-2,
6,
17,
13,
23,
23,
15,
16,
9,
4,
-7,
-15,
-26,
-34,
-18,
5,
0,
-10,
-18,
-5,
-13,
-5,
11,
35,
31,
22,
21,
5,
1,
1,
0,
-8,
-3,
1,
6,
2,
4,
2,
12,
7,
3,
7,
-2,
4,
0,
5,
13,
11,
7,
-5,
4,
7,
-3,
-9,
11,
-2,
21,
24,
15,
-1,
-10,
-22,
-33,
-27,
3,
22,
15,
21,
14,
-7,
-17,
-14,
-6,
-3,
7,
18,
-8,
-27,
-21,
-18,
-2,
5,
5,
7,
11,
6,
-4,
2,
15,
30,
31,
4,
0,
-11,
-13,
-12,
-4,
4,
3,
5,
5,
1,
6,
-2,
-5,
-11,
-22,
-15,
6,
3,
8,
5,
-6,
-9,
-7,
-1,
3,
8,
7,
1,
3,
5,
8,
-5,
-12,
-20,
-28,
-26,
-36,
-21,
-2,
20,
32,
27,
20,
-1,
-2,
3,
1,
3,
-6,
-11,
-1,
-4,
-5,
1,
-1,
1,
5,
-15,
-16,
-4,
-24,
-20,
-11,
6,
20,
27,
-3,
-28,
-33,
-8,
0,
7,
-7,
-2,
-4,
8,
9,
1,
-5,
-11,
-6,
-5,
4,
4,
-4,
-3,
-13,
-21,
-20,
-25,
-28,
-15,
8,
-2,
0,
0,
-1,
0,
-1,
-19,
-26,
-19,
-13,
-5,
23,
31,
27,
3,
-17,
0,
3,
-4,
-1,
6,
-9,
-29,
-24,
2,
9,
10,
10,
-1,
-3,
-10,
-17,
-6,
-7,
-14,
-10,
-3,
-4,
3,
9,
