S3/S3_L/S3_L_jikken/S3_L_Fluctuations/ゆらぎ/一週目波形データ/10k-2/A0001CH1.CSV

Memory Length,4000,
Trigger Level,-8.00000e-03,
Source,CH1,
Probe,1.0X,
Vertical Units,V,
Vertical Scale,5.00000e-02,
Vertical Position,-2.00000e-03,
Horizontal Units,S,
Horizontal Scale,5.00000e-03,
Horizontal Position,0.0000000e+00,
Horizontal Mode,Main,
Sampling Period,2.00000e-05,
Firmware,V1.08,
Time, ,
Mode,Fast,
Waveform Data,
-32,
-32,
0,
9,
0,
-10,
-10,
-9,
-5,
0,
3,
7,
12,
19,
20,
24,
20,
25,
25,
13,
4,
-4,
-10,
0,
2,
10,
16,
20,
17,
23,
20,
4,
-7,
-12,
-28,
-44,
-46,
-45,
-34,
-16,
-16,
-20,
-17,
-7,
-3,
2,
-1,
-12,
-12,
2,
4,
18,
13,
7,
-3,
-18,
-31,
-32,
-34,
-42,
-32,
-7,
2,
18,
19,
16,
2,
5,
16,
16,
16,
0,
-6,
-7,
-5,
-10,
-17,
-18,
-23,
-22,
2,
8,
0,
-6,
-8,
-1,
1,
5,
7,
-4,
-1,
11,
34,
37,
30,
14,
-3,
5,
10,
8,
-6,
-10,
-11,
-17,
-26,
-14,
7,
20,
32,
38,
28,
23,
29,
30,
26,
25,
29,
31,
38,
28,
10,
-2,
-12,
-30,
-46,
-43,
-42,
-36,
-42,
-38,
-28,
-16,
-17,
-4,
12,
25,
30,
27,
16,
21,
18,
4,
11,
-13,
-28,
-27,
-30,
-38,
-55,
-48,
-44,
-37,
-30,
-26,
-24,
-28,
-22,
-16,
-14,
5,
20,
26,
26,
24,
4,
4,
5,
4,
8,
14,
14,
6,
13,
23,
18,
22,
10,
11,
30,
22,
12,
10,
-4,
-6,
-13,
-23,
-16,
-5,
18,
19,
25,
18,
11,
-10,
-18,
-28,
-38,
-43,
-39,
-34,
-16,
-8,
-10,
-5,
4,
1,
2,
0,
9,
12,
1,
5,
0,
7,
3,
8,
13,
12,
18,
26,
32,
32,
8,
-1,
-2,
0,
-3,
0,
8,
-3,
-13,
-7,
2,
18,
21,
10,
18,
30,
8,
-14,
-24,
-17,
-4,
-8,
3,
-5,
-8,
-11,
-18,
-21,
-21,
-20,
-14,
-1,
8,
10,
6,
-6,
-27,
-26,
-15,
-15,
-23,
-28,
-18,
-15,
-12,
0,
6,
22,
21,
0,
-6,
2,
-4,
-9,
-6,
-1,
-5,
-9,
4,
0,
5,
3,
-3,
-9,
5,
14,
-2,
4,
17,
16,
13,
13,
12,
6,
-14,
-9,
5,
12,
16,
14,
14,
9,
14,
11,
5,
3,
-9,
-21,
-31,
-37,
-32,
-28,
-34,
-8,
2,
2,
10,
14,
17,
24,
25,
29,
28,
23,
4,
-2,
1,
8,
14,
20,
12,
9,
-10,
-3,
-6,
-9,
-17,
-18,
-23,
-36,
-29,
-26,
-19,
-18,
-22,
-29,
-22,
-19,
6,
6,
21,
26,
5,
-3,
8,
19,
26,
26,
21,
13,
19,
12,
3,
-2,
-11,
-12,
-12,
-31,
-38,
-35,
-20,
11,
4,
4,
-2,
1,
6,
6,
6,
14,
10,
-2,
-2,
6,
2,
10,
12,
29,
8,
2,
-17,
-22,
-23,
-18,
-15,
-11,
-16,
-19,
-11,
-9,
5,
12,
6,
2,
1,
9,
5,
10,
28,
21,
16,
13,
10,
12,
4,
-9,
-28,
-36,
-33,
-31,
-19,
-12,
-12,
-1,
6,
26,
34,
16,
6,
2,
2,
-3,
6,
5,
-8,
-17,
-31,
-29,
-30,
-14,
-23,
-19,
-14,
-8,
-12,
2,
18,
37,
43,
37,
41,
48,
42,
38,
33,
22,
12,
1,
2,
-3,
0,
-15,
-18,
-8,
-8,
-6,
-3,
5,
5,
14,
14,
15,
13,
13,
14,
7,
-10,
-22,
-25,
-12,
-6,
-6,
-20,
-29,
-40,
-46,
-49,
-39,
-22,
0,
16,
29,
2,
-14,
-16,
-14,
-6,
-3,
-3,
0,
-18,
-9,
10,
18,
16,
16,
12,
21,
36,
32,
24,
16,
12,
18,
32,
30,
12,
-2,
-25,
-44,
-42,
-42,
-40,
-44,
-44,
-41,
-29,
-22,
-23,
-14,
-19,
-3,
5,
19,
24,
21,
16,
12,
2,
-10,
-12,
-2,
13,
23,
19,
20,
21,
22,
5,
-16,
-21,
-23,
-27,
-29,
-21,
-6,
4,
22,
24,
25,
26,
24,
26,
20,
6,
-5,
-14,
-16,
2,
-10,
-15,
-8,
-17,
-20,
-16,
-22,
-9,
-9,
-6,
-13,
-23,
-20,
-13,
-2,
3,
1,
6,
12,
30,
18,
18,
9,
-3,
-16,
-18,
-14,
-10,
6,
14,
20,
22,
22,
16,
10,
-8,
-16,
-13,
-8,
-5,
5,
15,
8,
4,
-3,
-7,
-17,
-23,
-29,
-39,
-38,
-34,
-27,
-7,
-4,
-11,
-8,
-4,
3,
12,
14,
21,
24,
34,
36,
26,
10,
0,
-8,
-18,
-23,
-33,
-34,
-27,
-22,
-10,
9,
18,
30,
34,
32,
24,
30,
18,
7,
-6,
-18,
-29,
-29,
-34,
-27,
-12,
4,
9,
-2,
-5,
-6,
-10,
-17,
-36,
-43,
-37,
-26,
0,
14,
16,
25,
17,
9,
5,
1,
-2,
-6,
2,
10,
8,
7,
6,
-15,
-16,
-14,
-25,
-28,
-23,
-13,
10,
25,
16,
8,
6,
8,
19,
18,
30,
30,
14,
18,
15,
6,
-19,
-19,
-23,
-3,
4,
12,
15,
15,
17,
14,
10,
-5,
-9,
-12,
-24,
-30,
-15,
-22,
-30,
-20,
-8,
-5,
-6,
-2,
-5,
0,
7,
18,
26,
28,
3,
-24,
-30,
-20,
-6,
-4,
7,
3,
-18,
-20,
-12,
-8,
-8,
13,
27,
29,
26,
29,
17,
2,
6,
16,
18,
25,
18,
24,
18,
9,
3,
0,
-1,
4,
3,
-4,
-19,
-23,
-8,
0,
-8,
-7,
-18,
-12,
-21,
-23,
-25,
-22,
-13,
-14,
-6,
-13,
-9,
2,
11,
18,
14,
10,
16,
30,
30,
7,
3,
0,
6,
12,
15,
10,
8,
-5,
-2,
-1,
1,
18,
13,
11,
-5,
-24,
-40,
-40,
-31,
-13,
2,
10,
-5,
-12,
-7,
-10,
-29,
-23,
-8,
0,
11,
13,
10,
-2,
-29,
-34,
-34,
-14,
-10,
-10,
6,
7,
-2,
4,
8,
18,
25,
11,
20,
5,
4,
-10,
2,
2,
0,
-8,
-10,
-16,
-25,
-25,
-25,
-2,
13,
22,
27,
21,
12,
7,
5,
16,
13,
18,
22,
6,
-6,
-24,
-27,
-12,
-7,
-2,
12,
15,
32,
31,
28,
28,
19,
-4,
-10,
-25,
-26,
-34,
-46,
-34,
-8,
7,
16,
20,
18,
21,
20,
29,
30,
27,
24,
12,
-6,
-18,
-42,
-55,
-55,
-44,
-28,
-18,
-20,
-14,
-19,
-21,
-11,
16,
33,
53,
44,
46,
35,
30,
28,
28,
26,
14,
-8,
-15,
-28,
-37,
-40,
-30,
-21,
-28,
-40,
-40,
-15,
-6,
6,
13,
21,
10,
3,
0,
-2,
-1,
2,
4,
2,
-13,
-16,
-11,
-14,
-24,
-10,
7,
16,
23,
25,
10,
2,
-11,
-17,
-14,
-6,
-2,
2,
19,
22,
10,
11,
16,
19,
20,
12,
8,
-2,
-15,
-10,
-7,
1,
0,
2,
-13,
-23,
-18,
-9,
15,
16,
18,
23,
19,
4,
-2,
-3,
13,
18,
21,
11,
-2,
-12,
-30,
-20,
-5,
6,
14,
21,
32,
34,
17,
14,
6,
1,
0,
-26,
-42,
-26,
-14,
-10,
-12,
-14,
-13,
-18,
-13,
-3,
7,
16,
17,
3,
2,
5,
-8,
-18,
-10,
-15,
-31,
-43,
-28,
-12,
2,
26,
38,
46,
46,
41,
39,
31,
28,
23,
12,
-23,
-41,
-49,
-29,
-20,
-22,
-24,
-18,
-15,
-22,
-16,
-8,
-6,
-4,
1,
6,
-1,
-6,
-15,
-16,
-10,
3,
20,
30,
36,
49,
54,
38,
32,
9,
11,
6,
-6,
-24,
-39,
-38,
-39,
-35,
-18,
-6,
1,
5,
2,
4,
-2,
2,
0,
-7,
-10,
-14,
-4,
1,
10,
7,
-2,
-4,
-6,
-10,
-9,
0,
2,
-2,
-8,
-7,
-2,
0,
3,
9,
18,
24,
12,
2,
-13,
-12,
-26,
-34,
-49,
-56,
-54,
-50,
-42,
-38,
-38,
-30,
-14,
8,
32,
25,
30,
27,
20,
17,
7,
-6,
-16,
-18,
-4,
18,
34,
42,
30,
48,
47,
43,
37,
32,
12,
6,
7,
0,
-10,
-21,
-12,
-7,
3,
8,
2,
-8,
-6,
-13,
-11,
-23,
-9,
-2,
20,
22,
14,
8,
0,
-2,
-11,
-13,
-15,
-14,
-8,
-2,
-9,
-10,
-4,
-3,
3,
10,
0,
-6,
-25,
-26,
-20,
-12,
23,
23,
6,
-9,
-3,
-10,
-8,
-10,
-6,
-10,
-18,
-29,
-17,
7,
20,
31,
41,
34,
14,
11,
18,
18,
10,
4,
-2,
-12,
-20,
-26,
-14,
-5,
10,
16,
6,
-10,
-18,
-40,
-38,
-40,
-36,
-33,
-31,
-16,
-2,
-1,
-6,
-9,
-8,
-6,
-10,
-11,
-3,
13,
21,
20,
12,
23,
23,
7,
-7,
-23,
-25,
-20,
-16,
1,
-12,
-12,
-9,
11,
31,
22,
20,
22,
18,
22,
20,
8,
3,
-9,
-14,
-27,
-23,
-10,
-1,
2,
9,
18,
22,
26,
26,
14,
8,
-4,
-8,
-17,
-16,
-12,
-10,
9,
10,
11,
20,
30,
34,
26,
2,
-17,
-43,
-35,
-14,
-9,
0,
14,
19,
24,
10,
6,
10,
6,
0,
1,
-6,
-13,
2,
11,
-6,
-10,
-4,
-10,
-14,
-13,
-7,
-1,
6,
-8,
-22,
-23,
-18,
-37,
-41,
-23,
-8,
5,
12,
35,
38,
36,
26,
22,
16,
1,
-8,
-14,
-30,
-38,
-44,
-40,
-33,
-27,
-14,
-4,
8,
21,
24,
25,
28,
27,
32,
39,
18,
17,
1,
-5,
-1,
-24,
-34,
-22,
-15,
-18,
-14,
-18,
-27,
-25,
-26,
-19,
-17,
-4,
13,
16,
22,
17,
15,
13,
17,
17,
15,
11,
-18,
-26,
-18,
-22,
-29,
-15,
-3,
4,
0,
4,
9,
10,
26,
18,
-2,
-5,
-10,
-10,
-7,
0,
18,
19,
14,
8,
2,
-6,
-22,
-22,
-14,
-3,
25,
27,
24,
22,
12,
14,
17,
6,
-11,
-11,
-10,
-1,
14,
28,
22,
21,
13,
-5,
-4,
-12,
-7,
-2,
-2,
5,
0,
-12,
-14,
-12,
-8,
-7,
-19,
-22,
-14,
-10,
-6,
-3,
10,
4,
-2,
0,
-19,
-32,
-31,
-18,
-5,
-11,
-13,
-8,
-6,
-12,
-30,
-30,
-29,
-11,
17,
26,
31,
46,
41,
45,
46,
24,
9,
10,
6,
6,
13,
12,
8,
-1,
2,
0,
-18,
-18,
-4,
-4,
-4,
-16,
-26,
-37,
-42,
-66,
-57,
-40,
-16,
-18,
-38,
-37,
-20,
-1,
7,
20,
36,
42,
40,
29,
17,
0,
1,
8,
18,
19,
19,
20,
24,
10,
8,
15,
16,
-2,
-5,
-6,
1,
-4,
-17,
-22,
-23,
-33,
-22,
-12,
-1,
-1,
10,
25,
30,
30,
27,
14,
6,
-14,
-14,
-16,
-16,
-14,
-18,
-19,
-23,
-2,
2,
5,
5,
3,
4,
10,
7,
-4,
-14,
-15,
-18,
-15,
-22,
-14,
2,
12,
22,
26,
15,
0,
-7,
-10,
17,
29,
25,
20,
-1,
-10,
-19,
-24,
-22,
-15,
-9,
-6,
-12,
-15,
-12,
-4,
-6,
2,
1,
9,
12,
8,
-6,
-15,
-18,
-2,
11,
35,
34,
8,
-2,
-11,
-19,
-14,
-24,
-17,
-14,
3,
5,
12,
24,
25,
18,
4,
-4,
-8,
-10,
-8,
-6,
1,
16,
22,
-2,
-11,
-12,
-14,
-17,
-21,
-15,
-14,
-3,
11,
14,
19,
5,
-6,
-8,
-20,
-20,
-18,
-16,
-10,
-10,
-5,
0,
2,
19,
23,
16,
11,
5,
6,
4,
6,
1,
-13,
-16,
-17,
-6,
-17,
-24,
-15,
-12,
-6,
-3,
6,
7,
3,
12,
14,
15,
8,
4,
-4,
-6,
15,
22,
17,
8,
2,
3,
12,
14,
19,
2,
-1,
-17,
-24,
-23,
-17,
-22,
-27,
-25,
-10,
0,
28,
32,
47,
52,
51,
28,
16,
6,
-14,
-27,
-46,
-42,
-33,
-28,
-30,
-16,
-9,
-5,
5,
1,
5,
4,
14,
15,
23,
22,
14,
15,
12,
14,
7,
6,
1,
0,
-14,
-10,
-18,
-22,
-4,
-1,
-2,
-6,
-23,
-14,
0,
-10,
0,
2,
8,
12,
-2,
-2,
0,
17,
6,
-2,
-16,
-18,
-2,
3,
10,
18,
18,
16,
9,
11,
12,
16,
23,
13,
-6,
-19,
-19,
-29,
-31,
-22,
-29,
-51,
-56,
-51,
-42,
-26,
-18,
3,
11,
12,
16,
13,
4,
-8,
7,
20,
24,
29,
30,
32,
35,
31,
25,
12,
4,
-6,
-2,
-11,
-6,
8,
22,
19,
6,
4,
11,
30,
30,
14,
11,
7,
3,
-11,
-4,
-2,
9,
3,
13,
18,
17,
19,
6,
2,
-13,
-26,
-18,
-5,
0,
8,
8,
7,
-7,
-10,
-24,
-26,
-22,
-22,
-14,
-18,
-12,
-13,
-10,
-9,
0,
8,
8,
13,
3,
10,
13,
11,
-5,
-8,
-12,
-18,
-10,
-20,
-17,
-8,
-9,
-22,
-23,
-24,
-10,
-6,
-11,
-10,
-9,
6,
12,
0,
-4,
-1,
7,
9,
22,
26,
23,
13,
12,
18,
10,
5,
0,
14,
7,
4,
-2,
-6,
-8,
-13,
-20,
-19,
-14,
-13,
-15,
-36,
-45,
-44,
-28,
-16,
-6,
-1,
0,
6,
11,
10,
25,
28,
21,
17,
17,
21,
11,
0,
-5,
-10,
-16,
-11,
-18,
-16,
-16,
-26,
-25,
-24,
-13,
-9,
0,
4,
8,
8,
12,
18,
9,
2,
0,
3,
4,
8,
20,
12,
4,
-2,
-2,
-4,
-5,
4,
5,
-5,
-6,
2,
3,
-7,
-14,
-18,
-25,
-16,
-6,
-5,
-3,
-3,
7,
25,
26,
34,
39,
33,
20,
14,
20,
14,
8,
7,
3,
-12,
-22,
-24,
-32,
-22,
-12,
-7,
-3,
-30,
-37,
-34,
-26,
-6,
2,
8,
18,
30,
23,
19,
26,
29,
13,
-8,
-18,
-11,
4,
-2,
-21,
-21,
-14,
-9,
5,
14,
24,
6,
-11,
-7,
3,
5,
5,
6,
15,
20,
25,
18,
22,
18,
8,
-2,
-22,
-22,
-14,
-22,
-29,
-30,
-26,
-14,
-1,
2,
4,
4,
-2,
-16,
-19,
-15,
-15,
-2,
3,
-1,
2,
8,
9,
-10,
-18,
-12,
-14,
-23,
-14,
-11,
-10,
-13,
-16,
-16,
-18,
-3,
12,
11,
16,
13,
11,
11,
24,
44,
54,
43,
27,
26,
23,
26,
10,
2,
0,
3,
0,
-5,
-13,
-27,
-26,
-20,
-22,
-27,
-28,
-22,
-30,
-30,
-20,
-16,
-8,
2,
11,
14,
17,
14,
25,
30,
25,
21,
20,
18,
3,
-2,
0,
12,
12,
17,
14,
12,
9,
-1,
-20,
-29,
-29,
-32,
-23,
-16,
-15,
-11,
1,
4,
12,
25,
36,
31,
25,
14,
9,
-8,
-24,
-31,
-32,
-29,
-32,
-40,
-50,
-52,
-58,
-53,
-43,
-26,
-10,
25,
41,
52,
44,
10,
8,
12,
17,
13,
16,
16,
15,
12,
10,
0,
-18,
-29,
-36,
-29,
-20,
-2,
6,
8,
10,
6,
12,
28,
32,
23,
11,
6,
-12,
-18,
-10,
-10,
-19,
-12,
-16,
-14,
-16,
-16,
-23,
-18,
-20,
-5,
8,
21,
15,
22,
38,
39,
38,
28,
11,
4,
-25,
-26,
-22,
-12,
0,
22,
28,
28,
26,
6,
-6,
-23,
-24,
-14,
7,
22,
24,
30,
17,
7,
11,
16,
11,
6,
6,
4,
6,
-1,
-3,
0,
-1,
-1,
21,
30,
29,
19,
13,
6,
2,
-17,
-30,
-30,
-39,
-41,
-48,
-53,
-57,
-55,
-36,
-27,
-19,
-11,
-8,
-12,
-29,
-34,
-18,
0,
5,
2,
-21,
-26,
-27,
-14,
-1,
17,
19,
27,
30,
34,
29,
28,
34,
38,
44,
15,
18,
12,
4,
11,
6,
16,
8,
6,
7,
2,
-14,
-24,
-26,
-23,
-18,
-22,
-16,
-5,
0,
-16,
-15,
-9,
-12,
-8,
24,
26,
23,
25,
37,
34,
20,
4,
3,
6,
11,
2,
2,
8,
10,
-5,
-5,
-18,
-14,
-9,
4,
-1,
0,
6,
3,
2,
7,
-13,
-33,
-43,
-28,
-9,
-1,
2,
0,
-18,
-20,
-32,
-37,
-37,
-26,
1,
15,
12,
38,
26,
18,
15,
2,
-9,
-24,
-21,
-17,
0,
4,
-4,
-10,
-16,
-18,
-37,
-30,
-13,
-6,
-6,
-6,
12,
18,
23,
8,
14,
22,
31,
15,
6,
-1,
-7,
-4,
22,
35,
36,
28,
11,
-8,
-16,
-13,
-11,
-6,
-9,
-7,
-22,
-30,
-22,
-18,
-16,
-6,
-15,
-9,
-9,
5,
12,
12,
6,
12,
14,
6,
1,
2,
15,
41,
47,
45,
44,
42,
32,
31,
20,
16,
16,
18,
2,
0,
6,
5,
5,
-24,
-46,
-50,
-50,
-52,
-40,
-26,
-31,
-34,
-30,
-20,
-16,
-18,
-30,
-21,
-17,
-12,
-6,
8,
28,
30,
24,
6,
8,
2,
-1,
-4,
-4,
-4,
2,
10,
2,
-12,
-22,
-10,
0,
19,
26,
25,
29,
24,
30,
30,
22,
12,
4,
0,
-9,
-17,
-29,
-27,
-11,
-6,
0,
5,
-4,
-6,
-10,
-4,
4,
13,
13,
21,
21,
21,
14,
38,
31,
20,
2,
-18,
-24,
-23,
-28,
-23,
-12,
0,
10,
0,
-6,
-10,
-14,
-2,
0,
2,
8,
-3,
-18,
-25,
-15,
-8,
-6,
-13,
-16,
-18,
-35,
-43,
-26,
-20,
-22,
-22,
-21,
-9,
2,
10,
7,
7,
4,
3,
-4,
-4,
11,
19,
26,
30,
26,
28,
26,
36,
42,
51,
41,
34,
21,
14,
19,
6,
-17,
-26,
-38,
-45,
-32,
-32,
-36,
-27,
-29,
-23,
-21,
-31,
-34,
-38,
-44,
-30,
-11,
-4,
7,
12,
17,
11,
10,
15,
18,
16,
5,
6,
15,
24,
36,
41,
49,
49,
38,
22,
23,
23,
10,
-15,
-26,
-22,
-20,
-17,
-16,
-18,
-31,
-38,
-19,
-9,
-11,
-13,
-20,
-14,
-17,
-17,
-12,
-19,
-27,
-36,
-33,
-24,
-15,
-8,
-5,
3,
21,
21,
16,
8,
14,
26,
26,
19,
5,
6,
9,
8,
5,
4,
0,
2,
12,
13,
12,
27,
38,
36,
26,
16,
12,
-17,
-27,
-20,
-23,
-22,
-30,
-51,
-59,
-57,
-37,
-27,
-5,
2,
6,
4,
6,
11,
18,
19,
36,
35,
24,
18,
19,
22,
35,
33,
38,
40,
10,
4,
2,
-2,
-5,
-25,
-25,
-14,
-21,
-21,
-32,
-37,
-39,
-28,
-22,
-9,
-18,
-14,
3,
1,
-2,
10,
13,
4,
6,
8,
9,
3,
7,
9,
10,
-6,
-14,
-14,
-13,
-4,
0,
-7,
-17,
-6,
8,
8,
16,
19,
6,
-6,
4,
5,
0,
-23,
-18,
-20,
-18,
-24,
-18,
-13,
-19,
-27,
-16,
-24,
-24,
-22,
5,
30,
34,
37,
22,
19,
26,
38,
40,
32,
32,
27,
25,
13,
8,
-16,
-28,
-44,
-34,
-21,
-7,
1,
-7,
-4,
-6,
-7,
-10,
2,
2,
-8,
-11,
-10,
-4,
-2,
5,
13,
5,
-2,
-11,
-4,
10,
13,
5,
-2,
-6,
-13,
-15,
-20,
-18,
-7,
-3,
-10,
-9,
-9,
-9,
-4,
16,
24,
34,
30,
26,
16,
10,
11,
10,
13,
12,
-7,
-14,
-5,
-11,
-14,
-6,
-6,
-10,
-10,
-18,
-24,
-15,
-12,
-17,
-14,
-12,
2,
9,
7,
3,
9,
12,
25,
38,
39,
44,
20,
2,
-10,
-16,
-18,
-16,
-12,
-13,
-33,
-18,
-8,
-8,
-2,
-11,
-26,
-34,
-30,
-11,
2,
16,
5,
0,
-11,
-9,
-15,
-15,
-13,
18,
22,
2,
-17,
-6,
-9,
-9,
-5,
-8,
3,
4,
3,
10,
34,
50,
49,
47,
41,
46,
30,
24,
18,
15,
7,
4,
8,
-17,
-18,
-29,
-30,
-15,
0,
13,
17,
11,
0,
-6,
-2,
6,
8,
-3,
-14,
-18,
-31,
-35,
-42,
-38,
-14,
0,
6,
7,
9,
19,
15,
8,
10,
11,
2,
-2,
-4,
-1,
-2,
-5,
-2,
6,
12,
9,
11,
26,
32,
27,
23,
28,
18,
6,
-11,
-10,
-6,
-6,
-3,
-6,
5,
12,
14,
1,
-6,
-18,
-22,
-28,
-29,
-29,
-20,
-23,
-28,
-35,
-34,
-32,
-24,
-23,
-31,
-38,
-38,
-28,
-26,
-4,
10,
32,
37,
39,
20,
18,
18,
16,
30,
48,
34,
27,
24,
19,
18,
26,
22,
21,
6,
-6,
-18,
-36,
-43,
-49,
-52,
-30,
-5,
19,
9,
3,
4,
7,
27,
29,
26,
21,
23,
28,
19,
-2,
-14,
-14,
-26,
-32,
-18,
-13,
-10,
-16,
-12,
2,
-2,
-3,
-5,
-4,
3,
7,
1,
-6,
-15,
-26,
-18,
-14,
-3,
-2,
-5,
-12,
-22,
-25,
-23,
-16,
-1,
16,
20,
22,
11,
17,
21,
24,
32,
26,
7,
-10,
-22,
-27,
-43,
-48,
-48,
-33,
-10,
11,
11,
22,
24,
19,
24,
20,
2,
-1,
-5,
-11,
-22,
-3,
6,
12,
1,
8,
27,
40,
40,
36,
48,
45,
43,
41,
33,
11,
2,
-5,
-13,
-20,
-28,
-25,
-26,
-34,
-33,
-33,
-20,
-20,
-12,
-2,
8,
24,
31,
21,
4,
6,
4,
-3,
-8,
-4,
-6,
-12,
-20,
-24,
-22,
-26,
-16,
1,
20,
32,
46,
40,
20,
14,
16,
9,
2,
-6,
-17,
-29,
-34,
-46,
-49,
-26,
-12,
-4,
-2,
-1,
7,
4,
-18,
-39,
-39,
-18,
-4,
8,
6,
-1,
1,
2,
2,
0,
-7,
-22,
-34,
-26,
-12,
2,
14,
22,
23,
22,
14,
4,
0,
9,
12,
16,
12,
2,
-2,
-2,
0,
4,
4,
13,
18,
16,
11,
6,
-7,
-16,
-17,
-30,
-32,
-23,
-8,
-4,
-9,
-13,
-7,
4,
22,
44,
46,
35,
33,
21,
10,
-2,
-4,
-8,
-7,
-10,
6,
4,
-2,
-9,
-15,
-31,
-29,
-26,
-18,
-16,
-5,
-3,
5,
7,
4,
4,
-1,
-10,
-6,
14,
43,
52,
35,
28,
-1,
-11,
-22,
-24,
-21,
-14,
-14,
-18,
-22,
-28,
-22,
-2,
16,
26,
22,
8,
12,
12,
17,
15,
10,
5,
7,
18,
25,
12,
7,
6,
12,
0,
1,
-2,
-2,
0,
-4,
-1,
0,
-8,
-16,
-23,
-46,
-47,
-36,
-24,
-23,
-19,
-12,
-8,
0,
16,
21,
22,
18,
6,
3,
12,
20,
28,
19,
8,
14,
8,
4,
-2,
-1,
-11,
-17,
-16,
-32,
-21,
-19,
-34,
-34,
-32,
-44,
-37,
-22,
-11,
0,
-2,
-3,
12,
6,
2,
8,
11,
25,
28,
22,
17,
10,
10,
18,
5,
10,
2,
-8,
-20,
-25,
-27,
-25,
-43,
-48,
-36,
-19,
-7,
-2,
-4,
8,
16,
12,
7,
12,
13,
2,
-8,
-17,
-8,
-19,
-38,
-44,
-39,
-33,
-19,
-23,
-15,
-10,
5,
7,
3,
18,
32,
46,
54,
51,
37,
24,
2,
-13,
-22,
-30,
-32,
-14,
-17,
-14,
-4,
11,
22,
34,
32,
26,
17,
5,
-7,
-12,
-18,
-22,
-26,
-28,
-22,
-14,
10,
14,
20,
39,
40,
36,
22,
7,
3,
16,
25,
12,
-3,
-12,
-10,
-12,
-4,
8,
4,
4,
2,
0,
-6,
0,
-4,
-9,
2,
12,
22,
29,
9,
3,
-13,
-19,
-25,
-33,
-19,
-20,
-11,
2,
-6,
-23,
-35,
-28,
-23,
-16,
-14,
-10,
-17,
-22,
-20,
-19,
-15,
2,
2,
22,
27,
23,
29,
28,
20,
8,
-8,
-12,
-10,
-22,
-18,
-7,
-6,
7,
18,
24,
26,
31,
26,
37,
48,
42,
51,
52,
2,
-6,
-23,
-30,
-28,
-16,
-15,
-17,
-7,
-2,
0,
-18,
-28,
-39,
-45,
-51,
-38,
-20,
-27,
-24,
-19,
2,
12,
18,
21,
29,
26,
27,
5,
-14,
-19,
-28,
-32,
-37,
-20,
-5,
3,
6,
19,
-2,
4,
15,
18,
25,
22,
16,
12,
10,
-6,
-33,
-38,
-22,
15,
17,
16,
5,
-2,
-8,
-12,
-16,
-12,
1,
2,
2,
9,
13,
17,
26,
22,
11,
-19,
-21,
-9,
-27,
-18,
-14,
-18,
-11,
10,
16,
20,
20,
10,
26,
42,
32,
11,
14,
11,
9,
0,
-10,
-18,
-28,
-26,
-20,
-12,
-10,
-6,
-12,
-11,
-1,
0,
1,
0,
-9,
-7,
1,
-6,
1,
3,
11,
18,
16,
19,
20,
12,
4,
4,
6,
-1,
-11,
-13,
-16,
-13,
3,
2,
-28,
-37,
-38,
-26,
-30,
-20,
-15,
-8,
-16,
-16,
-24,
-33,
-35,
-26,
-5,
-4,
-5,
-7,
1,
4,
3,
-6,
-1,
10,
21,
31,
28,
12,
-1,
-4,
-21,
-30,
-14,
-4,
3,
21,
30,
24,
30,
8,
7,
10,
23,
23,
20,
23,
26,
26,
4,
-3,
-6,
-12,
-33,
-22,
-14,
-4,
-16,
-23,
-23,
-30,
-24,
-24,
-22,
-2,
19,
25,
31,
26,
12,
5,
-4,
0,
-11,
3,
11,
12,
12,
8,
-7,
-18,
-36,
-42,
-36,
-23,
-15,
-17,
-9,
-10,
-8,
4,
13,
10,
10,
3,
14,
23,
34,
48,
55,
34,
18,
8,
1,
-1,
9,
16,
8,
-4,
-22,
-33,
-34,
-35,
-38,
-36,
-18,
-13,
0,
8,
12,
-7,
-5,
3,
19,
30,
30,
25,
20,
10,
7,
-13,
-3,
-1,
16,
14,
14,
7,
-3,
-4,
-10,
-20,
-29,
-30,
-37,
-27,
-19,
-13,
1,
2,
4,
1,
0,
-3,
6,
13,
-6,
-6,
10,
21,
26,
0,
-20,
-24,
-40,
-28,
-5,
5,
27,
39,
42,
41,
33,
26,
6,
-12,
-23,
-4,
6,
-1,
-10,
-13,
-13,
-22,
-21,
-6,
25,
18,
17,
21,
1,
6,
8,
-10,
-24,
-27,
-34,
-33,
-28,
-16,
8,
12,
25,
26,
30,
20,
17,
11,
-7,
-8,
-6,
-23,
-26,
-20,
-20,
-16,
-9,
-15,
-11,
-1,
-8,
-10,
-9,
-4,
-2,
18,
33,
15,
8,
8,
-2,
-3,
-11,
-14,
-21,
-15,
-8,
-3,
8,
15,
14,
14,
1,
-3,
-2,
-1,
0,
-1,
-13,
-41,
-46,
-50,
-48,
-39,
-28,
-14,
-2,
25,
9,
-2,
2,
14,
20,
13,
9,
10,
2,
0,
-5,
16,
20,
29,
34,
36,
31,
22,
27,
30,
34,
35,
26,
-1,
-15,
-9,
14,
14,
14,
2,
-24,
-24,
-25,
-16,
-8,
-26,
-40,
-54,
-42,
-34,
-28,
-16,
-14,
-9,
17,
17,
11,
13,
-2,
-11,
-8,
-5,
-13,
-17,
-22,
-30,
-15,
-11,
-17,
-21,
-14,
-9,
-10,
2,
-2,
26,
28,
36,
45,
49,
32,
27,
34,
37,
49,
40,
28,
22,
14,
5,
-24,
-39,
-56,
-67,
-58,
-48,
-33,
-15,
-5,
-4,
-2,
1,
11,
11,
12,
15,
35,
29,
28,
22,
34,
33,
16,
-8,
-17,
-17,
-6,
3,
-5,
-29,
-37,
-34,
-32,
-30,
-15,
2,
26,
39,
50,
60,
55,
58,
46,
28,
15,
16,
16,
12,
4,
4,
6,
3,
-3,
-21,
-27,
-25,
-23,
-8,
0,
-12,
-4,
-1,
-1,
