S3/S3_L/S3_L_jikken/S3_L_Fluctuations/ゆらぎ/一週目波形データ/22k-3/A0000CH1.CSV

Memory Length,4000,
Trigger Level,-1.00000e-01,
Source,CH1,
Probe,1.0X,
Vertical Units,V,
Vertical Scale,1.00000e-01,
Vertical Position,2.00000e-02,
Horizontal Units,S,
Horizontal Scale,1.00000e-02,
Horizontal Position,0.0000000e+00,
Horizontal Mode,Main,
Sampling Period,4.00000e-05,
Firmware,V1.08,
Time, ,
Mode,Fast,
Waveform Data,
30,
30,
29,
2,
-4,
-5,
-13,
-25,
-18,
8,
19,
9,
0,
-10,
-12,
-11,
-24,
-23,
-23,
-7,
-2,
-3,
-2,
18,
6,
13,
20,
22,
6,
-4,
-14,
-9,
-14,
-12,
-3,
9,
17,
-4,
-22,
-28,
-6,
28,
22,
7,
-1,
-12,
-17,
4,
11,
8,
-4,
-10,
-8,
-2,
10,
3,
0,
0,
-10,
0,
14,
16,
17,
29,
-7,
-44,
-51,
-25,
-6,
20,
20,
8,
0,
-14,
-16,
-8,
-3,
18,
14,
3,
-8,
7,
5,
-2,
2,
-2,
-10,
-4,
8,
-1,
1,
-10,
-15,
-10,
-5,
13,
24,
8,
-11,
-16,
-17,
-1,
11,
25,
6,
18,
21,
8,
-1,
-7,
-8,
1,
-6,
-14,
-24,
-12,
-8,
-12,
-14,
-23,
-13,
-1,
0,
12,
7,
-9,
-16,
-31,
-25,
-20,
-23,
-17,
7,
19,
29,
22,
30,
22,
4,
-10,
-20,
-40,
-27,
-17,
-13,
-5,
11,
23,
14,
14,
5,
2,
-1,
2,
-4,
-18,
-29,
-15,
4,
18,
12,
7,
-11,
10,
19,
20,
20,
11,
-35,
-35,
-32,
-23,
-3,
20,
7,
13,
24,
22,
9,
-9,
-6,
-6,
11,
4,
10,
5,
-12,
-11,
-19,
3,
4,
-4,
14,
28,
-4,
-18,
-26,
-12,
-26,
-3,
-1,
-8,
-10,
-12,
16,
28,
17,
4,
-2,
-9,
-32,
-28,
-11,
-7,
0,
-4,
-3,
-6,
14,
19,
5,
4,
-3,
3,
16,
17,
21,
-6,
-8,
-3,
-2,
2,
-19,
-11,
6,
4,
1,
20,
8,
-1,
-2,
0,
3,
4,
-8,
5,
0,
0,
-7,
-6,
-22,
-14,
-2,
-3,
-6,
-12,
-19,
-14,
-22,
-8,
-1,
25,
24,
21,
24,
14,
15,
28,
6,
1,
-10,
-32,
-34,
-19,
-14,
-8,
2,
-6,
-15,
-14,
2,
13,
3,
2,
13,
15,
12,
3,
-18,
-20,
-13,
-4,
27,
12,
-8,
-20,
-29,
-15,
-11,
-16,
-27,
-3,
6,
5,
18,
13,
23,
30,
22,
14,
-10,
-20,
-15,
5,
1,
-9,
-5,
-5,
-13,
-21,
-12,
-14,
-2,
14,
9,
-12,
-8,
2,
-6,
-9,
-1,
-3,
12,
22,
20,
-4,
-9,
-21,
-6,
6,
13,
7,
16,
16,
38,
32,
4,
-4,
-11,
-11,
-11,
-21,
-34,
-31,
-5,
-2,
8,
4,
7,
0,
-7,
-2,
10,
14,
1,
-7,
7,
14,
9,
0,
0,
6,
11,
-5,
-12,
-25,
-20,
-4,
7,
10,
16,
-3,
-19,
-18,
-7,
10,
27,
31,
2,
-12,
-16,
-20,
-10,
-17,
-17,
-18,
-20,
-26,
10,
31,
22,
9,
5,
-3,
-4,
8,
0,
-2,
-12,
-10,
-13,
-10,
-5,
-6,
-2,
14,
15,
14,
-2,
-2,
-3,
4,
23,
29,
8,
7,
16,
8,
1,
-13,
-15,
-14,
-16,
-14,
-23,
-27,
-22,
-25,
-7,
20,
26,
4,
2,
13,
6,
6,
6,
10,
2,
-16,
-22,
-15,
2,
2,
5,
6,
-12,
-18,
-18,
-14,
12,
9,
10,
13,
16,
6,
4,
10,
0,
10,
10,
18,
17,
-14,
-15,
-6,
-3,
-12,
-5,
-6,
-4,
0,
6,
4,
-4,
-6,
-21,
-23,
-16,
-12,
-16,
-24,
-29,
-16,
3,
3,
28,
40,
37,
32,
37,
26,
4,
-3,
-12,
-30,
-48,
-48,
-12,
0,
-3,
25,
38,
41,
28,
18,
-6,
-24,
-17,
-12,
-9,
0,
10,
-17,
-18,
-18,
-18,
-17,
-8,
2,
0,
11,
4,
4,
-18,
-8,
-1,
8,
9,
1,
-3,
-5,
0,
2,
30,
36,
17,
9,
-5,
-5,
-21,
-20,
-7,
-18,
-34,
-25,
-24,
-13,
13,
25,
22,
20,
10,
10,
-2,
-13,
-28,
-36,
-48,
-13,
6,
-2,
-3,
11,
0,
16,
21,
30,
28,
4,
3,
0,
-18,
-12,
-11,
0,
-2,
-9,
-8,
-18,
-9,
12,
4,
-1,
18,
0,
-5,
2,
0,
4,
4,
10,
6,
-12,
-12,
-22,
-5,
12,
4,
16,
-9,
-9,
-20,
-26,
-32,
-16,
-17,
-14,
5,
8,
5,
14,
12,
32,
26,
19,
9,
-5,
-22,
-6,
0,
-6,
3,
-5,
-18,
-5,
4,
4,
3,
-6,
-13,
-23,
-26,
2,
11,
13,
9,
10,
7,
5,
7,
8,
-9,
-12,
-12,
-16,
-29,
-14,
4,
4,
8,
-12,
-4,
12,
10,
1,
0,
-2,
5,
-6,
-20,
-12,
-7,
-8,
-17,
-1,
10,
22,
30,
13,
8,
6,
-9,
-17,
-4,
4,
-1,
9,
-1,
-1,
0,
16,
13,
12,
-5,
-20,
-19,
-22,
-20,
-17,
-22,
-20,
-12,
11,
15,
18,
8,
9,
8,
17,
9,
-4,
-13,
-21,
-10,
-1,
8,
4,
-3,
-2,
0,
6,
-3,
-8,
-10,
-13,
0,
-1,
0,
-10,
-7,
-19,
-21,
-23,
-24,
-10,
12,
18,
16,
26,
7,
-7,
-6,
-5,
-6,
0,
20,
20,
23,
16,
-3,
-1,
14,
18,
0,
-12,
-14,
-4,
-17,
-15,
-14,
-13,
-4,
-7,
12,
33,
44,
30,
9,
-3,
-12,
-20,
-23,
-16,
-12,
-4,
3,
-2,
7,
10,
4,
14,
12,
12,
4,
0,
-5,
-16,
-34,
-27,
-18,
-10,
24,
10,
18,
16,
5,
1,
-16,
-31,
-30,
-22,
-22,
0,
15,
31,
24,
-1,
-10,
-21,
-17,
-9,
16,
18,
6,
-8,
0,
-2,
-6,
1,
-2,
-22,
-26,
-23,
-5,
-12,
9,
25,
31,
21,
20,
29,
6,
-6,
-29,
-48,
-24,
-2,
-4,
1,
-7,
4,
9,
11,
-6,
5,
24,
-2,
-2,
11,
9,
2,
10,
-2,
10,
1,
-11,
-12,
-5,
-6,
0,
-24,
-26,
-8,
-1,
23,
32,
20,
7,
-10,
-13,
-9,
8,
4,
6,
8,
-14,
-12,
-14,
-20,
-22,
-8,
-6,
24,
25,
22,
5,
8,
9,
0,
1,
0,
-7,
-2,
-20,
-22,
-15,
-6,
-24,
-12,
-9,
-5,
-6,
3,
7,
10,
16,
14,
2,
-15,
7,
9,
-18,
-12,
-9,
-4,
-27,
-14,
4,
3,
9,
-5,
-9,
7,
28,
26,
30,
5,
-15,
-12,
-7,
-9,
4,
-10,
-14,
-5,
20,
24,
32,
20,
-2,
-14,
-6,
-2,
-21,
-21,
-18,
-16,
-24,
0,
-18,
-12,
4,
11,
0,
-4,
-14,
-10,
-9,
8,
16,
12,
8,
19,
18,
23,
28,
15,
6,
-7,
-32,
-16,
-11,
-4,
-14,
-21,
-29,
-15,
-14,
-14,
10,
26,
12,
-1,
10,
4,
7,
5,
10,
24,
11,
-6,
-4,
-19,
-12,
-17,
-15,
17,
24,
7,
16,
-12,
-12,
-12,
-2,
8,
29,
20,
16,
-3,
-18,
-6,
7,
-1,
-8,
-5,
-18,
-26,
-16,
7,
12,
2,
-4,
9,
29,
22,
11,
-2,
-6,
-4,
-6,
10,
8,
7,
-6,
-28,
-34,
-29,
-19,
-8,
-3,
13,
-18,
-24,
-19,
-5,
7,
14,
5,
0,
-17,
-7,
-2,
3,
10,
2,
10,
12,
7,
-2,
1,
6,
7,
-4,
-4,
-14,
-5,
-1,
0,
-4,
-2,
-4,
-17,
-19,
-14,
16,
22,
19,
-2,
-16,
-17,
-11,
-21,
-27,
-23,
-11,
8,
28,
15,
16,
22,
15,
13,
4,
9,
8,
-26,
-31,
-8,
-20,
-26,
-14,
17,
40,
43,
26,
-9,
-6,
-16,
-12,
2,
0,
-7,
-1,
-4,
2,
2,
6,
-12,
0,
16,
29,
34,
31,
21,
2,
5,
8,
1,
-24,
-46,
-30,
-30,
1,
2,
-6,
-4,
4,
-6,
-4,
-11,
-7,
-17,
-14,
-15,
6,
9,
11,
-13,
-14,
-7,
-2,
4,
-1,
4,
0,
24,
22,
27,
44,
9,
-11,
-16,
-14,
-30,
-25,
-33,
-20,
-12,
5,
5,
14,
36,
36,
38,
6,
-17,
-28,
-17,
-11,
-18,
-31,
-44,
-32,
6,
12,
23,
28,
28,
14,
11,
6,
-2,
-17,
-15,
-12,
-28,
-20,
4,
8,
4,
6,
-18,
-27,
-20,
-9,
-1,
22,
26,
9,
-4,
4,
-2,
-4,
8,
25,
16,
-2,
-14,
-13,
-9,
8,
20,
2,
-5,
-8,
-4,
-12,
-12,
-7,
6,
14,
9,
2,
14,
7,
-8,
-4,
-14,
-16,
-7,
0,
0,
17,
24,
6,
-2,
-2,
7,
10,
1,
-4,
-1,
-1,
-36,
-22,
-6,
-9,
10,
22,
10,
-14,
-9,
-14,
-6,
7,
18,
13,
-18,
-21,
-22,
-14,
2,
15,
17,
17,
15,
13,
3,
14,
20,
5,
7,
3,
-4,
-7,
-30,
-28,
-31,
-22,
3,
11,
4,
-3,
-11,
-18,
-6,
-5,
-5,
3,
1,
16,
19,
12,
6,
-10,
-16,
-11,
-13,
-26,
-16,
-18,
-15,
10,
-4,
-1,
18,
35,
8,
3,
26,
5,
-1,
-14,
-26,
-31,
-7,
16,
-2,
-5,
1,
10,
-5,
6,
10,
14,
11,
-10,
-15,
-13,
0,
17,
15,
16,
3,
-25,
-38,
-10,
-4,
-8,
14,
15,
17,
-5,
5,
20,
11,
10,
16,
7,
-12,
-30,
-28,
-11,
-9,
-3,
-7,
-9,
-1,
-12,
-17,
-1,
-12,
-3,
11,
6,
-8,
-15,
-12,
1,
29,
27,
20,
5,
-7,
0,
-2,
8,
13,
9,
7,
18,
-4,
-14,
-21,
-30,
-24,
-20,
-13,
1,
11,
24,
15,
12,
0,
-1,
-18,
-3,
0,
3,
4,
-9,
-4,
-1,
-1,
-17,
-18,
-10,
-8,
8,
18,
-12,
-20,
-16,
-2,
5,
8,
-5,
-12,
-2,
6,
-2,
7,
-7,
-13,
6,
30,
34,
32,
12,
-21,
-23,
-24,
-30,
-15,
-12,
-12,
8,
8,
6,
14,
34,
20,
-16,
-18,
-8,
10,
7,
1,
-10,
1,
-10,
-4,
-19,
-19,
8,
16,
9,
14,
5,
6,
1,
0,
-3,
-9,
2,
-16,
-10,
6,
-4,
-9,
-11,
-30,
-26,
-23,
2,
10,
21,
26,
24,
-3,
-1,
0,
-6,
-5,
-1,
6,
28,
22,
12,
-18,
-20,
-11,
-5,
10,
12,
4,
-8,
-18,
-11,
-24,
-19,
-14,
-2,
-2,
-4,
-1,
-7,
11,
11,
19,
20,
19,
-13,
-30,
-28,
-8,
-4,
-12,
-16,
-21,
-16,
6,
-4,
7,
16,
4,
-7,
-15,
0,
14,
19,
12,
-1,
7,
-3,
12,
14,
-1,
-2,
-4,
13,
3,
-10,
-16,
-18,
-25,
-31,
-3,
11,
4,
-11,
-8,
16,
15,
9,
-4,
-2,
29,
4,
8,
2,
-3,
-2,
-19,
-21,
-12,
-2,
-5,
-20,
-12,
-7,
8,
25,
9,
2,
2,
-14,
-2,
1,
14,
-8,
-15,
-14,
-16,
-21,
-8,
12,
17,
11,
10,
4,
6,
3,
2,
-9,
-14,
-18,
-17,
-9,
2,
9,
9,
10,
7,
16,
11,
18,
7,
-8,
-11,
6,
2,
1,
12,
9,
12,
16,
11,
-4,
-12,
-24,
-28,
-23,
-5,
10,
3,
5,
-3,
4,
10,
-10,
-22,
7,
26,
1,
-7,
-13,
-12,
-4,
-14,
-9,
-6,
-18,
-9,
8,
18,
16,
0,
-2,
-2,
-7,
-12,
17,
13,
-4,
-11,
-8,
-9,
-16,
-16,
6,
0,
-2,
18,
16,
12,
8,
-4,
-17,
0,
3,
-1,
4,
10,
24,
17,
14,
-4,
-22,
-22,
-4,
-10,
-17,
-28,
16,
14,
-3,
-2,
4,
15,
-11,
-14,
0,
8,
12,
-1,
-12,
-7,
-8,
-17,
-15,
-11,
-20,
-14,
-25,
-12,
-4,
19,
20,
31,
35,
16,
16,
4,
-1,
-13,
5,
-3,
-13,
-10,
-9,
-28,
-19,
-13,
14,
37,
27,
6,
5,
1,
-2,
-7,
-17,
-12,
-4,
0,
10,
-6,
-11,
-6,
8,
8,
5,
8,
7,
2,
1,
11,
-1,
2,
-5,
-23,
-3,
9,
2,
14,
9,
6,
13,
22,
23,
24,
10,
-6,
-18,
-18,
-5,
3,
15,
7,
2,
-5,
-19,
17,
-6,
-17,
-8,
-20,
-30,
-11,
-1,
17,
19,
11,
-23,
-28,
-19,
-25,
-15,
-2,
-3,
0,
2,
11,
0,
7,
-4,
-5,
-24,
-15,
-14,
2,
23,
12,
13,
7,
18,
22,
17,
1,
6,
12,
6,
-3,
-30,
-22,
-13,
-16,
-11,
-15,
-18,
-5,
-8,
4,
2,
19,
25,
18,
3,
-14,
-6,
-18,
6,
16,
16,
-12,
-27,
-20,
-3,
-1,
-4,
-12,
-10,
-1,
-2,
40,
14,
5,
-2,
-9,
-6,
-12,
-18,
-14,
-19,
-32,
-22,
-5,
32,
31,
24,
16,
-6,
-18,
-29,
-1,
19,
21,
16,
36,
34,
18,
12,
2,
-14,
-9,
-6,
-4,
-14,
-22,
-22,
-30,
-25,
4,
21,
12,
16,
16,
15,
18,
14,
8,
10,
1,
-23,
-41,
-24,
4,
0,
-16,
-18,
4,
10,
10,
2,
-18,
-23,
-18,
-9,
15,
13,
-6,
-13,
-21,
-20,
-17,
-10,
-2,
11,
28,
20,
21,
9,
4,
9,
-1,
-8,
-22,
-5,
13,
5,
-15,
-22,
-22,
-14,
-14,
12,
9,
-9,
-10,
1,
1,
3,
6,
7,
10,
3,
-3,
-9,
-7,
0,
7,
1,
-16,
-18,
-30,
-14,
-2,
4,
-3,
0,
-1,
5,
-5,
-24,
10,
27,
-6,
8,
28,
43,
46,
44,
15,
-28,
-28,
-4,
6,
14,
2,
7,
-16,
-17,
0,
4,
-12,
-46,
-34,
-20,
-10,
18,
35,
20,
18,
22,
16,
1,
-22,
-23,
-36,
-16,
-15,
-19,
-2,
10,
8,
-5,
-4,
16,
4,
-12,
-2,
-6,
-5,
5,
7,
-2,
-28,
-23,
-18,
-6,
4,
2,
5,
4,
0,
12,
20,
21,
28,
17,
-6,
-11,
4,
10,
9,
13,
12,
4,
-16,
-16,
-13,
-20,
-2,
-14,
-9,
2,
14,
20,
14,
6,
3,
7,
15,
-5,
-8,
-18,
-20,
-3,
4,
-2,
-17,
-17,
-10,
-6,
10,
9,
3,
-2,
10,
18,
3,
-12,
-21,
-20,
-36,
-31,
-22,
-12,
6,
8,
10,
9,
-7,
12,
25,
34,
4,
-12,
-23,
-21,
-14,
5,
2,
12,
29,
-5,
-13,
-22,
-25,
-33,
-30,
-23,
-16,
-2,
26,
34,
21,
9,
19,
-5,
2,
-10,
15,
23,
37,
26,
19,
-2,
-26,
-30,
-24,
-22,
-17,
-24,
-14,
3,
5,
12,
5,
3,
7,
4,
9,
5,
-15,
-12,
-28,
-24,
-12,
20,
29,
11,
2,
26,
28,
27,
16,
-1,
-10,
-28,
-32,
-28,
1,
7,
2,
6,
-11,
-31,
-10,
-14,
-8,
1,
5,
5,
27,
16,
15,
20,
18,
9,
-17,
-6,
-3,
4,
-4,
4,
-13,
-4,
2,
10,
4,
2,
-20,
-21,
-8,
-4,
2,
13,
12,
10,
1,
-12,
-27,
-30,
0,
11,
6,
6,
3,
15,
23,
8,
13,
-14,
-25,
-38,
-32,
-14,
0,
10,
8,
-10,
-11,
-6,
1,
6,
1,
0,
5,
-16,
-7,
-2,
3,
15,
4,
7,
-6,
-8,
-13,
-15,
-19,
-4,
5,
0,
3,
4,
7,
29,
25,
2,
-12,
-20,
-11,
-16,
8,
18,
0,
1,
11,
1,
1,
-3,
-27,
-24,
-22,
-10,
6,
18,
6,
2,
9,
-14,
0,
15,
13,
-5,
5,
16,
7,
2,
-20,
-40,
-40,
-8,
13,
14,
16,
16,
-11,
1,
-7,
-14,
-19,
-8,
-4,
-3,
4,
3,
6,
5,
13,
38,
30,
15,
5,
0,
-12,
-20,
-10,
13,
31,
32,
-3,
-23,
-24,
-15,
0,
12,
11,
3,
-1,
-7,
-28,
-18,
-20,
-19,
-12,
-12,
-10,
19,
23,
16,
18,
5,
6,
2,
9,
-15,
2,
-1,
-4,
-2,
-7,
-18,
-6,
-27,
-15,
-4,
-5,
4,
6,
-3,
-8,
22,
20,
10,
5,
-7,
-28,
-25,
-8,
4,
8,
-6,
-8,
-4,
24,
10,
6,
15,
4,
13,
-14,
-20,
-28,
-31,
-22,
-18,
-8,
-6,
8,
26,
20,
-6,
-8,
5,
-8,
-5,
-2,
-7,
-20,
-16,
-2,
6,
28,
28,
30,
12,
11,
-15,
-32,
-24,
-20,
-24,
9,
7,
-15,
-31,
-30,
-6,
17,
31,
21,
10,
-3,
-8,
-11,
2,
-8,
-7,
-10,
16,
18,
12,
26,
27,
17,
-8,
-26,
-48,
-31,
-24,
-15,
-4,
-5,
-8,
0,
7,
19,
29,
3,
-6,
3,
-18,
-4,
25,
34,
42,
34,
16,
-20,
-24,
-15,
1,
-3,
-6,
-15,
-19,
-11,
-7,
-17,
-16,
-16,
-24,
-12,
-6,
7,
15,
29,
28,
31,
18,
10,
-7,
0,
-4,
-18,
-20,
-3,
10,
-8,
0,
1,
-4,
-5,
-12,
-2,
6,
20,
-12,
-22,
-24,
-17,
-17,
10,
11,
-10,
-5,
13,
-2,
-14,
-13,
5,
14,
17,
15,
-13,
-20,
-48,
-17,
3,
-4,
9,
27,
28,
11,
4,
2,
-12,
-5,
3,
-4,
-12,
-28,
-19,
-5,
-2,
12,
3,
-12,
26,
17,
-5,
-7,
10,
16,
0,
-22,
-10,
-12,
-18,
-7,
6,
16,
5,
5,
6,
14,
27,
29,
-6,
-37,
-26,
-10,
-6,
-14,
-9,
-16,
-15,
-5,
12,
11,
6,
-4,
-23,
-9,
-5,
6,
11,
11,
18,
20,
19,
5,
3,
9,
-10,
-22,
-8,
0,
3,
1,
-4,
2,
-2,
5,
4,
-5,
-4,
12,
-8,
-2,
1,
-14,
-22,
-10,
-10,
-4,
-3,
33,
18,
16,
8,
-8,
-4,
-3,
8,
-2,
-15,
-23,
-24,
-14,
4,
10,
20,
14,
8,
24,
30,
22,
1,
-16,
-26,
-35,
-21,
-14,
-14,
1,
3,
-6,
-1,
-9,
-2,
0,
12,
24,
16,
-2,
-8,
-25,
-18,
-2,
12,
20,
0,
-7,
-17,
-16,
4,
8,
-14,
-19,
3,
4,
10,
6,
-1,
2,
17,
26,
8,
4,
-8,
-15,
-32,
-27,
-2,
-2,
1,
2,
-2,
6,
4,
12,
20,
21,
20,
-1,
-7,
-10,
-3,
11,
8,
-7,
-8,
-9,
0,
-8,
-2,
-4,
-23,
-23,
-23,
-6,
29,
24,
28,
24,
23,
22,
12,
14,
12,
-11,
-13,
-16,
-16,
-24,
-24,
-20,
-2,
12,
7,
10,
6,
2,
-14,
-14,
-10,
-3,
-3,
-16,
3,
25,
20,
14,
-3,
-16,
5,
-10,
-15,
-17,
-8,
0,
-6,
-1,
6,
4,
12,
11,
10,
15,
-2,
-4,
8,
6,
4,
-22,
-16,
-11,
-6,
-6,
-10,
-9,
-2,
-12,
-18,
-20,
-1,
-1,
40,
33,
18,
8,
16,
6,
-2,
-18,
-16,
-12,
-14,
-9,
-3,
1,
4,
-5,
-6,
4,
-5,
-16,
-8,
-2,
12,
29,
20,
7,
-12,
-18,
-20,
-5,
3,
14,
16,
24,
1,
-1,
-19,
-32,
-19,
12,
8,
-14,
-22,
-17,
9,
19,
10,
-2,
4,
10,
6,
8,
6,
10,
-12,
-5,
-12,
6,
17,
10,
2,
3,
4,
1,
-12,
-31,
-26,
-25,
-24,
-32,
-12,
-19,
-1,
26,
34,
3,
-20,
2,
16,
14,
-2,
-10,
-1,
10,
-2,
-1,
-5,
-2,
10,
-8,
4,
12,
12,
0,
-1,
6,
12,
7,
-8,
-16,
-2,
-4,
-6,
-4,
-8,
-16,
-13,
-5,
2,
6,
13,
12,
-9,
-4,
-24,
-22,
-6,
-13,
-10,
-4,
0,
8,
11,
-3,
-11,
-14,
3,
0,
8,
16,
9,
-1,
0,
8,
14,
15,
5,
-17,
-21,
-16,
-26,
-30,
-20,
-2,
-2,
9,
13,
42,
39,
16,
-19,
-13,
-2,
11,
5,
20,
19,
9,
-16,
3,
12,
6,
-4,
-9,
-11,
0,
-9,
-4,
-26,
-25,
-18,
-11,
-6,
-6,
9,
17,
11,
10,
-6,
1,
-5,
-28,
-23,
-8,
11,
13,
18,
20,
18,
19,
12,
8,
-8,
-18,
-18,
-17,
2,
5,
11,
6,
2,
-2,
-4,
-14,
-16,
-17,
-17,
-20,
-23,
18,
32,
35,
17,
7,
9,
-8,
-18,
-33,
-20,
-21,
-21,
-12,
-3,
18,
26,
16,
18,
8,
-4,
-21,
-17,
-15,
-6,
4,
-5,
3,
3,
2,
1,
2,
-3,
2,
2,
-2,
0,
0,
3,
-14,
-13,
8,
4,
3,
6,
-4,
-8,
-8,
0,
16,
14,
-6,
-2,
4,
6,
15,
9,
-1,
-6,
-2,
1,
-34,
-32,
-16,
1,
5,
8,
6,
7,
2,
-2,
0,
-2,
2,
6,
4,
11,
-1,
-18,
-19,
-17,
-20,
3,
12,
17,
-4,
-21,
-5,
-13,
-24,
-14,
1,
8,
19,
26,
11,
-5,
-22,
-30,
-48,
-45,
-20,
3,
21,
13,
11,
19,
24,
15,
-7,
-18,
-20,
-6,
2,
9,
24,
21,
3,
-4,
-10,
-1,
-4,
-8,
-6,
1,
2,
-1,
6,
-1,
-6,
0,
2,
-4,
-8,
-8,
-4,
-21,
-4,
-14,
-18,
-6,
0,
9,
20,
12,
5,
4,
-12,
1,
16,
18,
-3,
0,
-9,
-14,
-29,
-15,
-10,
5,
32,
40,
7,
-1,
-9,
-11,
-20,
-24,
-28,
-20,
18,
38,
32,
14,
2,
6,
10,
-5,
-29,
-34,
-24,
-14,
-4,
4,
2,
0,
-3,
-2,
-2,
4,
-9,
-10,
1,
12,
30,
14,
3,
-1,
-4,
-4,
-5,
-20,
-34,
-30,
-16,
-16,
5,
7,
-7,
-9,
-40,
-52,
-21,
-13,
-11,
14,
9,
14,
19,
26,
34,
50,
33,
10,
-12,
-26,
-8,
-25,
-32,
-18,
0,
-2,
-2,
5,
18,
24,
6,
11,
-3,
-3,
-12,
-20,
-8,
-14,
-16,
-21,
-22,
-8,
0,
0,
-4,
4,
-2,
-12,
18,
-1,
2,
10,
2,
-6,
11,
20,
17,
0,
-20,
-18,
-2,
-13,
-6,
8,
4,
0,
-16,
22,
44,
47,
45,
18,
-8,
-34,
-16,
-14,
-20,
-25,
-12,
-10,
5,
3,
16,
-7,
-11,
-4,
-12,
-6,
1,
1,
4,
-9,
-6,
-4,
-13,
-8,
-22,
-21,
-23,
17,
19,
8,
6,
-15,
-17,
19,
35,
-4,
-12,
-8,
2,
12,
18,
12,
1,
20,
30,
29,
27,
-15,
-6,
-4,
-19,
-35,
-48,
-42,
-23,
-8,
-3,
6,
9,
-9,
-22,
-2,
4,
22,
23,
-1,
-3,
6,
-1,
16,
7,
1,
2,
4,
1,
5,
5,
6,
4,
2,
-1,
-4,
4,
-7,
-8,
-17,
-31,
-22,
-6,
-2,
1,
0,
-1,
6,
16,
19,
8,
4,
18,
14,
-7,
9,
4,
-14,
-18,
-18,
-12,
-12,
-4,
16,
6,
-14,
-18,
-10,
-24,
-22,
-14,
-4,
16,
22,
17,
10,
8,
-2,
-3,
13,
3,
-23,
-33,
-14,
-6,
-17,
-32,
-11,
16,
39,
39,
43,
48,
32,
10,
10,
-12,
-38,
-30,
-9,
6,
9,
18,
12,
0,
-16,
-29,
-23,
-13,
-8,
0,
11,
8,
4,
-20,
-29,
-8,
-23,
-20,
3,
17,
21,
0,
-10,
-3,
10,
6,
6,
4,
6,
2,
-6,
3,
-2,
-5,
2,
7,
14,
4,
5,
8,
4,
-1,
-11,
-10,
-6,
-25,
-32,
-6,
2,
17,
26,
2,
4,
-8,
2,
-6,
-10,
9,
-2,
-3,
2,
12,
12,
12,
2,
-8,
-20,
-25,
-17,
-2,
12,
7,
4,
19,
13,
-3,
-4,
-32,
-45,
-16,
-19,
-23,
-12,
2,
0,
-6,
-3,
4,
27,
28,
24,
18,
4,
-10,
-16,
-8,
-10,
-4,
11,
12,
27,
32,
14,
-6,
-16,
-24,
-23,
-27,
-18,
-1,
12,
12,
13,
14,
10,
-16,
-26,
-7,
5,
8,
-9,
-2,
2,
-8,
0,
1,
-2,
0,
1,
6,
0,
0,
-4,
-12,
-24,
-20,
4,
11,
2,
-5,
-2,
6,
4,
12,
13,
-2,
-6,
-33,
-10,
13,
4,
2,
-2,
-22,
-12,
3,
12,
22,
6,
-9,
-12,
-2,
9,
1,
28,
0,
2,
10,
-2,
-16,
-13,
-22,
-18,
5,
12,
15,
-1,
4,
9,
3,
-17,
3,
12,
8,
13,
7,
2,
2,
-16,
-38,
-21,
-2,
14,
15,
-2,
-13,
-25,
-15,
10,
32,
20,
-10,
-28,
-15,
-4,
0,
9,
-3,
0,
0,
-14,
-21,
-22,
6,
17,
25,
2,
-7,
-3,
12,
9,
26,
28,
26,
1,
-21,
-12,
-13,
-17,
-38,
-34,
-14,
0,
12,
22,
33,
25,
5,
-10,
-6,
-5,
-33,
-4,
11,
11,
2,
18,
4,
-4,
-26,
-24,
-22,
-15,
-9,
-4,
17,
12,
24,
33,
15,
-8,
-7,
-25,
0,
4,
11,
9,
6,
-27,
-36,
-27,
-22,
-12,
-3,
5,
14,
23,
21,
21,
-2,
-8,
-18,
-15,
-14,
0,
9,
2,
-9,
-22,
-9,
4,
28,
12,
11,
-6,
-6,
20,
20,
14,
10,
7,
1,
-8,
1,
4,
-10,
-19,
-9,
-18,
-5,
0,
1,
-4,
1,
-6,
-3,
14,
18,
0,
-9,
-14,
1,
15,
11,
-5,
-1,
2,
-3,
4,
11,
-3,
-4,
-8,
-5,
16,
1,
0,
0,
-3,
-21,
0,
12,
12,
28,
21,
-14,
-13,
-8,
-10,
-12,
-20,
-37,
-20,
-8,
10,
13,
8,
4,
15,
24,
21,
24,
8,
-41,
-38,
-9,
-4,
-32,
-33,
-20,
0,
6,
4,
7,
-4,
-6,
-3,
-9,
-7,
-4,
8,
16,
33,
19,
1,
-10,
-6,
0,
-2,
0,
-6,
12,
10,
-8,
-6,
19,
9,
-22,
-34,
-12,
-5,
1,
8,
-12,
8,
10,
14,
11,
-4,
-1,
-9,
-8,
-5,
-12,
-2,
-2,
-7,
-9,
3,
-6,
-3,
-6,
1,
9,
16,
11,
3,
4,
-6,
-4,
-13,
0,
-3,
-21,
-24,
-10,
0,
0,
16,
2,
-4,
9,
21,
24,
15,
10,
7,
4,
12,
1,
-4,
-16,
-24,
-32,
-18,
-15,
-1,
8,
10,
0,
6,
1,
19,
8,
10,
23,
18,
-22,
-20,
-16,
-7,
6,
8,
29,
22,
8,
8,
8,
11,
-4,
-6,
-1,
-8,
-2,
-15,
-8,
-8,
4,
16,
-7,
-6,
1,
-15,
-24,
-11,
-10,
2,
4,
1,
13,
6,
-9,
-7,
4,
-16,
-12,
14,
16,
9,
-7,
-28,
-15,
-6,
-13,
-26,
-27,
7,
8,
23,
14,
22,
-2,
-12,
-27,
-24,
2,
8,
10,
11,
6,
0,
1,
9,
-16,
-30,
-43,
-33,
6,
0,
3,
0,
-2,
-13,
-14,
-32,
-36,
-19,
2,
9,
32,
13,
0,
7,
14,
18,
15,
28,
17,
-22,
-13,
18,
24,
26,
10,
-20,
-26,
-17,
-13,
5,
18,
14,
-17,
-8,
4,
21,
12,
2,
-19,
-29,
-31,
-35,
-6,
6,
17,
17,
6,
17,
13,
19,
21,
-14,
-13,
-21,
-4,
4,
1,
-3,
-13,
-5,
1,
6,
-7,
16,
15,
6,
-10,
