S3/S3_L/S3_L_jikken/S3_L_Fluctuations/ゆらぎ/一週目波形データ/100k-2/A0005CH1.CSV

Memory Length,4000,
Trigger Level,-9.60000e-02,
Source,CH1,
Probe,1.0X,
Vertical Units,V,
Vertical Scale,2.00000e-01,
Vertical Position,4.00000e-02,
Horizontal Units,S,
Horizontal Scale,1.00000e-02,
Horizontal Position,0.0000000e+00,
Horizontal Mode,Main,
Sampling Period,4.00000e-05,
Firmware,V1.08,
Time, ,
Mode,Fast,
Waveform Data,
27,
27,
18,
-3,
-18,
-29,
-36,
-36,
-13,
7,
12,
4,
-14,
-29,
-5,
16,
20,
17,
5,
10,
7,
8,
0,
-1,
1,
-23,
-35,
3,
19,
15,
9,
-10,
-10,
-15,
-6,
-7,
-2,
4,
-6,
3,
16,
15,
6,
11,
3,
5,
-6,
-14,
-29,
-5,
14,
7,
-2,
2,
24,
33,
28,
19,
-21,
-33,
-7,
-1,
2,
1,
-11,
-35,
-35,
-31,
-14,
-8,
10,
29,
7,
16,
15,
11,
11,
-4,
-6,
-16,
-14,
4,
-3,
-6,
-5,
11,
-14,
-44,
-38,
-5,
5,
4,
15,
22,
26,
19,
20,
-5,
9,
5,
0,
-25,
-34,
0,
19,
22,
14,
18,
15,
-1,
13,
27,
14,
6,
-18,
-23,
-30,
-28,
-29,
-19,
-3,
5,
18,
23,
7,
11,
0,
-5,
-11,
-1,
-5,
-4,
-11,
-8,
-6,
-7,
6,
11,
16,
5,
13,
24,
6,
-3,
-1,
-5,
-23,
-21,
-4,
12,
6,
-11,
-16,
-15,
-32,
-20,
-6,
-11,
5,
20,
29,
21,
8,
-11,
-13,
-15,
-2,
-5,
7,
19,
3,
2,
6,
3,
3,
0,
1,
13,
23,
24,
23,
7,
-18,
-35,
-25,
4,
14,
13,
10,
-3,
-35,
-33,
-25,
-29,
0,
23,
19,
7,
11,
-3,
-7,
-8,
-10,
0,
-13,
-1,
14,
2,
-1,
20,
17,
1,
3,
16,
23,
16,
11,
-13,
-3,
8,
0,
-13,
-13,
-17,
-33,
-35,
-2,
15,
10,
6,
3,
-5,
-7,
-2,
7,
-4,
-22,
-21,
-20,
-3,
20,
23,
21,
-6,
0,
-3,
6,
-5,
-1,
11,
9,
-6,
-2,
1,
-1,
-6,
-22,
-12,
-26,
-30,
-25,
2,
-4,
-1,
-21,
6,
-1,
24,
34,
20,
-1,
15,
1,
-5,
-13,
-17,
0,
15,
7,
4,
9,
-7,
-3,
3,
-3,
-24,
-31,
-21,
-18,
-18,
-12,
4,
16,
17,
15,
0,
4,
-1,
-1,
-3,
-6,
-9,
-7,
-11,
-4,
-3,
-5,
-1,
-19,
-8,
14,
31,
37,
24,
0,
-3,
0,
-15,
-6,
-13,
-18,
-13,
-1,
12,
4,
-5,
-2,
7,
17,
11,
11,
23,
12,
-5,
1,
-9,
-22,
-26,
-29,
-17,
-9,
5,
17,
9,
3,
7,
-3,
-8,
-13,
-6,
-5,
-18,
-11,
-5,
19,
34,
41,
22,
14,
8,
0,
1,
-3,
-7,
1,
-5,
5,
4,
3,
-8,
-16,
-12,
-4,
-6,
-8,
11,
15,
11,
-20,
-13,
14,
10,
-7,
25,
10,
3,
-4,
-17,
-33,
-46,
-35,
-18,
-17,
-3,
9,
9,
0,
4,
-6,
-11,
-3,
9,
18,
23,
15,
7,
1,
-11,
-13,
9,
4,
11,
9,
7,
8,
-2,
-4,
1,
3,
10,
19,
19,
2,
-11,
-10,
-13,
-17,
-18,
-11,
11,
26,
14,
-1,
-6,
-7,
14,
9,
-5,
-5,
-7,
-2,
-23,
-25,
-14,
-4,
-3,
-3,
-7,
4,
5,
1,
13,
24,
25,
5,
-16,
-15,
0,
-3,
0,
-5,
-33,
-33,
-35,
-15,
13,
27,
26,
-3,
0,
0,
-15,
-9,
2,
0,
3,
5,
17,
22,
1,
-21,
-33,
-18,
8,
3,
35,
21,
5,
1,
7,
11,
14,
23,
8,
-1,
5,
-16,
-17,
-13,
-17,
-23,
-10,
6,
0,
0,
-4,
-8,
-24,
-29,
-22,
-27,
-32,
-20,
-7,
-3,
5,
17,
31,
24,
-5,
3,
3,
3,
-4,
-13,
-20,
-13,
7,
5,
5,
-1,
-11,
-8,
13,
0,
3,
8,
11,
-12,
-23,
-18,
-5,
12,
10,
-1,
-2,
-9,
-13,
-13,
15,
8,
7,
0,
7,
6,
-9,
-7,
8,
27,
17,
7,
17,
11,
-13,
-27,
-23,
-1,
-13,
-9,
1,
0,
-12,
-9,
12,
25,
42,
25,
0,
-13,
-23,
-29,
-29,
-5,
4,
-1,
5,
-2,
11,
12,
-5,
0,
10,
4,
-4,
-11,
-17,
-27,
1,
13,
7,
-3,
6,
-6,
-10,
1,
7,
3,
-1,
-5,
-15,
-9,
-5,
8,
5,
9,
4,
4,
9,
17,
14,
-6,
-17,
-25,
-19,
3,
0,
-13,
-1,
7,
13,
3,
11,
3,
-8,
-19,
-9,
-11,
-7,
6,
-5,
-18,
-14,
-16,
-18,
1,
3,
0,
19,
9,
12,
23,
27,
24,
16,
-8,
-37,
-36,
-1,
1,
-16,
-3,
3,
1,
13,
19,
18,
-3,
9,
-8,
-29,
-45,
-35,
2,
12,
14,
14,
-9,
-17,
4,
15,
18,
9,
9,
-4,
2,
6,
-7,
-1,
-10,
-4,
2,
2,
-13,
-4,
9,
-8,
-20,
-29,
-28,
-18,
5,
-3,
3,
-4,
12,
-3,
-25,
-5,
10,
7,
-6,
-5,
-9,
-16,
-15,
-19,
-16,
-15,
-8,
29,
40,
44,
40,
18,
-3,
-10,
-26,
-50,
-43,
-23,
-11,
16,
27,
24,
4,
-17,
-14,
7,
23,
29,
13,
21,
25,
21,
6,
-22,
-37,
-23,
-18,
-14,
-9,
-4,
4,
16,
19,
24,
19,
-1,
-22,
-3,
-18,
-21,
-15,
-13,
-10,
1,
-18,
-29,
-20,
-10,
-3,
19,
21,
33,
13,
12,
25,
35,
25,
0,
-9,
-18,
-9,
-5,
11,
14,
12,
-30,
-10,
-14,
-32,
-19,
-8,
3,
-2,
-4,
-3,
-24,
-11,
12,
13,
13,
8,
4,
20,
23,
-6,
-29,
-39,
-31,
-21,
-13,
20,
27,
11,
8,
7,
17,
6,
6,
1,
29,
31,
6,
-2,
-1,
-11,
-20,
12,
5,
-11,
-27,
1,
3,
-14,
-24,
-17,
15,
20,
2,
-27,
-37,
-31,
-33,
-27,
7,
14,
13,
31,
34,
21,
7,
-1,
-21,
-1,
7,
7,
-12,
-13,
-5,
-3,
6,
7,
-2,
5,
12,
16,
11,
4,
3,
2,
9,
-13,
-11,
-7,
-8,
0,
-8,
-13,
-16,
-17,
-30,
-15,
11,
18,
12,
5,
-21,
-10,
-3,
-22,
-11,
-5,
2,
-3,
3,
14,
33,
32,
15,
-6,
-33,
-43,
-27,
-30,
-20,
-7,
6,
6,
-1,
6,
18,
22,
26,
23,
11,
7,
2,
-6,
9,
7,
1,
2,
6,
3,
-9,
-17,
-29,
-37,
-33,
-8,
-2,
8,
3,
3,
7,
33,
41,
14,
-3,
-11,
-1,
-19,
-26,
-21,
-18,
-13,
-17,
-6,
5,
10,
21,
7,
-5,
-7,
13,
27,
31,
20,
-3,
-16,
-6,
-15,
-22,
-29,
-13,
-19,
-22,
-3,
3,
8,
5,
28,
19,
4,
-7,
-7,
-7,
-3,
-1,
-2,
-4,
3,
-8,
4,
4,
-7,
-4,
-1,
-5,
-19,
-17,
-17,
-17,
-2,
1,
19,
41,
33,
35,
23,
-6,
-16,
-3,
-7,
-17,
-21,
-25,
-13,
-11,
-1,
-6,
-10,
15,
17,
1,
15,
11,
-12,
-4,
20,
25,
16,
14,
4,
-11,
-4,
1,
-6,
-13,
-13,
-9,
-25,
-13,
3,
1,
3,
3,
13,
11,
15,
-3,
-3,
-4,
-9,
5,
11,
-20,
-28,
-51,
-41,
-23,
-4,
11,
16,
16,
22,
1,
-5,
4,
-9,
5,
-6,
-9,
-4,
-6,
-5,
-2,
6,
13,
27,
13,
2,
2,
-4,
-9,
-9,
-4,
-17,
-26,
-18,
-7,
-9,
-13,
-5,
11,
16,
11,
17,
4,
8,
-1,
-9,
-11,
8,
13,
13,
0,
7,
-5,
-35,
-43,
-17,
17,
45,
50,
44,
6,
13,
17,
3,
-7,
-20,
-18,
-21,
-15,
-11,
-8,
-5,
-9,
-9,
0,
-1,
-17,
-15,
3,
7,
-2,
-3,
-8,
-14,
-25,
-10,
15,
33,
31,
3,
-17,
-3,
16,
24,
17,
9,
17,
12,
10,
-9,
-10,
-4,
-17,
-23,
-11,
-9,
-9,
-8,
-4,
3,
7,
25,
35,
25,
-1,
5,
-3,
-19,
-17,
-21,
-21,
-19,
-7,
19,
12,
5,
6,
17,
9,
-28,
-37,
-21,
-5,
-5,
11,
21,
12,
1,
-27,
-25,
4,
1,
-5,
8,
9,
4,
-1,
-1,
3,
13,
15,
3,
-13,
-5,
19,
11,
-7,
-10,
-4,
-5,
-13,
-15,
0,
8,
11,
6,
1,
5,
-1,
-4,
-1,
9,
-2,
3,
-6,
8,
14,
2,
0,
-19,
-34,
-51,
-30,
-6,
7,
11,
23,
17,
13,
-5,
0,
2,
-1,
-17,
-21,
-25,
-28,
13,
22,
27,
21,
-14,
-10,
-4,
1,
-20,
-14,
-8,
-9,
-32,
-6,
5,
-3,
1,
1,
7,
13,
44,
10,
5,
8,
2,
3,
-18,
-19,
-5,
10,
17,
6,
12,
11,
21,
1,
5,
3,
-25,
-27,
-24,
-4,
-23,
-22,
-4,
15,
8,
12,
-7,
-14,
-9,
1,
3,
3,
-25,
-13,
-14,
-6,
-1,
-1,
4,
17,
24,
22,
23,
18,
19,
16,
6,
-6,
-14,
-29,
-28,
11,
3,
-8,
3,
6,
2,
-1,
-4,
12,
16,
3,
2,
-5,
19,
15,
5,
-19,
-26,
-29,
-17,
-19,
-33,
-11,
-17,
1,
5,
-19,
-1,
-5,
-1,
6,
-5,
17,
42,
36,
35,
15,
-5,
-17,
-22,
-26,
5,
-1,
-5,
0,
8,
-11,
-1,
16,
29,
13,
-15,
-26,
-19,
-18,
-13,
-14,
13,
3,
5,
12,
9,
-5,
-12,
-21,
-9,
-15,
-19,
0,
11,
6,
27,
23,
9,
-16,
-10,
-4,
-16,
-17,
-8,
-10,
-13,
-22,
9,
28,
28,
33,
42,
11,
-4,
-16,
-19,
-18,
-12,
-16,
-10,
-12,
-3,
-6,
-21,
-10,
-12,
-5,
8,
19,
-13,
-11,
-7,
-2,
25,
15,
20,
13,
5,
-9,
13,
23,
-8,
-11,
-6,
-4,
-35,
-47,
-21,
-2,
21,
40,
38,
3,
4,
-9,
-2,
-18,
-8,
-9,
-16,
-1,
-3,
5,
-5,
-1,
9,
27,
22,
24,
39,
43,
30,
1,
-29,
-44,
-25,
-20,
-45,
-43,
-19,
-18,
-13,
6,
30,
-8,
-8,
-11,
-2,
11,
11,
-4,
-1,
3,
12,
15,
20,
19,
7,
14,
9,
6,
-4,
1,
1,
8,
-19,
-9,
-7,
-33,
-30,
-22,
-23,
-29,
-20,
7,
19,
30,
19,
17,
8,
-9,
-3,
-5,
-10,
6,
2,
-1,
9,
-7,
-7,
8,
26,
33,
10,
-2,
1,
-11,
-34,
-25,
-18,
17,
17,
11,
-7,
-23,
-17,
-4,
-1,
-3,
-11,
-19,
-5,
13,
20,
38,
38,
28,
27,
17,
4,
-15,
-33,
-27,
-17,
-4,
13,
-6,
-21,
-21,
-24,
-7,
3,
5,
13,
-3,
-15,
-8,
-11,
-21,
3,
-11,
-27,
-29,
4,
24,
23,
11,
3,
6,
-9,
-7,
-4,
2,
1,
16,
16,
22,
18,
13,
17,
13,
3,
-2,
-8,
-17,
-11,
-28,
-18,
-24,
-23,
-15,
-16,
-4,
9,
5,
-5,
-3,
-11,
-5,
-5,
4,
1,
-3,
13,
17,
13,
14,
22,
13,
-14,
-6,
-11,
-34,
-32,
-21,
15,
16,
-5,
8,
13,
7,
1,
-2,
5,
9,
19,
27,
26,
30,
1,
-6,
9,
8,
1,
-3,
-15,
-33,
-25,
-13,
-18,
-9,
-7,
-6,
1,
13,
16,
3,
-9,
-20,
-29,
-10,
-9,
5,
9,
7,
-6,
8,
-23,
-44,
-16,
19,
9,
3,
-12,
-11,
-8,
2,
13,
5,
9,
8,
16,
16,
14,
10,
-19,
-25,
-21,
-18,
-7,
1,
33,
33,
16,
15,
-19,
-21,
8,
13,
-15,
-29,
-22,
7,
23,
17,
-3,
-15,
-1,
11,
-6,
-13,
-18,
-16,
-37,
-12,
3,
14,
14,
15,
-8,
-15,
-11,
6,
5,
19,
3,
-3,
-17,
-20,
-21,
-20,
-27,
-5,
23,
31,
-1,
-18,
-7,
5,
23,
19,
2,
5,
3,
-8,
-18,
-9,
13,
13,
10,
-4,
-6,
-11,
-17,
-17,
10,
8,
-1,
13,
23,
-4,
-25,
-38,
-28,
-28,
-23,
-19,
3,
8,
5,
3,
10,
17,
11,
18,
21,
1,
-8,
17,
5,
-1,
5,
5,
-3,
-9,
-17,
-2,
2,
18,
13,
9,
4,
10,
-1,
-23,
-23,
-26,
-33,
-15,
-8,
0,
-13,
-20,
-23,
-17,
-3,
-1,
4,
13,
22,
4,
4,
19,
22,
19,
11,
-15,
-37,
-40,
-18,
-9,
3,
9,
11,
34,
27,
52,
39,
23,
3,
-5,
-19,
-21,
-39,
-44,
-32,
-23,
-19,
-17,
-37,
-16,
-1,
14,
22,
35,
39,
16,
-5,
15,
14,
23,
16,
-16,
-9,
-7,
-21,
-15,
-20,
-8,
-2,
-6,
0,
24,
48,
46,
22,
-4,
-17,
-25,
-27,
-17,
-10,
-13,
-13,
10,
20,
1,
-4,
-11,
-10,
-3,
19,
-17,
-25,
-2,
7,
3,
-2,
4,
10,
17,
-1,
-4,
-10,
-11,
1,
-17,
-27,
-34,
-13,
-11,
-14,
-13,
9,
5,
17,
41,
45,
35,
27,
27,
17,
-5,
3,
-10,
-33,
-38,
-27,
-20,
10,
10,
10,
17,
15,
11,
6,
-19,
-11,
-16,
7,
-7,
-17,
-19,
-19,
10,
3,
-7,
1,
4,
20,
16,
6,
-1,
-13,
-14,
-1,
20,
-11,
-16,
-21,
-29,
-15,
2,
8,
14,
-13,
24,
22,
17,
21,
-8,
-10,
-4,
1,
-11,
-25,
-30,
-21,
13,
27,
28,
24,
9,
-26,
-13,
7,
16,
-2,
-14,
-9,
6,
2,
4,
2,
4,
-19,
-16,
3,
5,
10,
5,
-5,
3,
-5,
-18,
-20,
15,
13,
-10,
-15,
-9,
-2,
-18,
-5,
10,
24,
-1,
-11,
-1,
10,
18,
10,
-5,
-5,
-2,
-20,
-25,
-23,
-3,
9,
9,
5,
23,
35,
13,
7,
13,
13,
5,
6,
-10,
-7,
-35,
-29,
-14,
5,
4,
10,
5,
-3,
-12,
7,
4,
4,
14,
19,
21,
11,
3,
3,
-7,
-13,
-26,
-35,
-38,
-18,
6,
13,
5,
8,
-3,
-16,
-13,
-13,
2,
-6,
-6,
-7,
-13,
0,
12,
-1,
-3,
7,
6,
-18,
5,
32,
36,
28,
9,
-1,
-8,
-3,
7,
15,
4,
-19,
-24,
-1,
-2,
-7,
-1,
-5,
-11,
-5,
-2,
-10,
-12,
-18,
-26,
-21,
-17,
-3,
1,
31,
30,
8,
-2,
-6,
-1,
-6,
-7,
7,
18,
1,
-3,
5,
-4,
-14,
-5,
-5,
4,
9,
15,
4,
-14,
-44,
-43,
-28,
-3,
-4,
31,
46,
35,
22,
5,
6,
3,
-28,
-29,
-26,
-9,
-9,
3,
-7,
-8,
-8,
-8,
-7,
5,
12,
-2,
12,
15,
3,
5,
7,
3,
5,
4,
14,
-3,
-3,
9,
-17,
-10,
-5,
18,
23,
24,
10,
13,
-3,
-13,
-16,
-19,
-13,
8,
11,
6,
-32,
-25,
-8,
1,
25,
25,
11,
-5,
1,
1,
-16,
-17,
-8,
-3,
11,
15,
-15,
-11,
3,
18,
6,
-36,
-20,
9,
-1,
7,
2,
-13,
-10,
-7,
-3,
2,
14,
12,
3,
-14,
-28,
-5,
11,
3,
-8,
-13,
-21,
-19,
-1,
5,
6,
0,
-10,
-32,
-30,
-4,
-1,
8,
14,
13,
7,
12,
9,
1,
8,
10,
19,
19,
-5,
-11,
-18,
-43,
-28,
-6,
2,
8,
22,
22,
12,
5,
-8,
-4,
-1,
-3,
0,
0,
9,
1,
-6,
5,
1,
0,
-20,
-11,
-3,
-16,
-10,
-5,
-17,
-3,
-7,
-6,
11,
22,
16,
9,
-3,
13,
8,
4,
7,
13,
5,
-5,
2,
1,
1,
-7,
-19,
-31,
-21,
-9,
3,
6,
2,
9,
5,
5,
19,
22,
22,
27,
10,
8,
-38,
-49,
-19,
-7,
4,
19,
-13,
-1,
3,
-13,
11,
23,
5,
-5,
-15,
-21,
-26,
-36,
-1,
43,
51,
37,
17,
13,
3,
-6,
-25,
-25,
-33,
-29,
-13,
-16,
-14,
0,
11,
15,
19,
7,
-12,
-19,
-4,
-6,
-15,
-22,
-1,
11,
2,
2,
22,
17,
7,
-1,
4,
3,
9,
-9,
3,
-14,
-5,
-16,
-20,
-9,
2,
19,
15,
9,
-6,
-18,
-30,
-5,
4,
24,
9,
-5,
1,
2,
-12,
-3,
-4,
0,
12,
17,
-2,
-4,
-14,
-14,
-11,
9,
21,
-2,
-11,
-24,
-21,
2,
-5,
-2,
-7,
-6,
0,
9,
7,
22,
19,
0,
-5,
3,
7,
-9,
4,
8,
2,
-17,
-15,
-12,
-16,
-7,
1,
-2,
-5,
23,
27,
22,
11,
3,
-20,
-24,
-21,
-19,
-9,
2,
-11,
-4,
-14,
-7,
-3,
5,
-13,
-11,
-8,
-8,
8,
9,
19,
27,
4,
-2,
26,
25,
13,
-1,
3,
3,
-4,
-14,
-23,
-9,
-7,
-9,
-9,
-1,
5,
6,
1,
-1,
5,
13,
7,
6,
11,
9,
-21,
-23,
-23,
-22,
-25,
-7,
-1,
6,
11,
12,
25,
20,
27,
6,
-28,
-26,
-17,
-3,
3,
0,
-1,
-3,
-5,
-15,
-17,
-9,
-6,
2,
19,
24,
31,
17,
33,
33,
20,
-23,
-18,
-21,
-22,
-18,
-19,
-15,
-10,
17,
10,
-10,
2,
3,
5,
-5,
-25,
-22,
-10,
5,
-3,
10,
3,
-8,
-5,
-5,
15,
26,
28,
13,
8,
2,
3,
0,
6,
9,
-5,
-11,
-20,
-25,
-17,
-2,
-5,
11,
11,
7,
9,
12,
6,
7,
14,
4,
-4,
-16,
-25,
-33,
-20,
-13,
1,
5,
15,
7,
21,
27,
21,
17,
-2,
-20,
-17,
-29,
-39,
-37,
15,
44,
31,
18,
21,
11,
-9,
-18,
-5,
-7,
-12,
-13,
-4,
-10,
-4,
-1,
-3,
-9,
3,
16,
15,
0,
4,
7,
11,
1,
-22,
-30,
-28,
-14,
-2,
-19,
-5,
3,
6,
12,
3,
-8,
-5,
0,
1,
11,
13,
-15,
-13,
-16,
-14,
-1,
6,
17,
12,
12,
15,
4,
-1,
-3,
-3,
-7,
3,
3,
20,
26,
30,
10,
7,
0,
-13,
-25,
-40,
-35,
-15,
-2,
1,
2,
-7,
-6,
-4,
-3,
3,
2,
0,
17,
18,
2,
-5,
-6,
-28,
-31,
-25,
0,
-19,
-18,
-1,
9,
15,
19,
4,
3,
8,
8,
15,
10,
8,
13,
11,
12,
-2,
2,
-1,
-4,
-12,
-12,
0,
5,
14,
-4,
3,
3,
-3,
-17,
-23,
-15,
18,
12,
6,
6,
-12,
-21,
-21,
-27,
-29,
-33,
-10,
-2,
17,
7,
8,
13,
-4,
-16,
-19,
-11,
-15,
-13,
-9,
8,
33,
24,
-2,
23,
25,
14,
-7,
-9,
-23,
-22,
-13,
2,
-4,
-1,
-2,
-5,
-7,
3,
-2,
-1,
14,
14,
4,
9,
4,
-1,
-6,
-3,
-4,
-22,
-5,
5,
12,
20,
-3,
-14,
-13,
-3,
-13,
-13,
-5,
-3,
-12,
-13,
-17,
2,
-2,
7,
15,
12,
4,
-3,
-4,
13,
8,
26,
20,
-1,
-19,
-14,
-3,
-13,
-21,
-8,
-6,
-10,
-21,
-9,
-7,
6,
13,
10,
3,
1,
-7,
11,
8,
2,
4,
20,
-2,
-14,
-19,
-10,
-17,
-9,
-13,
3,
19,
25,
13,
15,
9,
0,
-3,
5,
3,
-3,
-19,
-22,
-1,
-7,
-4,
13,
17,
27,
23,
31,
26,
31,
18,
-7,
-14,
-14,
-23,
-43,
-68,
-63,
-51,
-49,
-14,
4,
13,
14,
25,
18,
19,
35,
27,
-2,
-6,
-12,
-1,
-15,
-8,
5,
2,
8,
11,
1,
-5,
-8,
-22,
-19,
-10,
-7,
-3,
-8,
-13,
-19,
-17,
14,
26,
18,
13,
15,
7,
4,
-1,
12,
24,
21,
8,
-12,
-18,
-1,
-3,
-10,
0,
9,
3,
-3,
-5,
-17,
-14,
-6,
2,
-7,
-1,
7,
1,
-12,
-6,
17,
13,
-1,
-19,
-9,
-7,
-5,
-6,
-1,
15,
-1,
-20,
-10,
-12,
-15,
3,
-5,
-5,
3,
-5,
4,
9,
5,
9,
15,
-11,
-23,
-36,
-15,
-4,
21,
7,
4,
6,
15,
20,
-7,
-19,
-20,
1,
9,
-4,
-6,
15,
19,
9,
7,
11,
-4,
-1,
13,
23,
9,
-2,
-4,
-1,
7,
-16,
-17,
-13,
0,
-3,
-12,
-11,
-20,
-23,
-13,
20,
43,
31,
-4,
-22,
-16,
-16,
-3,
-18,
-2,
9,
24,
36,
15,
-12,
-17,
-25,
-29,
-21,
-7,
-6,
-7,
6,
10,
-22,
-5,
4,
-7,
-22,
1,
12,
19,
34,
31,
18,
3,
-9,
-1,
8,
1,
-10,
-8,
-3,
6,
-15,
-12,
13,
14,
17,
25,
18,
1,
-21,
-37,
-51,
-34,
-5,
0,
0,
-7,
-16,
-15,
3,
28,
27,
13,
8,
2,
4,
10,
17,
2,
-3,
-16,
-13,
-15,
-3,
2,
-5,
-2,
-2,
11,
5,
-5,
-1,
-7,
-15,
-22,
-21,
-6,
10,
13,
3,
8,
15,
1,
-8,
-19,
-27,
-11,
5,
5,
-13,
-11,
6,
31,
17,
16,
11,
21,
-1,
4,
-4,
-11,
-3,
-16,
-29,
-21,
-19,
-17,
-20,
-15,
-9,
13,
8,
-5,
-2,
-5,
5,
5,
10,
17,
26,
17,
4,
-6,
-20,
-18,
-7,
4,
-7,
-26,
-21,
-13,
30,
30,
19,
6,
14,
2,
-31,
-27,
-19,
2,
8,
-1,
-1,
-3,
3,
4,
-1,
-4,
-3,
-2,
-2,
2,
-13,
-12,
1,
23,
21,
22,
13,
-1,
-5,
-7,
-12,
-1,
-7,
-15,
-12,
-13,
5,
23,
17,
-1,
6,
10,
1,
-27,
-26,
-25,
-32,
-20,
-2,
5,
14,
11,
-18,
-7,
-8,
-8,
-13,
-5,
11,
8,
-3,
-9,
2,
18,
33,
28,
5,
-9,
-4,
-10,
-21,
-34,
-21,
-8,
-20,
0,
14,
15,
20,
22,
21,
4,
19,
6,
2,
-13,
-24,
-24,
-8,
12,
-1,
5,
2,
-19,
-28,
-7,
3,
-5,
-6,
-7,
3,
-1,
9,
11,
13,
17,
-6,
-9,
-17,
-35,
-45,
-15,
17,
49,
46,
33,
17,
1,
-19,
-28,
-25,
-1,
7,
6,
-1,
-8,
-23,
-27,
-9,
8,
-6,
-19,
-8,
-1,
-6,
-1,
-9,
-1,
0,
9,
12,
15,
-13,
0,
-1,
5,
2,
3,
13,
12,
0,
-13,
-10,
1,
-3,
-6,
-12,
-11,
-11,
-3,
-4,
-29,
-9,
11,
20,
23,
5,
15,
16,
6,
-4,
-8,
-11,
-7,
3,
4,
7,
1,
7,
3,
9,
12,
13,
21,
7,
5,
-3,
-23,
-30,
-34,
-18,
-9,
-9,
-3,
-10,
-1,
-1,
8,
2,
-7,
-14,
-9,
4,
1,
0,
0,
15,
20,
25,
13,
-17,
-17,
-19,
1,
9,
-7,
-14,
6,
7,
-2,
9,
22,
4,
-15,
-15,
-20,
4,
16,
30,
1,
5,
-3,
-9,
3,
9,
-14,
-27,
-43,
-12,
-4,
-9,
-19,
-1,
3,
14,
9,
15,
12,
7,
-2,
-3,
-20,
-16,
-5,
3,
9,
19,
20,
24,
20,
3,
-26,
-18,
-21,
-5,
1,
-8,
-8,
-3,
-16,
10,
3,
3,
16,
-17,
-19,
0,
7,
9,
6,
15,
-1,
-11,
-14,
-21,
-14,
-8,
5,
-1,
8,
17,
-1,
-16,
-22,
-1,
24,
31,
28,
22,
19,
21,
-30,
-47,
-38,
-19,
4,
-2,
-9,
-8,
2,
24,
23,
6,
0,
3,
7,
-19,
-17,
-1,
7,
13,
11,
5,
-11,
-5,
-17,
-10,
-5,
-5,
-6,
-29,
-36,
-26,
-14,
17,
28,
29,
23,
-8,
-18,
-9,
0,
-3,
-12,
-4,
-1,
2,
4,
-1,
4,
-12,
-23,
-12,
-7,
-1,
2,
17,
31,
37,
-1,
-9,
-10,
-2,
-4,
-29,
-32,
1,
19,
31,
27,
3,
3,
1,
-14,
-5,
14,
15,
-2,
-17,
-5,
-1,
0,
-5,
-6,
-12,
-24,
0,
13,
14,
-7,
-13,
-3,
-16,
-11,
-13,
-17,
-27,
-41,
-25,
1,
32,
41,
11,
18,
19,
-5,
-5,
3,
9,
9,
-11,
-15,
-26,
-37,
-25,
-21,
-8,
19,
13,
20,
17,
12,
18,
3,
3,
5,
-7,
-19,
0,
7,
11,
-8,
-1,
13,
-2,
-6,
-16,
-6,
-16,
-7,
0,
15,
-22,
-31,
-25,
8,
4,
8,
-1,
10,
13,
-3,
-5,
18,
11,
14,
9,
-1,
-20,
4,
8,
-5,
-2,
4,
10,
3,
-5,
-25,
-19,
-16,
-15,
-14,
-6,
-10,
-3,
12,
28,
27,
28,
13,
-4,
-7,
5,
-15,
-9,
2,
5,
-3,
-11,
-32,
-41,
-20,
1,
10,
12,
19,
3,
-9,
-6,
-3,
8,
17,
17,
11,
25,
26,
25,
0,
-12,
-36,
-42,
-44,
-29,
-20,
-6,
-5,
-6,
21,
33,
47,
15,
-7,
-9,
1,
-5,
-4,
-20,
-25,
-23,
-26,
-21,
-27,
-5,
11,
33,
47,
22,
-15,
-5,
4,
-9,
-7,
-12,
5,
15,
17,
19,
0,
-4,
20,
22,
1,
-25,
-44,
-41,
-47,
-31,
-7,
8,
11,
-3,
7,
2,
5,
-5,
13,
32,
35,
37,
25,
-28,
-27,
-23,
-25,
-29,
-12,
0,
-6,
-8,
6,
18,
21,
1,
2,
-19,
-22,
-7,
9,
28,
28,
24,
13,
7,
13,
20,
10,
-12,
-15,
-1,
8,
-2,
-19,
-18,
-15,
-3,
5,
1,
8,
12,
15,
5,
-3,
0,
-6,
-14,
-11,
-18,
-19,
-8,
1,
-11,
-23,
-19,
-29,
4,
8,
-4,
17,
11,
27,
32,
15,
6,
-3,
-14,
-17,
1,
-5,
-10,
0,
1,
19,
42,
38,
19,
-17,
-26,
-28,
-25,
-5,
-9,
-3,
-7,
-11,
-3,
4,
5,
5,
6,
-4,
-8,
-1,
6,
-5,
-18,
-25,
-28,
-13,
-24,
-30,
-4,
5,
11,
20,
25,
33,
41,
27,
13,
-10,
-15,
-7,
-6,
-12,
-3,
-1,
-14,
-18,
-22,
-18,
-12,
3,
3,
1,
21,
23,
23,
14,
0,
2,
-3,
5,
-5,
-10,
-16,
-18,
21,
23,
8,
-7,
-17,
-22,
-26,
-25,
-17,
14,
29,
20,
5,
-1,
-15,
-5,
9,
11,
14,
2,
21,
20,
17,
11,
1,
-19,
-34,
-27,
-15,
4,
29,
25,
-3,
1,
2,
7,
10,
3,
-11,
-9,
-10,
-26,
-13,
-18,
-21,
-18,
-9,
16,
1,
11,
21,
11,
-3,
-16,
-17,
-9,
-17,
-32,
-9,
-6,
-10,
17,
19,
3,
1,
24,
25,
18,
12,
5,
13,
-2,
-4,
7,
12,
0,
-8,
-11,
-30,
-40,
-26,
-24,
12,
8,
18,
14,
15,
19,
27,
13,
6,
-2,
-27,
-22,
-33,
-25,
-13,
15,
17,
-3,
-13,
-11,
-8,
-16,
-17,
-3,
-10,
-6,
7,
12,
-15,
-9,
12,
-2,
-16,
-11,
1,
8,
17,
16,
9,
2,
-18,
-6,
-7,
2,
13,
-1,
0,
6,
-9,
-7,
-10,
-33,
-20,
0,
13,
17,
6,
14,
13,
12,
21,
8,
-4,
-4,
9,
-1,
-3,
-10,
-13,
1,
1,
19,
13,
-3,
-9,
-7,
8,
-7,
-5,
-5,
